run_id,job_name,policy,datasize,host,lb_before_1,lb_before_2,lb_after_1,lb_after_2
0,sorter,ec-RS-6-3-1024k,40,econome-11,3081028,3081064,6791016,6791016
0,sorter,ec-RS-6-3-1024k,40,econome-12,3424184,3424184,7537776,7537776
0,sorter,ec-RS-6-3-1024k,40,econome-13,2373556,2373504,5296440,5296440
0,sorter,ec-RS-6-3-1024k,40,econome-14,2901656,2901444,6808288,6808288
0,sorter,ec-RS-6-3-1024k,40,econome-15,2635848,2635636,5773564,5773564
0,sorter,ec-RS-6-3-1024k,40,econome-16,3428904,3428904,7319244,7319244
0,sorter,ec-RS-6-3-1024k,40,econome-17,2634688,2634688,6149684,6149684
0,sorter,ec-RS-6-3-1024k,40,econome-18,3691196,3691196,6811628,6811628
0,sorter,ec-RS-6-3-1024k,40,econome-19,3864420,3864384,6608988,6608988
0,sorter,ec-RS-6-3-1024k,40,econome-2,3074188,3074248,6782248,6782248
0,sorter,ec-RS-6-3-1024k,40,econome-20,1845236,1845192,5555384,5555384
0,sorter,ec-RS-6-3-1024k,40,econome-21,3864660,3864660,7379324,7379324
0,sorter,ec-RS-6-3-1024k,40,econome-22,3866392,3866356,0,0
0,sorter,ec-RS-6-3-1024k,40,econome-3,4393996,4393996,8110544,8110544
0,sorter,ec-RS-6-3-1024k,40,econome-4,2813288,2813288,6337556,6337556
0,sorter,ec-RS-6-3-1024k,40,econome-5,2637060,2637120,5378708,5378708
0,sorter,ec-RS-6-3-1024k,40,econome-6,2370592,2370652,0,0
0,sorter,ec-RS-6-3-1024k,40,econome-7,3339676,3339676,7058092,7058092
0,sorter,ec-RS-6-3-1024k,40,econome-8,3426024,3425608,5759456,5759456
0,sorter,ec-RS-6-3-1024k,40,econome-9,3602904,3602868,7511780,7511780
0,sorter,rep3,40,econome-11,6838104,6838028,14297368,14297368
0,sorter,rep3,40,econome-12,5263044,5263248,12907032,12907032
0,sorter,rep3,40,econome-13,6062796,6062688,0,0
0,sorter,rep3,40,econome-14,5520452,5520536,12327760,12327760
0,sorter,rep3,40,econome-15,7369636,7369844,14792536,14792536
0,sorter,rep3,40,econome-16,7369824,7370036,15757672,15757672
0,sorter,rep3,40,econome-17,5273756,5273936,11303372,11303372
0,sorter,rep3,40,econome-18,9486740,9486780,14968284,14968284
0,sorter,rep3,40,econome-19,5791480,5791504,13723456,13723456
0,sorter,rep3,40,econome-2,7115916,7116248,16117640,16117640
0,sorter,rep3,40,econome-20,5266572,5266672,12389404,12389404
0,sorter,rep3,40,econome-21,5534252,5534424,14676992,14676992
0,sorter,rep3,40,econome-22,6848552,6848432,12187524,12187524
0,sorter,rep3,40,econome-3,6052392,6052356,0,0
0,sorter,rep3,40,econome-4,6841292,6841776,13981692,13981692
0,sorter,rep3,40,econome-5,6844940,6845600,13337188,13337188
0,sorter,rep3,40,econome-6,5795164,5795192,12098280,12098280
0,sorter,rep3,40,econome-7,6331352,6331276,12224176,12224176
0,sorter,rep3,40,econome-8,4477796,4477888,10885844,10885844
0,sorter,rep3,40,econome-9,6316664,6316800,12491328,12491328
0,word-count,ec-RS-6-3-1024k,40,econome-11,3339896,3339916,3351176,3351176
0,word-count,ec-RS-6-3-1024k,40,econome-12,3078668,3078728,3091100,3091100
0,word-count,ec-RS-6-3-1024k,40,econome-13,528656,528656,541928,541928
0,word-count,ec-RS-6-3-1024k,40,econome-14,3432704,3432704,3444460,3444460
0,word-count,ec-RS-6-3-1024k,40,econome-15,2023072,2023072,2032992,2032992
0,word-count,ec-RS-6-3-1024k,40,econome-16,1057220,1057220,1062960,1062960
0,word-count,ec-RS-6-3-1024k,40,econome-17,527632,527588,537380,537380
0,word-count,ec-RS-6-3-1024k,40,econome-18,3869040,3869040,0,0
0,word-count,ec-RS-6-3-1024k,40,econome-19,3166588,3166384,3173160,3173160
0,word-count,ec-RS-6-3-1024k,40,econome-2,3431312,3431268,3445388,3445388
0,word-count,ec-RS-6-3-1024k,40,econome-20,3166636,3166636,3178168,3178168
0,word-count,ec-RS-6-3-1024k,40,econome-21,3341432,3341256,3352560,3352560
0,word-count,ec-RS-6-3-1024k,40,econome-22,3077324,3077316,3093948,3093948
0,word-count,ec-RS-6-3-1024k,40,econome-3,3871776,3871776,3886012,3886012
0,word-count,ec-RS-6-3-1024k,40,econome-4,3959716,3959664,3962992,3962992
0,word-count,ec-RS-6-3-1024k,40,econome-5,4657784,4657784,4668640,4668640
0,word-count,ec-RS-6-3-1024k,40,econome-6,4220020,4220020,4233856,4233856
0,word-count,ec-RS-6-3-1024k,40,econome-7,3690076,3689892,3709088,3709088
0,word-count,ec-RS-6-3-1024k,40,econome-8,4224728,4224728,4235676,4235676
0,word-count,ec-RS-6-3-1024k,40,econome-9,4661532,4661524,0,0
0,word-count,rep3,40,econome-11,4482412,4482516,4491064,4491064
0,word-count,rep3,40,econome-12,7646008,7646184,7653268,7653268
0,word-count,rep3,40,econome-13,5004068,5004164,5012332,5012332
0,word-count,rep3,40,econome-14,5798900,5799060,5810520,5810520
0,word-count,rep3,40,econome-15,5530376,5530488,5542108,5542108
0,word-count,rep3,40,econome-16,6065520,6065444,6073996,6073996
0,word-count,rep3,40,econome-17,6593692,6594352,6601424,6601424
0,word-count,rep3,40,econome-18,6069804,6070320,6080168,6080168
0,word-count,rep3,40,econome-19,6061120,6061072,6075072,6075072
0,word-count,rep3,40,econome-2,6591680,6591804,0,0
0,word-count,rep3,40,econome-20,4744332,4744520,4759580,4759580
0,word-count,rep3,40,econome-21,8436320,8436524,0,0
0,word-count,rep3,40,econome-22,4478728,4478532,4491396,4491396
0,word-count,rep3,40,econome-3,7117592,7117660,7125992,7125992
0,word-count,rep3,40,econome-4,5801468,5801628,5812876,5812876
0,word-count,rep3,40,econome-5,4742280,4742408,4752388,4752388
0,word-count,rep3,40,econome-6,9232232,9232212,9238808,9238808
0,word-count,rep3,40,econome-7,4742256,4742272,4760548,4760548
0,word-count,rep3,40,econome-8,9497836,9497764,9506388,9506388
0,word-count,rep3,40,econome-9,7912432,7912700,7925956,7925956
1,sorter,ec-RS-6-3-1024k,40,econome-11,3690600,3690660,7211564,7211564
1,sorter,ec-RS-6-3-1024k,40,econome-12,3865972,3865724,6804880,6804880
1,sorter,ec-RS-6-3-1024k,40,econome-13,3692736,3692736,7598712,7598712
1,sorter,ec-RS-6-3-1024k,40,econome-14,2108760,2108540,5623768,5623768
1,sorter,ec-RS-6-3-1024k,40,econome-15,264280,264280,0,0
1,sorter,ec-RS-6-3-1024k,40,econome-16,3339500,3339500,5877772,5877772
1,sorter,ec-RS-6-3-1024k,40,econome-17,2372516,2372516,5682512,5682512
1,sorter,ec-RS-6-3-1024k,40,econome-18,3604236,3604272,6545160,6545160
1,sorter,ec-RS-6-3-1024k,40,econome-19,3953412,3953412,7485844,7485844
1,sorter,ec-RS-6-3-1024k,40,econome-2,3865376,3865376,6396384,6396384
1,sorter,ec-RS-6-3-1024k,40,econome-20,5007988,5007980,8708172,8708172
1,sorter,ec-RS-6-3-1024k,40,econome-21,3339540,3339600,0,0
1,sorter,ec-RS-6-3-1024k,40,econome-22,2898900,2898900,6615868,6615868
1,sorter,ec-RS-6-3-1024k,40,econome-3,3338340,3338340,6854064,6854064
1,sorter,ec-RS-6-3-1024k,40,econome-4,703664,703664,3648888,3648888
1,sorter,ec-RS-6-3-1024k,40,econome-5,4217016,4216812,8110860,8110860
1,sorter,ec-RS-6-3-1024k,40,econome-6,3952768,3952760,7671392,7671392
1,sorter,ec-RS-6-3-1024k,40,econome-7,2548100,2548160,5472136,5472136
1,sorter,ec-RS-6-3-1024k,40,econome-8,2812048,2812048,5926396,5926396
1,sorter,ec-RS-6-3-1024k,40,econome-9,3693336,3693336,7604596,7604596
1,sorter,rep3,40,econome-11,7105800,7105712,15031328,15031328
1,sorter,rep3,40,econome-12,5528504,5528232,11116256,11116256
1,sorter,rep3,40,econome-13,5791492,5791520,14669544,14669544
1,sorter,rep3,40,econome-14,6052532,6052288,14716424,14716424
1,sorter,rep3,40,econome-15,7644304,7644516,12849692,12849692
1,sorter,rep3,40,econome-16,6052192,6052932,12054892,12054892
1,sorter,rep3,40,econome-17,6837776,6837908,12930796,12930796
1,sorter,rep3,40,econome-18,7366192,7366424,0,0
1,sorter,rep3,40,econome-19,7115916,7115980,15658244,15658244
1,sorter,rep3,40,econome-2,6319884,6320100,14424368,14424368
1,sorter,rep3,40,econome-20,6848220,6848556,12984604,12984604
1,sorter,rep3,40,econome-21,5523764,5523892,12650776,12650776
1,sorter,rep3,40,econome-22,5273720,5273588,10755256,10755256
1,sorter,rep3,40,econome-3,5009560,5009452,12718668,12718668
1,sorter,rep3,40,econome-4,6323352,6323652,12777124,12777124
1,sorter,rep3,40,econome-5,7387280,7387512,0,0
1,sorter,rep3,40,econome-6,5520588,5520776,13346972,13346972
1,sorter,rep3,40,econome-7,5263056,5263696,11503712,11503712
1,sorter,rep3,40,econome-8,6319828,6319916,12978144,12978144
1,sorter,rep3,40,econome-9,7116780,7116636,14662372,14662372
1,word-count,ec-RS-6-3-1024k,40,econome-11,3343064,3343064,3354316,3354316
1,word-count,ec-RS-6-3-1024k,40,econome-12,2374464,2374464,2390100,2390100
1,word-count,ec-RS-6-3-1024k,40,econome-13,3078012,3077976,3087884,3087884
1,word-count,ec-RS-6-3-1024k,40,econome-14,3166112,3166112,3181780,3181780
1,word-count,ec-RS-6-3-1024k,40,econome-15,4922284,4922028,4938560,4938560
1,word-count,ec-RS-6-3-1024k,40,econome-16,2816808,2816808,2829612,2829612
1,word-count,ec-RS-6-3-1024k,40,econome-17,4223408,4223408,4235412,4235412
1,word-count,ec-RS-6-3-1024k,40,econome-18,3693432,3693424,3708816,3708816
1,word-count,ec-RS-6-3-1024k,40,econome-19,3431496,3431556,3446332,3446332
1,word-count,ec-RS-6-3-1024k,40,econome-2,1759012,1759012,1771260,1771260
1,word-count,ec-RS-6-3-1024k,40,econome-20,4659256,4659256,0,0
1,word-count,ec-RS-6-3-1024k,40,econome-21,3167104,3167104,3176656,3176656
1,word-count,ec-RS-6-3-1024k,40,econome-22,2373848,2373848,2376636,2376636
1,word-count,ec-RS-6-3-1024k,40,econome-3,3870152,3870152,3874112,3874112
1,word-count,ec-RS-6-3-1024k,40,econome-4,703312,703092,708992,708992
1,word-count,ec-RS-6-3-1024k,40,econome-5,4221008,4221008,4236252,4236252
1,word-count,ec-RS-6-3-1024k,40,econome-6,1494980,1494972,1506932,1506932
1,word-count,ec-RS-6-3-1024k,40,econome-7,3695900,3695900,3704396,3704396
1,word-count,ec-RS-6-3-1024k,40,econome-8,3165132,3165116,0,0
1,word-count,ec-RS-6-3-1024k,40,econome-9,3167532,3167460,3179316,3179316
1,word-count,rep3,40,econome-11,7910204,7910320,7916264,7917384
1,word-count,rep3,40,econome-12,7108572,7108848,7120980,7122236
1,word-count,rep3,40,econome-13,5806176,5806388,5810172,5811428
1,word-count,rep3,40,econome-14,7916960,7917128,7931764,7934336
1,word-count,rep3,40,econome-15,6325320,6325448,6332020,6333144
1,word-count,rep3,40,econome-16,5798864,5799124,5807040,5807668
1,word-count,rep3,40,econome-17,6063472,6063784,6069504,6069996
1,word-count,rep3,40,econome-18,7907964,7908192,7916528,7916528
1,word-count,rep3,40,econome-19,5801344,5801240,5812120,5812120
1,word-count,rep3,40,econome-2,5534880,5534872,5547288,5547288
1,word-count,rep3,40,econome-20,6592512,6592552,6604228,6606172
1,word-count,rep3,40,econome-21,6329496,6329640,6339820,6339820
1,word-count,rep3,40,econome-22,4746596,4747160,4756232,4758176
1,word-count,rep3,40,econome-3,7382000,7381856,0,0
1,word-count,rep3,40,econome-4,5799204,5799060,5815452,5815452
1,word-count,rep3,40,econome-5,5270476,5270792,5283328,5283328
1,word-count,rep3,40,econome-6,6327560,6327320,0,0
1,word-count,rep3,40,econome-7,6325000,6325196,6331404,6331404
1,word-count,rep3,40,econome-8,5534656,5534876,5548292,5548292
1,word-count,rep3,40,econome-9,6067812,6067760,6079036,6079036
2,sorter,ec-RS-6-3-1024k,40,econome-11,4658312,4658312,7802980,7802980
2,sorter,ec-RS-6-3-1024k,40,econome-12,4746744,4746744,7881892,7881892
2,sorter,ec-RS-6-3-1024k,40,econome-13,3428004,3428004,7732524,7732524
2,sorter,ec-RS-6-3-1024k,40,econome-14,3164972,3164972,6680504,6680504
2,sorter,ec-RS-6-3-1024k,40,econome-15,4921452,4921452,8273276,8273276
2,sorter,ec-RS-6-3-1024k,40,econome-16,4219380,4219380,8129212,8129212
2,sorter,ec-RS-6-3-1024k,40,econome-17,4129560,4129560,7253364,7253364
2,sorter,ec-RS-6-3-1024k,40,econome-18,2109380,2109380,5627308,5627308
2,sorter,ec-RS-6-3-1024k,40,econome-19,2109500,2109500,5222632,5222632
2,sorter,ec-RS-6-3-1024k,40,econome-2,2107432,2107432,6183052,6183052
2,sorter,ec-RS-6-3-1024k,40,econome-20,966552,966552,4847756,4847756
2,sorter,ec-RS-6-3-1024k,40,econome-21,2811660,2811660,6532620,6532620
2,sorter,ec-RS-6-3-1024k,40,econome-22,3865716,3865716,6817212,6817212
2,sorter,ec-RS-6-3-1024k,40,econome-3,4391964,4391964,0,0
2,sorter,ec-RS-6-3-1024k,40,econome-4,4477996,4477952,8026116,8026116
2,sorter,ec-RS-6-3-1024k,40,econome-5,1493992,1493992,5025600,5025600
2,sorter,ec-RS-6-3-1024k,40,econome-6,3600556,3600556,0,0
2,sorter,ec-RS-6-3-1024k,40,econome-7,3164172,3164172,5507604,5507604
2,sorter,ec-RS-6-3-1024k,40,econome-8,1055980,1055732,4175192,4175192
2,sorter,ec-RS-6-3-1024k,40,econome-9,1845464,1845464,5169208,5169208
2,sorter,rep3,40,econome-11,8436928,8437040,14786928,14786928
2,sorter,rep3,40,econome-12,6327152,6327196,14941172,14941172
2,sorter,rep3,40,econome-13,5528328,5528276,11588424,11588424
2,sorter,rep3,40,econome-14,6327020,6327284,14921696,14921696
2,sorter,rep3,40,econome-15,5534448,5534432,0,0
2,sorter,rep3,40,econome-16,6309364,6309576,13887568,13887568
2,sorter,rep3,40,econome-17,6059336,6059332,14337312,14337312
2,sorter,rep3,40,econome-18,5260056,5260076,13312848,13312848
2,sorter,rep3,40,econome-19,5259592,5259624,12469600,12469600
2,sorter,rep3,40,econome-2,7108928,7109208,11678408,11678408
2,sorter,rep3,40,econome-20,5270032,5270532,12860688,12860688
2,sorter,rep3,40,econome-21,7627364,7627124,15194952,15194952
2,sorter,rep3,40,econome-22,5002396,5002668,10938064,10938064
2,sorter,rep3,40,econome-3,6584060,6584184,13396488,13396488
2,sorter,rep3,40,econome-4,6858688,6858956,13655732,13655732
2,sorter,rep3,40,econome-5,6055672,6055908,13957824,13957824
2,sorter,rep3,40,econome-6,7112436,7112560,13378132,13378132
2,sorter,rep3,40,econome-7,6052552,6052856,13601008,13601008
2,sorter,rep3,40,econome-8,6048692,6048860,10504572,10504572
2,sorter,rep3,40,econome-9,7637680,7637524,0,0
2,word-count,ec-RS-6-3-1024k,40,econome-11,3080284,3080284,3096160,3096160
2,word-count,ec-RS-6-3-1024k,40,econome-12,2548664,2548752,2554588,2554588
2,word-count,ec-RS-6-3-1024k,40,econome-13,2638148,2638104,2650652,2650652
2,word-count,ec-RS-6-3-1024k,40,econome-14,5186836,5186800,5194952,5194952
2,word-count,ec-RS-6-3-1024k,40,econome-15,3166764,3166852,0,0
2,word-count,ec-RS-6-3-1024k,40,econome-16,3080744,3080744,3089000,3089000
2,word-count,ec-RS-6-3-1024k,40,econome-17,3868384,3868472,3878512,3878512
2,word-count,ec-RS-6-3-1024k,40,econome-18,2903496,2903460,2916280,2916280
2,word-count,ec-RS-6-3-1024k,40,econome-19,4484944,4484944,4489396,4489396
2,word-count,ec-RS-6-3-1024k,40,econome-2,3605164,3605164,3614460,3614460
2,word-count,ec-RS-6-3-1024k,40,econome-20,3338788,3338788,3349124,3349124
2,word-count,ec-RS-6-3-1024k,40,econome-21,2902864,2902792,2912396,2912396
2,word-count,ec-RS-6-3-1024k,40,econome-22,2374272,2374272,2384820,2384820
2,word-count,ec-RS-6-3-1024k,40,econome-3,3955032,3955032,3965784,3965784
2,word-count,ec-RS-6-3-1024k,40,econome-4,2638528,2638528,2651416,2651416
2,word-count,ec-RS-6-3-1024k,40,econome-5,3168112,3168112,0,0
2,word-count,ec-RS-6-3-1024k,40,econome-6,1054956,1054956,1063624,1063624
2,word-count,ec-RS-6-3-1024k,40,econome-7,969208,969208,985956,985956
2,word-count,ec-RS-6-3-1024k,40,econome-8,4752712,4752712,4767432,4767432
2,word-count,ec-RS-6-3-1024k,40,econome-9,3606968,3606924,3620664,3620664
2,word-count,rep3,40,econome-11,6065636,6065828,6083424,6083424
2,word-count,rep3,40,econome-12,6325308,6325516,6339248,6339248
2,word-count,rep3,40,econome-13,5798888,5799056,5807520,5807520
2,word-count,rep3,40,econome-14,6593944,6594108,6609224,6609224
2,word-count,rep3,40,econome-15,6329712,6329700,6336804,6336804
2,word-count,rep3,40,econome-16,5541740,5541556,0,0
2,word-count,rep3,40,econome-17,5537120,5537484,5551880,5551880
2,word-count,rep3,40,econome-18,4742292,4742464,4747548,4747548
2,word-count,rep3,40,econome-19,6329496,6329636,6345088,6345088
2,word-count,rep3,40,econome-2,5796600,5797012,5804168,5804168
2,word-count,rep3,40,econome-20,5270464,5270664,5282312,5282312
2,word-count,rep3,40,econome-21,8696048,8696088,8707692,8707692
2,word-count,rep3,40,econome-22,6325004,6325136,6334396,6334396
2,word-count,rep3,40,econome-3,5010824,5010852,5018572,5018572
2,word-count,rep3,40,econome-4,8693748,8694100,8703532,8703532
2,word-count,rep3,40,econome-5,6064316,6063956,6072096,6072096
2,word-count,rep3,40,econome-6,6070064,6070572,6081172,6081172
2,word-count,rep3,40,econome-7,5808084,5808064,0,0
2,word-count,rep3,40,econome-8,9482184,9481932,9492288,9492288
2,word-count,rep3,40,econome-9,6067588,6067824,6080800,6080800
3,sorter,ec-RS-6-3-1024k,40,econome-11,3692084,3692084,7408700,7408700
3,sorter,ec-RS-6-3-1024k,40,econome-12,3339660,3339652,7251744,7251744
3,sorter,ec-RS-6-3-1024k,40,econome-13,3162192,3161972,5888620,5888620
3,sorter,ec-RS-6-3-1024k,40,econome-14,2022616,2022632,5345512,5345512
3,sorter,ec-RS-6-3-1024k,40,econome-15,3691432,3691492,7214380,7214380
3,sorter,ec-RS-6-3-1024k,40,econome-16,2900252,2900244,6816248,6816248
3,sorter,ec-RS-6-3-1024k,40,econome-17,3600732,3600528,6935456,6935456
3,sorter,ec-RS-6-3-1024k,40,econome-18,3166120,3166120,5897696,5897696
3,sorter,ec-RS-6-3-1024k,40,econome-19,3340880,3340880,6848804,6848804
3,sorter,ec-RS-6-3-1024k,40,econome-2,4922084,4922084,8039144,8039144
3,sorter,ec-RS-6-3-1024k,40,econome-20,2548020,2548020,6660140,6660140
3,sorter,ec-RS-6-3-1024k,40,econome-21,3424756,3424472,0,0
3,sorter,ec-RS-6-3-1024k,40,econome-22,3165048,3165048,6483308,6483308
3,sorter,ec-RS-6-3-1024k,40,econome-3,2373496,2373424,0,0
3,sorter,ec-RS-6-3-1024k,40,econome-4,2634028,2634028,5371864,5371864
3,sorter,ec-RS-6-3-1024k,40,econome-5,1053776,1053776,4941372,4941372
3,sorter,ec-RS-6-3-1024k,40,econome-6,2548560,2548524,6257932,6257932
3,sorter,ec-RS-6-3-1024k,40,econome-7,3427920,3427868,7135352,7135352
3,sorter,ec-RS-6-3-1024k,40,econome-8,4392880,4392880,7702940,7702940
3,sorter,ec-RS-6-3-1024k,40,econome-9,3862824,3862824,7586076,7586076
3,sorter,rep3,40,econome-11,7633848,7634040,13759572,13759572
3,sorter,rep3,40,econome-12,7905012,7905216,14110956,14110956
3,sorter,rep3,40,econome-13,7120488,7120372,13129928,13129928
3,sorter,rep3,40,econome-14,5791756,5792020,11762644,11762644
3,sorter,rep3,40,econome-15,6323640,6323396,12767828,12767828
3,sorter,rep3,40,econome-16,7905316,7905088,14556868,14556868
3,sorter,rep3,40,econome-17,7102004,7102172,13307880,13307880
3,sorter,rep3,40,econome-18,5263056,5263380,13630768,13630768
3,sorter,rep3,40,econome-19,6052356,6052284,11295172,11295172
3,sorter,rep3,40,econome-2,7112820,7112760,15262476,15262476
3,sorter,rep3,40,econome-20,6055988,6056468,11840432,11840432
3,sorter,rep3,40,econome-21,5530744,5530940,14333208,14333208
3,sorter,rep3,40,econome-22,5784508,5784600,12866068,12866068
3,sorter,rep3,40,econome-3,5002780,5002680,12839672,12839672
3,sorter,rep3,40,econome-4,6319872,6320100,0,0
3,sorter,rep3,40,econome-5,5270032,5270352,12039016,12039016
3,sorter,rep3,40,econome-6,5530968,5531132,12957492,12957492
3,sorter,rep3,40,econome-7,5530940,5531324,13509344,13509344
3,sorter,rep3,40,econome-8,7105452,7105648,15706220,15706220
3,sorter,rep3,40,econome-9,6059172,6059256,0,0
3,word-count,ec-RS-6-3-1024k,40,econome-11,2550344,2550336,2563060,2563060
3,word-count,ec-RS-6-3-1024k,40,econome-12,2638276,2638276,2646988,2646988
3,word-count,ec-RS-6-3-1024k,40,econome-13,1232468,1232468,1242984,1242984
3,word-count,ec-RS-6-3-1024k,40,econome-14,4924372,4924372,4933156,4933156
3,word-count,ec-RS-6-3-1024k,40,econome-15,3430680,3430628,3439136,3439136
3,word-count,ec-RS-6-3-1024k,40,econome-16,4224092,4223668,0,0
3,word-count,ec-RS-6-3-1024k,40,econome-17,3604712,3604712,3617552,3617552
3,word-count,ec-RS-6-3-1024k,40,econome-18,2112908,2112968,2129464,2129464
3,word-count,ec-RS-6-3-1024k,40,econome-19,3692444,3692400,3696564,3696564
3,word-count,ec-RS-6-3-1024k,40,econome-2,2025128,2025092,2036988,2036988
3,word-count,ec-RS-6-3-1024k,40,econome-20,3871516,3871516,3886144,3886144
3,word-count,ec-RS-6-3-1024k,40,econome-21,3074612,3074612,3087200,3087200
3,word-count,ec-RS-6-3-1024k,40,econome-22,3691660,3691448,3704400,3704400
3,word-count,ec-RS-6-3-1024k,40,econome-3,4218928,4218928,4233340,4233340
3,word-count,ec-RS-6-3-1024k,40,econome-4,264480,264480,273908,273908
3,word-count,ec-RS-6-3-1024k,40,econome-5,3341756,3341692,3353836,3353836
3,word-count,ec-RS-6-3-1024k,40,econome-6,2639460,2639460,2649452,2649452
3,word-count,ec-RS-6-3-1024k,40,econome-7,3429036,3429036,3439216,3439216
3,word-count,ec-RS-6-3-1024k,40,econome-8,3959296,3959296,0,0
3,word-count,ec-RS-6-3-1024k,40,econome-9,4399612,4399540,4404028,4404028
3,word-count,rep3,40,econome-11,5008560,5008720,5019984,5019984
3,word-count,rep3,40,econome-12,7655232,7655268,7665220,7665220
3,word-count,rep3,40,econome-13,7384028,7384236,7394980,7394980
3,word-count,rep3,40,econome-14,7117592,7117784,7123496,7123496
3,word-count,rep3,40,econome-15,6320488,6321080,6334608,6334608
3,word-count,rep3,40,econome-16,5798888,5798996,5806132,5806132
3,word-count,rep3,40,econome-17,6329504,6329832,6344396,6344396
3,word-count,rep3,40,econome-18,6855684,6855780,6864900,6864900
3,word-count,rep3,40,econome-19,6589772,6589724,6600668,6600668
3,word-count,rep3,40,econome-2,5013028,5013304,5017496,5017496
3,word-count,rep3,40,econome-20,6063232,6063192,6072456,6072456
3,word-count,rep3,40,econome-21,8170956,8170976,8183584,8183584
3,word-count,rep3,40,econome-22,6591488,6591652,6603216,6603216
3,word-count,rep3,40,econome-3,5277264,5277352,5283744,5283744
3,word-count,rep3,40,econome-4,7903460,7903632,7916220,7916220
3,word-count,rep3,40,econome-5,5277860,5277864,0,0
3,word-count,rep3,40,econome-6,6058916,6058628,0,0
3,word-count,rep3,40,econome-7,6061036,6060936,6071508,6071508
3,word-count,rep3,40,econome-8,5798856,5799072,5818200,5818200
3,word-count,rep3,40,econome-9,5273216,5273552,5280752,5280752
4,sorter,ec-RS-6-3-1024k,40,econome-11,2637052,2637008,4977996,4977996
4,sorter,ec-RS-6-3-1024k,40,econome-12,3690236,3690236,6803908,6803908
4,sorter,ec-RS-6-3-1024k,40,econome-13,3952452,3952452,0,0
4,sorter,ec-RS-6-3-1024k,40,econome-14,3688484,3688484,7800408,7800408
4,sorter,ec-RS-6-3-1024k,40,econome-15,1845184,1845184,5950872,5950872
4,sorter,ec-RS-6-3-1024k,40,econome-16,4128896,4128896,8623072,8623072
4,sorter,ec-RS-6-3-1024k,40,econome-17,4744116,4744176,8062976,8062976
4,sorter,ec-RS-6-3-1024k,40,econome-18,4751612,4751436,9049664,9049664
4,sorter,ec-RS-6-3-1024k,40,econome-19,3599720,3599720,6932212,6932212
4,sorter,ec-RS-6-3-1024k,40,econome-2,1054856,1054856,0,0
4,sorter,ec-RS-6-3-1024k,40,econome-20,3076516,3076304,6007948,6007948
4,sorter,ec-RS-6-3-1024k,40,econome-21,2811132,2811132,6330148,6330148
4,sorter,ec-RS-6-3-1024k,40,econome-22,4393908,4393908,7523412,7523412
4,sorter,ec-RS-6-3-1024k,40,econome-3,3692120,3692120,6431544,6431544
4,sorter,ec-RS-6-3-1024k,40,econome-4,2814004,2813960,6925644,6925644
4,sorter,ec-RS-6-3-1024k,40,econome-5,3339040,3339040,6847224,6847224
4,sorter,ec-RS-6-3-1024k,40,econome-6,1757708,1757708,4482248,4482248
4,sorter,ec-RS-6-3-1024k,40,econome-7,3162052,3162052,7054640,7054640
4,sorter,ec-RS-6-3-1024k,40,econome-8,3339016,3339016,6865692,6865692
4,sorter,ec-RS-6-3-1024k,40,econome-9,790868,790868,4108760,4108760
4,sorter,rep3,40,econome-11,5795356,5795328,13031436,13031436
4,sorter,rep3,40,econome-12,5270236,5270492,15150912,15150916
4,sorter,rep3,40,econome-13,7098496,7098692,13715496,13715504
4,sorter,rep3,40,econome-14,5266868,5266676,13759948,13759952
4,sorter,rep3,40,econome-15,6580548,6581164,12945572,12945580
4,sorter,rep3,40,econome-16,6841256,6841388,14095244,14095252
4,sorter,rep3,40,econome-17,5266588,5266680,10450192,10450192
4,sorter,rep3,40,econome-18,5791688,5791936,13491124,13491132
4,sorter,rep3,40,econome-19,6851756,6851912,14626560,14626564
4,sorter,rep3,40,econome-2,6052464,6052668,12078824,12078824
4,sorter,rep3,40,econome-20,8169248,8169348,0,0
4,sorter,rep3,40,econome-21,7376660,7376948,14778108,14778108
4,sorter,rep3,40,econome-22,6851708,6851856,13989696,13989696
4,sorter,rep3,40,econome-3,4731340,4731304,10015932,10015944
4,sorter,rep3,40,econome-4,5530728,5530936,12909208,12909200
4,sorter,rep3,40,econome-5,7906080,7905964,14988232,14988236
4,sorter,rep3,40,econome-6,5798724,5798992,0,0
4,sorter,rep3,40,econome-7,7119440,7119528,14743668,14743672
4,sorter,rep3,40,econome-8,6041892,6041824,10342172,10342172
4,sorter,rep3,40,econome-9,6059684,6059524,13853872,13853868
4,word-count,ec-RS-6-3-1024k,40,econome-11,792904,792964,0,0
4,word-count,ec-RS-6-3-1024k,40,econome-12,3871004,3871004,3886904,3886904
4,word-count,ec-RS-6-3-1024k,40,econome-13,4223412,4223412,4230504,4230504
4,word-count,ec-RS-6-3-1024k,40,econome-14,3430740,3430688,3442612,3442612
4,word-count,ec-RS-6-3-1024k,40,econome-15,3607576,3607372,3620360,3620360
4,word-count,ec-RS-6-3-1024k,40,econome-16,3343760,3343760,3354884,3354884
4,word-count,ec-RS-6-3-1024k,40,econome-17,2814208,2814208,0,0
4,word-count,ec-RS-6-3-1024k,40,econome-18,3166152,3166152,3176144,3176144
4,word-count,ec-RS-6-3-1024k,40,econome-19,4223044,4222652,4225976,4225976
4,word-count,ec-RS-6-3-1024k,40,econome-2,4134048,4134012,4146020,4146020
4,word-count,ec-RS-6-3-1024k,40,econome-20,527528,527588,534840,534840
4,word-count,ec-RS-6-3-1024k,40,econome-21,2901856,2901856,2910468,2910468
4,word-count,ec-RS-6-3-1024k,40,econome-22,3427796,3427752,3437312,3437312
4,word-count,ec-RS-6-3-1024k,40,econome-3,3429196,3429196,3451008,3451008
4,word-count,ec-RS-6-3-1024k,40,econome-4,3427944,3427944,3442280,3442280
4,word-count,ec-RS-6-3-1024k,40,econome-5,3688564,3688352,3700372,3700372
4,word-count,ec-RS-6-3-1024k,40,econome-6,3079124,3079124,3084748,3084748
4,word-count,ec-RS-6-3-1024k,40,econome-7,3870556,3870556,3881396,3881396
4,word-count,ec-RS-6-3-1024k,40,econome-8,2815220,2815220,2821956,2821956
4,word-count,ec-RS-6-3-1024k,40,econome-9,2551184,2551184,2559324,2559324
4,word-count,rep3,40,econome-11,7648272,7648300,7656556,7656556
4,word-count,rep3,40,econome-12,5273760,5273872,5281888,5281888
4,word-count,rep3,40,econome-13,5272748,5273276,5284856,5284856
4,word-count,rep3,40,econome-14,6065320,6065508,6076700,6076700
4,word-count,rep3,40,econome-15,6334048,6334196,6344748,6344748
4,word-count,rep3,40,econome-16,8436308,8436540,8445844,8445844
4,word-count,rep3,40,econome-17,6060832,6060948,6065224,6065224
4,word-count,rep3,40,econome-18,6061328,6061192,6073396,6073396
4,word-count,rep3,40,econome-19,7386288,7386488,7404276,7404276
4,word-count,rep3,40,econome-2,7119876,7120120,7133648,7133648
4,word-count,rep3,40,econome-20,7903748,7903552,7913196,7913196
4,word-count,rep3,40,econome-21,6589400,6589548,6604480,6604480
4,word-count,rep3,40,econome-22,8441176,8440960,0,0
4,word-count,rep3,40,econome-3,5539160,5539236,5552320,5552320
4,word-count,rep3,40,econome-4,6063060,6063320,6071124,6071124
4,word-count,rep3,40,econome-5,5528316,5528048,5539496,5539496
4,word-count,rep3,40,econome-6,5009260,5009664,5022564,5022564
4,word-count,rep3,40,econome-7,6063084,6063252,6076608,6076608
4,word-count,rep3,40,econome-8,5008704,5008796,0,0
4,word-count,rep3,40,econome-9,4744368,4744720,4753188,4753188
5,sorter,ec-RS-6-3-1024k,40,econome-11,3690216,3690216,6221356,6221356
5,sorter,ec-RS-6-3-1024k,40,econome-12,4127012,4127012,7063652,7063652
5,sorter,ec-RS-6-3-1024k,40,econome-13,5274168,5274168,8798036,8798036
5,sorter,ec-RS-6-3-1024k,40,econome-14,3689804,3689804,6625372,6625372
5,sorter,ec-RS-6-3-1024k,40,econome-15,3337068,3337068,6475020,6475020
5,sorter,ec-RS-6-3-1024k,40,econome-16,3341448,3341448,6469956,6469956
5,sorter,ec-RS-6-3-1024k,40,econome-17,2550492,2550484,6071324,6071324
5,sorter,ec-RS-6-3-1024k,40,econome-18,3603164,3603164,6339420,6339420
5,sorter,ec-RS-6-3-1024k,40,econome-19,2812088,2812088,6727128,6727128
5,sorter,ec-RS-6-3-1024k,40,econome-2,3953132,3953132,7077596,7077596
5,sorter,ec-RS-6-3-1024k,40,econome-20,3160944,3160944,6489072,6489072
5,sorter,ec-RS-6-3-1024k,40,econome-21,2813252,2813068,0,0
5,sorter,ec-RS-6-3-1024k,40,econome-22,1844212,1844196,6527176,6527176
5,sorter,ec-RS-6-3-1024k,40,econome-3,3338124,3338060,6250596,6250596
5,sorter,ec-RS-6-3-1024k,40,econome-4,527512,527512,5016072,5016072
5,sorter,ec-RS-6-3-1024k,40,econome-5,2637692,2637692,5775556,5775556
5,sorter,ec-RS-6-3-1024k,40,econome-6,3341060,3341052,0,0
5,sorter,ec-RS-6-3-1024k,40,econome-7,2372804,2372804,6471636,6471636
5,sorter,ec-RS-6-3-1024k,40,econome-8,4219652,4219652,8122900,8122900
5,sorter,ec-RS-6-3-1024k,40,econome-9,2634928,2634928,6335656,6335656
5,sorter,rep3,40,econome-11,5788436,5788280,14385740,14385740
5,sorter,rep3,40,econome-12,5270020,5270160,10552468,10552468
5,sorter,rep3,40,econome-13,5795148,5795192,12813644,12813644
5,sorter,rep3,40,econome-14,5259568,5259884,12213676,12213676
5,sorter,rep3,40,econome-15,6841556,6841772,14416324,14416324
5,sorter,rep3,40,econome-16,7376656,7376820,12905708,12905708
5,sorter,rep3,40,econome-17,7116360,7116392,11179388,11179388
5,sorter,rep3,40,econome-18,5523764,5524020,12704968,12704968
5,sorter,rep3,40,econome-19,7898028,7898232,15681664,15681664
5,sorter,rep3,40,econome-2,6580900,6580996,16220680,16220680
5,sorter,rep3,40,econome-20,4210096,4210200,12577884,12577884
5,sorter,rep3,40,econome-21,6848664,6848568,0,0
5,sorter,rep3,40,econome-22,7115956,7116044,12878920,12878920
5,sorter,rep3,40,econome-3,8172892,8172832,15603860,15603860
5,sorter,rep3,40,econome-4,6319844,6320036,0,0
5,sorter,rep3,40,econome-5,6326848,6327344,13439316,13439316
5,sorter,rep3,40,econome-6,5791472,5791704,12832820,12832820
5,sorter,rep3,40,econome-7,6055652,6055900,11801376,11801376
5,sorter,rep3,40,econome-8,6584060,6584108,13848276,13848276
5,sorter,rep3,40,econome-9,5524804,5524740,13357820,13357820
5,word-count,ec-RS-6-3-1024k,40,econome-11,2374488,2374480,2386540,2386540
5,word-count,ec-RS-6-3-1024k,40,econome-12,3167020,3167020,3180128,3180128
5,word-count,ec-RS-6-3-1024k,40,econome-13,3077204,3077204,0,0
5,word-count,ec-RS-6-3-1024k,40,econome-14,704488,704488,718440,718440
5,word-count,ec-RS-6-3-1024k,40,econome-15,3957020,3957020,3963908,3963908
5,word-count,ec-RS-6-3-1024k,40,econome-16,5190636,5190636,5193636,5193636
5,word-count,ec-RS-6-3-1024k,40,econome-17,4400772,4400772,4412180,4412180
5,word-count,ec-RS-6-3-1024k,40,econome-18,3692996,3692996,3698924,3698924
5,word-count,ec-RS-6-3-1024k,40,econome-19,2552188,2552188,0,0
5,word-count,ec-RS-6-3-1024k,40,econome-2,3166736,3166656,3179192,3179192
5,word-count,ec-RS-6-3-1024k,40,econome-20,3342320,3342320,3355640,3355640
5,word-count,ec-RS-6-3-1024k,40,econome-21,3078384,3078384,3081568,3081568
5,word-count,ec-RS-6-3-1024k,40,econome-22,3165888,3165888,3176412,3176412
5,word-count,ec-RS-6-3-1024k,40,econome-3,2816248,2816248,2826920,2826920
5,word-count,ec-RS-6-3-1024k,40,econome-4,2637140,2637140,2649800,2649800
5,word-count,ec-RS-6-3-1024k,40,econome-5,3428056,3428056,3439596,3439596
5,word-count,ec-RS-6-3-1024k,40,econome-6,3427260,3427224,3439436,3439436
5,word-count,ec-RS-6-3-1024k,40,econome-7,1320392,1320392,1340580,1340580
5,word-count,ec-RS-6-3-1024k,40,econome-8,2902300,2902300,2915072,2915072
5,word-count,ec-RS-6-3-1024k,40,econome-9,4923588,4923588,4933760,4933760
5,word-count,rep3,40,econome-11,8700552,8700960,8709196,8709196
5,word-count,rep3,40,econome-12,5802172,5802140,5811560,5811560
5,word-count,rep3,40,econome-13,6857924,6858460,6866036,6866036
5,word-count,rep3,40,econome-14,9231148,9231368,9240660,9240660
5,word-count,rep3,40,econome-15,3954172,3954184,3964580,3964580
5,word-count,rep3,40,econome-16,6327596,6327584,6335320,6335320
5,word-count,rep3,40,econome-17,5268264,5268360,5281820,5281820
5,word-count,rep3,40,econome-18,6325004,6325196,6335432,6335432
5,word-count,rep3,40,econome-19,5541424,5541480,5554360,5554360
5,word-count,rep3,40,econome-2,5805848,5805824,5814040,5814040
5,word-count,rep3,40,econome-20,6857936,6858224,6867944,6867944
5,word-count,rep3,40,econome-21,4480336,4480456,4490436,4490436
5,word-count,rep3,40,econome-22,6855648,6855848,6870308,6870308
5,word-count,rep3,40,econome-3,6592176,6592036,6598476,6598476
5,word-count,rep3,40,econome-4,7118136,7118316,7127700,7127700
5,word-count,rep3,40,econome-5,5801148,5801244,5812636,5812636
5,word-count,rep3,40,econome-6,6325224,6325204,0,0
5,word-count,rep3,40,econome-7,6853384,6853656,6862780,6862780
5,word-count,rep3,40,econome-8,5265964,5266048,5273712,5273712
5,word-count,rep3,40,econome-9,6585000,6584968,0,0
6,sorter,ec-RS-6-3-1024k,40,econome-11,3599736,3599772,7906176,7906176
6,sorter,ec-RS-6-3-1024k,40,econome-12,3165772,3165772,6097568,6097584
6,sorter,ec-RS-6-3-1024k,40,econome-13,5443796,5443760,8379320,8379320
6,sorter,ec-RS-6-3-1024k,40,econome-14,3163264,3163264,6688556,6688556
6,sorter,ec-RS-6-3-1024k,40,econome-15,3336684,3336744,7245448,7245448
6,sorter,ec-RS-6-3-1024k,40,econome-16,2639444,2639444,5773540,5773540
6,sorter,ec-RS-6-3-1024k,40,econome-17,3163384,3163444,6669288,6669288
6,sorter,ec-RS-6-3-1024k,40,econome-18,3868556,3868556,6796144,6796144
6,sorter,ec-RS-6-3-1024k,40,econome-19,4391092,4391056,7904124,7904124
6,sorter,ec-RS-6-3-1024k,40,econome-2,2108444,2108444,4829564,4829564
6,sorter,ec-RS-6-3-1024k,40,econome-20,2547592,2547592,5883356,5883356
6,sorter,ec-RS-6-3-1024k,40,econome-21,4130448,4130432,8444984,8444984
6,sorter,ec-RS-6-3-1024k,40,econome-22,3953648,3953648,7074972,7074972
6,sorter,ec-RS-6-3-1024k,40,econome-3,3163988,3163916,7067040,7067040
6,sorter,ec-RS-6-3-1024k,40,econome-4,2901740,2901696,6604700,6604704
6,sorter,ec-RS-6-3-1024k,40,econome-5,2022084,2022084,5342104,5342108
6,sorter,ec-RS-6-3-1024k,40,econome-6,1318952,1318952,0,0
6,sorter,ec-RS-6-3-1024k,40,econome-7,3076212,3076204,6206216,6206216
6,sorter,ec-RS-6-3-1024k,40,econome-8,2901908,2901908,6410992,6410992
6,sorter,ec-RS-6-3-1024k,40,econome-9,2372288,2372288,0,0
6,sorter,rep3,40,econome-11,7905024,7905144,14388452,14388456
6,sorter,rep3,40,econome-12,5273568,5273648,15098688,15098692
6,sorter,rep3,40,econome-13,7369860,7369908,15542448,15542456
6,sorter,rep3,40,econome-14,6316360,6316612,0,0
6,sorter,rep3,40,econome-15,5791488,5791588,11008504,11008504
6,sorter,rep3,40,econome-16,7120468,7120316,17465316,17465328
6,sorter,rep3,40,econome-17,6323328,6323532,14984108,14984116
6,sorter,rep3,40,econome-18,7119704,7119604,13007860,13007860
6,sorter,rep3,40,econome-19,5794972,5795440,10947852,10947852
6,sorter,rep3,40,econome-2,6848568,6848748,13464984,13464984
6,sorter,rep3,40,econome-20,5009708,5009716,11713008,11713012
6,sorter,rep3,40,econome-21,6309576,6309508,12296072,12296072
6,sorter,rep3,40,econome-22,5520484,5520344,0,0
6,sorter,rep3,40,econome-3,5791796,5791960,14975704,14975708
6,sorter,rep3,40,econome-4,5784504,5784796,11699284,11699284
6,sorter,rep3,40,econome-5,7116152,7116208,12938280,12938280
6,sorter,rep3,40,econome-6,4995396,4995760,11652568,11652568
6,sorter,rep3,40,econome-7,4481244,4481436,11931236,11931236
6,sorter,rep3,40,econome-8,6837764,6838164,11526672,11526672
6,sorter,rep3,40,econome-9,8690792,8690832,16105376,16105384
6,word-count,ec-RS-6-3-1024k,40,econome-11,3694836,3694836,3703500,3703500
6,word-count,ec-RS-6-3-1024k,40,econome-12,3868752,3868744,3879512,3879512
6,word-count,ec-RS-6-3-1024k,40,econome-13,3075780,3075780,3087764,3087764
6,word-count,ec-RS-6-3-1024k,40,econome-14,2111636,2111636,2118912,2118912
6,word-count,ec-RS-6-3-1024k,40,econome-15,1319096,1319052,1323732,1323732
6,word-count,ec-RS-6-3-1024k,40,econome-16,4131284,4131372,4146424,4146424
6,word-count,ec-RS-6-3-1024k,40,econome-17,4132196,4132276,0,0
6,word-count,ec-RS-6-3-1024k,40,econome-18,3430432,3430432,3435648,3435648
6,word-count,ec-RS-6-3-1024k,40,econome-19,3077656,3077408,3088296,3088296
6,word-count,ec-RS-6-3-1024k,40,econome-2,2814348,2814276,2818868,2818868
6,word-count,ec-RS-6-3-1024k,40,econome-20,2112660,2112660,2128364,2128364
6,word-count,ec-RS-6-3-1024k,40,econome-21,3604740,3604740,3623656,3623656
6,word-count,ec-RS-6-3-1024k,40,econome-22,2639224,2639224,2647324,2647324
6,word-count,ec-RS-6-3-1024k,40,econome-3,3692892,3692892,0,0
6,word-count,ec-RS-6-3-1024k,40,econome-4,3872328,3872328,3884196,3884196
6,word-count,ec-RS-6-3-1024k,40,econome-5,1583048,1583020,1599840,1599840
6,word-count,ec-RS-6-3-1024k,40,econome-6,3609984,3609940,3618028,3618028
6,word-count,ec-RS-6-3-1024k,40,econome-7,2901864,2901952,2915696,2915696
6,word-count,ec-RS-6-3-1024k,40,econome-8,3959372,3959124,3973708,3973708
6,word-count,ec-RS-6-3-1024k,40,econome-9,3693108,3693108,3705828,3705828
6,word-count,rep3,40,econome-11,6851180,6851276,6860100,6860100
6,word-count,rep3,40,econome-12,5270460,5270728,5283508,5283508
6,word-count,rep3,40,econome-13,6853384,6853604,6861036,6861036
6,word-count,rep3,40,econome-14,6862800,6862808,6874272,6874272
6,word-count,rep3,40,econome-15,6585044,6585152,6594548,6594548
6,word-count,rep3,40,econome-16,5010804,5010848,5019384,5019384
6,word-count,rep3,40,econome-17,6593740,6593912,6604908,6604908
6,word-count,rep3,40,econome-18,5266524,5266672,5272932,5272932
6,word-count,rep3,40,econome-19,7905700,7905936,7915268,7915268
6,word-count,rep3,40,econome-2,6334052,6334216,6346160,6346160
6,word-count,rep3,40,econome-20,5279824,5279672,5289528,5289528
6,word-count,rep3,40,econome-21,7120892,7120880,7130052,7130052
6,word-count,rep3,40,econome-22,6586940,6587148,6595472,6595472
6,word-count,rep3,40,econome-3,8174380,8174568,8186500,8186500
6,word-count,rep3,40,econome-4,6589208,6589716,6603728,6603728
6,word-count,rep3,40,econome-5,5803684,5804004,5817572,5817572
6,word-count,rep3,40,econome-6,6331760,6331828,0,0
6,word-count,rep3,40,econome-7,7644136,7644012,7655780,7655780
6,word-count,rep3,40,econome-8,4218412,4218388,0,0
6,word-count,rep3,40,econome-9,5266144,5266232,5275368,5275368
7,sorter,ec-RS-6-3-1024k,40,econome-11,2812244,2811996,5542120,5542120
7,sorter,ec-RS-6-3-1024k,40,econome-12,3867764,3867612,7172852,7172852
7,sorter,ec-RS-6-3-1024k,40,econome-13,1582252,1582340,4308820,4308820
7,sorter,ec-RS-6-3-1024k,40,econome-14,3691828,3691820,7193696,7193696
7,sorter,ec-RS-6-3-1024k,40,econome-15,3865784,3865784,8943656,8943656
7,sorter,ec-RS-6-3-1024k,40,econome-16,3427116,3427100,7152564,7152564
7,sorter,ec-RS-6-3-1024k,40,econome-17,3869708,3869760,6993836,6993836
7,sorter,ec-RS-6-3-1024k,40,econome-18,3163420,3163420,0,0
7,sorter,ec-RS-6-3-1024k,40,econome-19,2634812,2634776,6935300,6935300
7,sorter,ec-RS-6-3-1024k,40,econome-2,3164880,3164808,6700476,6700476
7,sorter,ec-RS-6-3-1024k,40,econome-20,3428060,3428060,6951152,6951152
7,sorter,ec-RS-6-3-1024k,40,econome-21,2285392,2285392,5016584,5016584
7,sorter,ec-RS-6-3-1024k,40,econome-22,3601488,3601488,0,0
7,sorter,ec-RS-6-3-1024k,40,econome-3,2370520,2370520,6675256,6675256
7,sorter,ec-RS-6-3-1024k,40,econome-4,2637784,2637784,5382948,5382948
7,sorter,ec-RS-6-3-1024k,40,econome-5,4130884,4130884,8043572,8043572
7,sorter,ec-RS-6-3-1024k,40,econome-6,3339320,3339320,6449708,6449708
7,sorter,ec-RS-6-3-1024k,40,econome-7,4390352,4390352,7907628,7907628
7,sorter,ec-RS-6-3-1024k,40,econome-8,264248,264248,3594164,3594164
7,sorter,ec-RS-6-3-1024k,40,econome-9,4741032,4740996,7860700,7860700
7,sorter,rep3,40,econome-11,6587512,6587852,11451404,11451404
7,sorter,rep3,40,econome-12,4998868,4998988,12092620,12092624
7,sorter,rep3,40,econome-13,6333780,6333992,16232292,16232300
7,sorter,rep3,40,econome-14,7115924,7115984,13015204,13015208
7,sorter,rep3,40,econome-15,5266724,5266800,9801368,9801372
7,sorter,rep3,40,econome-16,6848460,6848428,12530236,12530236
7,sorter,rep3,40,econome-17,5794972,5795320,14911496,14911508
7,sorter,rep3,40,econome-18,6577092,6577320,13356012,13356012
7,sorter,rep3,40,econome-19,7116264,7116428,13397292,13397300
7,sorter,rep3,40,econome-2,4738344,4738544,11835200,11835200
7,sorter,rep3,40,econome-20,7634060,7633976,13994336,13994336
7,sorter,rep3,40,econome-21,4734872,4734928,0,0
7,sorter,rep3,40,econome-22,5798772,5798580,14399964,14399976
7,sorter,rep3,40,econome-3,6570128,6570208,13593528,13593532
7,sorter,rep3,40,econome-4,7898340,7898552,13351236,13351236
7,sorter,rep3,40,econome-5,4742704,4742676,0,0
7,sorter,rep3,40,econome-6,7108964,7109584,15277764,15277768
7,sorter,rep3,40,econome-7,6580884,6580928,13707176,13707180
7,sorter,rep3,40,econome-8,6837972,6838176,14717124,14717132
7,sorter,rep3,40,econome-9,7116108,7115992,15705408,15705412
7,word-count,ec-RS-6-3-1024k,40,econome-11,2112944,2112944,2124976,2124976
7,word-count,ec-RS-6-3-1024k,40,econome-12,3692180,3692180,3707032,3707032
7,word-count,ec-RS-6-3-1024k,40,econome-13,3603664,3603744,0,0
7,word-count,ec-RS-6-3-1024k,40,econome-14,3163112,3163112,3176344,3176344
7,word-count,ec-RS-6-3-1024k,40,econome-15,2813244,2813244,2825988,2825988
7,word-count,ec-RS-6-3-1024k,40,econome-16,4136584,4136548,4144468,4144468
7,word-count,ec-RS-6-3-1024k,40,econome-17,1849936,1849936,1860728,1860728
7,word-count,ec-RS-6-3-1024k,40,econome-18,3344496,3344452,3356472,3356472
7,word-count,ec-RS-6-3-1024k,40,econome-19,3691472,3691560,3700444,3700444
7,word-count,ec-RS-6-3-1024k,40,econome-2,2022924,2022924,2034180,2034180
7,word-count,ec-RS-6-3-1024k,40,econome-20,3428960,3428952,3437856,3437856
7,word-count,ec-RS-6-3-1024k,40,econome-21,2022964,2022920,2031212,2031212
7,word-count,ec-RS-6-3-1024k,40,econome-22,3167912,3167876,3179720,3179720
7,word-count,ec-RS-6-3-1024k,40,econome-3,3427244,3427236,3437200,3437200
7,word-count,ec-RS-6-3-1024k,40,econome-4,4131644,4131636,4141324,4141324
7,word-count,ec-RS-6-3-1024k,40,econome-5,3082944,3082944,3095952,3095952
7,word-count,ec-RS-6-3-1024k,40,econome-6,2816512,2816512,0,0
7,word-count,ec-RS-6-3-1024k,40,econome-7,3692316,3692316,3706260,3706260
7,word-count,ec-RS-6-3-1024k,40,econome-8,3692376,3692136,3706316,3706316
7,word-count,ec-RS-6-3-1024k,40,econome-9,3432344,3432116,3443808,3443808
7,word-count,rep3,40,econome-11,6064096,6064008,6076492,6076492
7,word-count,rep3,40,econome-12,6591488,6591652,6601088,6601088
7,word-count,rep3,40,econome-13,6594184,6594204,6604000,6604000
7,word-count,rep3,40,econome-14,6065348,6065520,0,0
7,word-count,rep3,40,econome-15,5534848,5534864,5543404,5543404
7,word-count,rep3,40,econome-16,6065336,6066064,0,0
7,word-count,rep3,40,econome-17,6851448,6851796,6860948,6860948
7,word-count,rep3,40,econome-18,6853392,6853592,6867288,6867288
7,word-count,rep3,40,econome-19,5801364,5801248,5813596,5813596
7,word-count,rep3,40,econome-2,8172124,8172316,8180248,8180248
7,word-count,rep3,40,econome-20,5537260,5537052,5544400,5544400
7,word-count,rep3,40,econome-21,5799028,5798996,5806836,5806836
7,word-count,rep3,40,econome-22,6065504,6065648,6084092,6084092
7,word-count,rep3,40,econome-3,7646344,7646604,7650860,7650860
7,word-count,rep3,40,econome-4,6584924,6584828,6599588,6599588
7,word-count,rep3,40,econome-5,7646020,7646188,7655540,7655540
7,word-count,rep3,40,econome-6,4480376,4480528,4494788,4494788
7,word-count,rep3,40,econome-7,5803368,5803432,5812740,5812740
7,word-count,rep3,40,econome-8,7646020,7646320,7657984,7657984
7,word-count,rep3,40,econome-9,4746584,4746644,4754428,4754428
8,sorter,ec-RS-6-3-1024k,40,econome-11,3163856,3163856,6872944,6872944
8,sorter,ec-RS-6-3-1024k,40,econome-12,1054860,1054860,4185016,4185016
8,sorter,ec-RS-6-3-1024k,40,econome-13,3427920,3427876,6173592,6173592
8,sorter,ec-RS-6-3-1024k,40,econome-14,3426156,3426156,6931792,6931792
8,sorter,ec-RS-6-3-1024k,40,econome-15,4390212,4390212,7107404,7107404
8,sorter,ec-RS-6-3-1024k,40,econome-16,3690524,3690524,8004172,8004172
8,sorter,ec-RS-6-3-1024k,40,econome-17,968648,968604,5072892,5072892
8,sorter,ec-RS-6-3-1024k,40,econome-18,3337836,3337624,6658060,6658060
8,sorter,ec-RS-6-3-1024k,40,econome-19,3077848,3077848,7378556,7378556
8,sorter,ec-RS-6-3-1024k,40,econome-2,4217556,4217556,7521040,7521040
8,sorter,ec-RS-6-3-1024k,40,econome-20,3426324,3426324,0,0
8,sorter,ec-RS-6-3-1024k,40,econome-21,2812772,2812736,5940668,5940668
8,sorter,ec-RS-6-3-1024k,40,econome-22,2109272,2109272,0,0
8,sorter,ec-RS-6-3-1024k,40,econome-3,3692216,3692216,7018412,7018412
8,sorter,ec-RS-6-3-1024k,40,econome-4,1495728,1495728,4999824,4999824
8,sorter,ec-RS-6-3-1024k,40,econome-5,3602528,3602492,6530816,6530816
8,sorter,ec-RS-6-3-1024k,40,econome-6,4478300,4478124,8579392,8579392
8,sorter,ec-RS-6-3-1024k,40,econome-7,3075660,3075440,6616268,6616268
8,sorter,ec-RS-6-3-1024k,40,econome-8,3956612,3956612,6691800,6691800
8,sorter,ec-RS-6-3-1024k,40,econome-9,3864412,3864412,7194768,7194768
8,sorter,rep3,40,econome-11,6851764,6851916,13579256,13579256
8,sorter,rep3,40,econome-12,7369636,7369772,13961488,13961488
8,sorter,rep3,40,econome-13,4995892,4995504,13394276,13394276
8,sorter,rep3,40,econome-14,5527248,5527820,12754980,12754980
8,sorter,rep3,40,econome-15,5530740,5530872,12091508,12091500
8,sorter,rep3,40,econome-16,5005824,5006332,11460996,11460996
8,sorter,rep3,40,econome-17,6573608,6573892,14124236,14124236
8,sorter,rep3,40,econome-18,5263068,5263188,12658856,12658856
8,sorter,rep3,40,econome-19,10261888,10262040,17778672,17778672
8,sorter,rep3,40,econome-2,6858736,6858888,13449348,13449348
8,sorter,rep3,40,econome-20,5785536,5785428,12654120,12654120
8,sorter,rep3,40,econome-21,3421376,3421304,10386964,10386964
8,sorter,rep3,40,econome-22,6855196,6855344,13339076,13339076
8,sorter,rep3,40,econome-3,3692212,3692016,0,0
8,sorter,rep3,40,econome-4,6584240,6584568,13385976,13385976
8,sorter,rep3,40,econome-5,6062648,6062748,13069424,13069424
8,sorter,rep3,40,econome-6,7637324,7637460,0,0
8,sorter,rep3,40,econome-7,8434040,8433920,16931840,16931840
8,sorter,rep3,40,econome-8,6316384,6316684,11569416,11569416
8,sorter,rep3,40,econome-9,7373384,7373468,14927720,14927720
8,word-count,ec-RS-6-3-1024k,40,econome-11,3696280,3696340,3707444,3707444
8,word-count,ec-RS-6-3-1024k,40,econome-12,3870604,3870664,3883132,3883132
8,word-count,ec-RS-6-3-1024k,40,econome-13,4132652,4132652,4145804,4145804
8,word-count,ec-RS-6-3-1024k,40,econome-14,2903396,2903396,2909892,2909892
8,word-count,ec-RS-6-3-1024k,40,econome-15,2373836,2373828,2382172,2382172
8,word-count,ec-RS-6-3-1024k,40,econome-16,2901712,2901384,2910636,2910636
8,word-count,ec-RS-6-3-1024k,40,econome-17,2640040,2640004,2649748,2649748
8,word-count,ec-RS-6-3-1024k,40,econome-18,2638680,2638440,2650476,2650476
8,word-count,ec-RS-6-3-1024k,40,econome-19,1846436,1846436,1864432,1864432
8,word-count,ec-RS-6-3-1024k,40,econome-2,4135620,4135620,4151136,4151136
8,word-count,ec-RS-6-3-1024k,40,econome-20,2902596,2902596,2914296,2914296
8,word-count,ec-RS-6-3-1024k,40,econome-21,4133328,4133328,0,0
8,word-count,ec-RS-6-3-1024k,40,econome-22,4396208,4396208,4409888,4409888
8,word-count,ec-RS-6-3-1024k,40,econome-3,2814820,2814820,2821500,2821500
8,word-count,ec-RS-6-3-1024k,40,econome-4,2900932,2900932,2919592,2919592
8,word-count,ec-RS-6-3-1024k,40,econome-5,3166728,3166728,3175708,3175708
8,word-count,ec-RS-6-3-1024k,40,econome-6,3871748,3871748,3878148,3878148
8,word-count,ec-RS-6-3-1024k,40,econome-7,1580996,1580952,1593600,1593600
8,word-count,ec-RS-6-3-1024k,40,econome-8,3078520,3078484,3084216,3084216
8,word-count,ec-RS-6-3-1024k,40,econome-9,3340800,3340756,0,0
8,word-count,rep3,40,econome-11,6325004,6325132,6337524,6337524
8,word-count,rep3,40,econome-12,6063540,6063260,6069656,6069656
8,word-count,rep3,40,econome-13,5539160,5539360,5549192,5549192
8,word-count,rep3,40,econome-14,3957296,3957200,3969564,3969564
8,word-count,rep3,40,econome-15,5537148,5537252,5547808,5547808
8,word-count,rep3,40,econome-16,7381812,7381984,7396028,7396028
8,word-count,rep3,40,econome-17,6065356,6065444,6075500,6075500
8,word-count,rep3,40,econome-18,5535204,5535064,5544184,5544184
8,word-count,rep3,40,econome-19,6063056,6063324,6075940,6075940
8,word-count,rep3,40,econome-2,9226692,9227152,9239716,9239716
8,word-count,rep3,40,econome-20,6065336,6065504,6077044,6077044
8,word-count,rep3,40,econome-21,6851140,6851408,6864752,6864752
8,word-count,rep3,40,econome-22,6851696,6851352,0,0
8,word-count,rep3,40,econome-3,6853432,6854016,6861868,6861868
8,word-count,rep3,40,econome-4,7646380,7646392,7657332,7657332
8,word-count,rep3,40,econome-5,5015460,5015544,5024044,5024044
8,word-count,rep3,40,econome-6,7122096,7122308,7131228,7131228
8,word-count,rep3,40,econome-7,7379572,7379608,7390740,7390740
8,word-count,rep3,40,econome-8,4744356,4744648,0,0
8,word-count,rep3,40,econome-9,6325320,6325592,6336012,6336012
9,sorter,ec-RS-6-3-1024k,40,econome-11,2372076,2372076,5902552,5902552
9,sorter,ec-RS-6-3-1024k,40,econome-12,1846176,1846176,5158992,5158992
9,sorter,ec-RS-6-3-1024k,40,econome-13,2548200,2547952,6453632,6453632
9,sorter,ec-RS-6-3-1024k,40,econome-14,2109652,2109616,4646112,4646112
9,sorter,ec-RS-6-3-1024k,40,econome-15,2899832,2899892,6807620,6807620
9,sorter,ec-RS-6-3-1024k,40,econome-16,4655868,4655868,8179120,8179120
9,sorter,ec-RS-6-3-1024k,40,econome-17,3160100,3160064,0,0
9,sorter,ec-RS-6-3-1024k,40,econome-18,2812184,2812184,7301080,7301080
9,sorter,ec-RS-6-3-1024k,40,econome-19,3953472,3953472,8643700,8643700
9,sorter,ec-RS-6-3-1024k,40,econome-2,3604996,3604996,6135444,6135444
9,sorter,ec-RS-6-3-1024k,40,econome-20,3952432,3952432,7654688,7654688
9,sorter,ec-RS-6-3-1024k,40,econome-21,4130108,4130108,0,0
9,sorter,ec-RS-6-3-1024k,40,econome-22,3689464,3689392,7600668,7600668
9,sorter,ec-RS-6-3-1024k,40,econome-3,3428004,3428004,5967956,5967956
9,sorter,ec-RS-6-3-1024k,40,econome-4,4483496,4483496,7211848,7211848
9,sorter,ec-RS-6-3-1024k,40,econome-5,2021576,2021576,5919456,5919456
9,sorter,ec-RS-6-3-1024k,40,econome-6,3692100,3692100,7008844,7008844
9,sorter,ec-RS-6-3-1024k,40,econome-7,3073328,3073328,6415684,6415684
9,sorter,ec-RS-6-3-1024k,40,econome-8,2814712,2814712,5944428,5944428
9,sorter,ec-RS-6-3-1024k,40,econome-9,2021052,2021052,4955296,4955296
9,sorter,rep3,40,econome-11,4741680,4741836,13028824,13028824
9,sorter,rep3,40,econome-12,4738380,4738612,10811300,10811300
9,sorter,rep3,40,econome-13,7633868,7634036,13506708,13506708
9,sorter,rep3,40,econome-14,6848436,6848368,12878716,12878716
9,sorter,rep3,40,econome-15,6059156,6059192,9906556,9906556
9,sorter,rep3,40,econome-16,7647832,7647992,0,0
9,sorter,rep3,40,econome-17,7634512,7634284,15214180,15214180
9,sorter,rep3,40,econome-18,6041864,6041952,0,0
9,sorter,rep3,40,econome-19,6848532,6848484,15750188,15750188
9,sorter,rep3,40,econome-2,7360212,7360084,14783300,14783300
9,sorter,rep3,40,econome-20,6320060,6320036,12390840,12390840
9,sorter,rep3,40,econome-21,5263056,5263188,11235416,11235416
9,sorter,rep3,40,econome-22,6844916,6845324,12955712,12955712
9,sorter,rep3,40,econome-3,6312864,6313572,12934524,12934524
9,sorter,rep3,40,econome-4,5798772,5798860,12634320,12634320
9,sorter,rep3,40,econome-5,6062812,6062876,14190436,14190436
9,sorter,rep3,40,econome-6,7376828,7376892,13964520,13964520
9,sorter,rep3,40,econome-7,5537760,5538036,13321128,13321128
9,sorter,rep3,40,econome-8,3956060,3956152,11752388,11752388
9,sorter,rep3,40,econome-9,7373124,7373396,17897908,17897908
9,word-count,ec-RS-6-3-1024k,40,econome-11,4484320,0,4491144,4491144
9,word-count,ec-RS-6-3-1024k,40,econome-12,528788,528788,537304,537304
9,word-count,ec-RS-6-3-1024k,40,econome-13,1759056,1759020,1767436,1767436
9,word-count,ec-RS-6-3-1024k,40,econome-14,3077600,3077636,3093540,3093540
9,word-count,ec-RS-6-3-1024k,40,econome-15,3167540,3167416,3179144,3179144
9,word-count,ec-RS-6-3-1024k,40,econome-16,4487800,4487800,0,0
9,word-count,ec-RS-6-3-1024k,40,econome-17,4222060,4222120,4236924,4236924
9,word-count,ec-RS-6-3-1024k,40,econome-18,2816344,2816344,2831696,2831696
9,word-count,ec-RS-6-3-1024k,40,econome-19,3958764,3958720,3976628,3976628
9,word-count,ec-RS-6-3-1024k,40,econome-2,2637208,2637208,2645124,2645124
9,word-count,ec-RS-6-3-1024k,40,econome-20,4131180,4131172,4138164,4138164
9,word-count,ec-RS-6-3-1024k,40,econome-21,2900852,2900852,2910292,2910292
9,word-count,ec-RS-6-3-1024k,40,econome-22,4222104,4222104,0,0
9,word-count,ec-RS-6-3-1024k,40,econome-3,3342400,3342400,3355868,3355868
9,word-count,ec-RS-6-3-1024k,40,econome-4,3606676,3606736,3622540,3622540
9,word-count,ec-RS-6-3-1024k,40,econome-5,2111260,2111252,2119944,2119944
9,word-count,ec-RS-6-3-1024k,40,econome-6,2022764,2022720,2033488,2033488
9,word-count,ec-RS-6-3-1024k,40,econome-7,4396344,4396344,4406208,4406208
9,word-count,ec-RS-6-3-1024k,40,econome-8,2636836,2636792,2646868,2646868
9,word-count,ec-RS-6-3-1024k,40,econome-9,2815512,2815512,2822256,2822256
9,word-count,rep3,40,econome-11,6327264,6327516,0,0
9,word-count,rep3,40,econome-12,3426160,3426060,3437532,3437532
9,word-count,rep3,40,econome-13,5010816,5010972,5025504,5025504
9,word-count,rep3,40,econome-14,8698264,8698468,8710616,8710616
9,word-count,rep3,40,econome-15,6587300,6587072,6601828,6601828
9,word-count,rep3,40,econome-16,5796820,5796744,5809688,5809688
9,word-count,rep3,40,econome-17,6591440,6591968,6604936,6604936
9,word-count,rep3,40,econome-18,6855672,6855776,6863976,6863976
9,word-count,rep3,40,econome-19,6591488,6591968,6610160,6610160
9,word-count,rep3,40,econome-2,8438608,8438716,8447544,8447544
9,word-count,rep3,40,econome-20,5279504,5279796,5289396,5289396
9,word-count,rep3,40,econome-21,8436632,8436844,8445324,8445324
9,word-count,rep3,40,econome-22,4488140,4488056,4492732,4492732
9,word-count,rep3,40,econome-3,5797296,5796992,5803696,5803696
9,word-count,rep3,40,econome-4,5801116,5801308,5815644,5815644
9,word-count,rep3,40,econome-5,7117628,7117788,7126120,7126120
9,word-count,rep3,40,econome-6,5013020,5013288,0,0
9,word-count,rep3,40,econome-7,7119840,7120060,7128148,7128148
9,word-count,rep3,40,econome-8,5006276,5006532,5012132,5012132
9,word-count,rep3,40,econome-9,8165772,8165640,8175440,8175440
