run_id,job_name,policy,datasize,failure_type,failure_stage,nb_failures,killed_hosts,time_before_f,time_after_f,nb_live_dns,nb_live_workers
0,sorter,ec-RS-6-3-1024k,40,map,100,2,econome-6:econome-22,1554635325.76,1554635329.56,20,18
0,sorter,rep3,40,map,100,2,econome-13:econome-3,1554635900.16,1554635905.85,20,18
0,word-count,ec-RS-6-3-1024k,40,map,100,2,econome-9:econome-18,1554636544.69,1554636546.12,20,18
0,word-count,rep3,40,map,100,2,econome-21:econome-2,1554636899.42,1554636900.81,20,18
1,sorter,ec-RS-6-3-1024k,40,map,100,2,econome-21:econome-15,1554637326.23,1554637327.83,20,18
1,sorter,rep3,40,map,100,2,econome-18:econome-5,1554637700.32,1554637704.56,20,18
1,word-count,ec-RS-6-3-1024k,40,map,100,2,econome-8:econome-20,1554638211.4,1554638212.8,20,18
1,word-count,rep3,40,map,100,2,econome-6:econome-3,1554638563.81,1554638565.22,20,18
2,sorter,ec-RS-6-3-1024k,40,map,100,2,econome-6:econome-3,1554638917.27,1554638922.37,20,18
2,sorter,rep3,40,map,100,2,econome-9:econome-15,1554639358.22,1554639363.56,20,18
2,word-count,ec-RS-6-3-1024k,40,map,100,2,econome-15:econome-5,1554639867.19,1554639868.55,20,18
2,word-count,rep3,40,map,100,2,econome-16:econome-7,1554640235.55,1554640236.94,20,18
3,sorter,ec-RS-6-3-1024k,40,map,100,2,econome-21:econome-3,1554640655.59,1554640657.53,20,18
3,sorter,rep3,40,map,100,2,econome-9:econome-4,1554641036.15,1554641041.2,20,18
3,word-count,ec-RS-6-3-1024k,40,map,100,2,econome-8:econome-16,1554641682.43,1554641683.88,20,18
3,word-count,rep3,40,map,100,2,econome-6:econome-5,1554642031.3,1554642032.7,20,18
4,sorter,ec-RS-6-3-1024k,40,map,100,2,econome-13:econome-2,1554642458.84,1554642464.63,20,18
4,sorter,rep3,40,map,100,2,econome-6:econome-20,1554642839.34,1554642842.49,20,18
4,word-count,ec-RS-6-3-1024k,40,map,100,2,econome-11:econome-17,1554643329.96,1554643331.3,20,18
4,word-count,rep3,40,map,100,2,econome-8:econome-22,1554643684.14,1554643685.53,20,18
5,sorter,ec-RS-6-3-1024k,40,map,100,2,econome-21:econome-6,1554644108.77,1554644111.19,20,18
5,sorter,rep3,40,map,100,2,econome-21:econome-4,1554644669.16,1554644673.81,20,18
5,word-count,ec-RS-6-3-1024k,40,map,100,2,econome-13:econome-19,1554645188.87,1554645190.28,20,18
5,word-count,rep3,40,map,100,2,econome-6:econome-9,1554645546.48,1554645547.88,20,18
6,sorter,ec-RS-6-3-1024k,40,map,100,2,econome-6:econome-9,1554645978.37,1554645979.88,20,18
6,sorter,rep3,40,map,100,2,econome-14:econome-22,1554646362.62,1554646364.33,20,18
6,word-count,ec-RS-6-3-1024k,40,map,100,2,econome-3:econome-17,1554646830.77,1554646832.27,20,18
6,word-count,rep3,40,map,100,2,econome-6:econome-8,1554647180.25,1554647181.65,20,18
7,sorter,ec-RS-6-3-1024k,40,map,100,2,econome-18:econome-22,1554647609.92,1554647614.08,20,18
7,sorter,rep3,40,map,100,2,econome-21:econome-5,1554647982.86,1554647987.96,20,18
7,word-count,ec-RS-6-3-1024k,40,map,100,2,econome-6:econome-13,1554648453.96,1554648455.46,20,18
7,word-count,rep3,40,map,100,2,econome-14:econome-16,1554648813.5,1554648814.81,20,18
8,sorter,ec-RS-6-3-1024k,40,map,100,2,econome-20:econome-22,1554649244.02,1554649246.21,20,18
8,sorter,rep3,40,map,100,2,econome-6:econome-3,1554649646.82,1554649652.17,20,18
8,word-count,ec-RS-6-3-1024k,40,map,100,2,econome-21:econome-9,1554650167.18,1554650168.52,20,18
8,word-count,rep3,40,map,100,2,econome-8:econome-22,1554650522.73,1554650524.18,20,18
9,sorter,ec-RS-6-3-1024k,40,map,100,2,econome-21:econome-17,1554650944.08,1554650949.18,20,18
9,sorter,rep3,40,map,100,2,econome-16:econome-18,1554651498.94,1554651504.21,20,18
9,word-count,ec-RS-6-3-1024k,40,map,100,2,econome-16:econome-22,1554652140.0,1554652141.5,20,18
9,word-count,rep3,40,map,100,2,econome-6:econome-11,1554652496.34,1554652497.75,20,18
