run_id,job_name,policy,datasize,nb_failures,failure_stage,killed_hosts,lb_before_1,lb_before_2,lb_after_1,lb_after_2
0,pagerank,ec-RS-6-3-1024k,10,0,0,None,2517284-2732720-2587688-2798788-2905796-2401968-2621548-2582592-2789816-2724880-2489360-2869240-2315896-3217112-3006056-2900884-2658156-2381136-2549932,2446560-2661960-2588288-2727812-2906348-2402484-2621796-2584016-2791088-2654908-2418496-2798740-2316544-3217352-2935204-2899996-2588348-2311596-2479796,2570528-2799204-2755328-2864400-3112164-2537816-2808088-2648380-2853400-2800484-2458040-2964000-2463068-3396660-3082304-3051912-2774076-2442276-2652224,2570528-2799204-2755328-2864400-3112164-2537816-2808088-2648380-2853400-2800484-2458040-2964000-2463068-3396660-3082304-3051912-2774076-2442276-2652224
0,pagerank,rep3,10,0,0,None,5208480-5876956-4418012-5386972-4433272-6063632-5442644-5898900-4983820-4995496-5828476-5077728-6510004-5501036-5701832-4600668-5730956-4257936-4893008,5207612-5806100-4347492-5388704-4362144-6064972-5443336-5828408-4986000-4995988-5828788-5007204-6510580-5430068-5631052-4600352-5659780-4189248-4822716,5360036-6203144-4666404-5587864-4717576-6336384-5638912-6193040-5226088-5233488-5887140-5241012-6695384-5791524-5821636-4740020-6062092-4595232-5104168,5360036-6203144-4666404-5587864-4717576-6336384-5638912-6193040-5226088-5233488-5887140-5241012-6695384-5791524-5821636-4740020-6062092-4595232-5104168
0,kmeans,ec-RS-6-3-1024k,10,0,0,None,20207148-17742932-16949008-19677880-18011332-19386704-18551460-19430940-18622908-21381464-19150768-16995396-21924112-18286460-14926140-16772808-18076784-19858012-17288732,20136496-17743132-16949256-19606944-18011376-19386840-18551356-19359860-18551628-21381912-19079620-16995504-21924232-18286664-14926732-16701092-18006004-19858180-17217192,41390404-39657976-37879340-42820784-41068972-41528348-39497132-40626868-40646856-41971004-41881600-40294568-45094124-41917244-38504180-38219620-40615836-41308480-39011984,41390404-39657976-37879340-42820784-41068972-41528348-39497132-40626868-40646856-41971004-41881600-40294568-45094124-41917244-38504180-38219620-40615836-41308480-39011984
0,kmeans,rep3,10,0,0,None,41976660-38386672-34249840-39882208-38038572-40854492-33012732-38915080-37774232-40674564-40746640-34579208-34585172-36183100-32934620-31433508-41382900-33193028-36711452,41905572-38386820-34250028-39882156-38038468-40854788-33012896-38915236-37774356-40674768-40675632-34507992-34513996-36183804-32935232-31433768-41383064-33193064-36711680,85420828-85486664-79158248-85009128-79342208-82436068-79087568-83489360-79123072-82652864-82378800-79525896-79982612-78566920-80615048-76302300-86331940-78699144-80356636,85420832-85486676-79158248-85009184-79342208-82436068-79087572-83489360-79123072-82652864-82378800-79525896-79982612-78566920-80615052-76302300-86331940-78699148-80356636
1,pagerank,ec-RS-6-3-1024k,10,0,0,None,2511892-3153348-2865216-2767796-2727208-3041188-2692616-2195420-2862808-2698792-2740936-2590840-2650412-2061756-2905144-2206796-2692948-2718048-2896192,2514324-3082220-2865488-2695832-2657676-2970536-2692984-2124636-2863360-2629364-2742392-2591728-2578720-1991268-2834540-2207280-2693524-2718896-2896508,2694368-3140780-3068556-2833240-2796668-3125524-2831268-2249732-2969220-2848456-2906304-2751680-2715760-2133052-2886748-2395832-2743976-2898584-3044848,2694368-3140780-3068556-2833240-2796668-3125524-2831268-2249732-2969220-2848456-2906304-2751680-2715760-2133052-2886748-2395832-2743976-2898584-3044848
1,pagerank,rep3,10,0,0,None,6780984-5202780-4821972-4247140-5089272-4819148-5654188-6145652-5802504-4811040-6114468-6978252-6886776-4867944-4035728-5216132-5417648-3753760-4164584,6709980-5203572-4824080-4176776-5018164-4749148-5583448-6075132-5803428-4811332-6044040-6907348-6887056-4797756-3964896-5216404-5418516-3755892-4163684,6944368-5344892-4929136-4500472-5336308-4857232-5731060-6358404-6213688-5042160-6446232-7139556-7118608-5073752-4153676-5535024-5865952-3981920-4528980,6944368-5344892-4929136-4500472-5336308-4857232-5731060-6358404-6213688-5042160-6446232-7139556-7118608-5073752-4153676-5535024-5865952-3981920-4528980
1,kmeans,ec-RS-6-3-1024k,10,0,0,None,15188656-20439772-19385584-16492156-21002260-16995236-18597232-18669244-17815252-18901492-16727352-20135796-19588364-15893744-23011864-20384996-17465812-18008220-18681544,15116992-20368552-19314272-16420748-20931036-16995900-18597516-18598108-17743856-18830120-16656132-20135980-19588656-15894380-23011956-20385016-17466100-18008348-18610588,37529732-43778612-40186720-38849788-42980724-38063940-40045092-42156616-38783472-41832740-38497280-43196712-41182356-37370028-44405772-43073536-40068788-39990908-42093100,37529732-43778612-40186720-38849788-42980724-38063940-40045092-42156616-38783472-41832740-38497280-43196712-41182356-37370028-44405772-43073536-40068788-39990908-42093100
1,kmeans,rep3,10,0,0,None,31415008-31943440-47279280-39076700-41094232-38109804-39076528-39882084-40655692-38921308-43917156-34147256-30905112-27380496-36273124-31961904-42240872-41815276-29848780,31343720-31871968-47279376-39005468-41023000-38039260-39005320-39882156-40584588-38921316-43845844-34075552-30905396-27380608-36273232-31962024-42170332-41815424-29848804,74019648-75867728-92141184-84117800-85689084-83514672-80964680-85264352-83371876-82860772-84681480-78093388-75549100-71075452-81435600-76247944-86678396-87629684-75546444,74019648-75867728-92141184-84117800-85689084-83514672-80964680-85264352-83371876-82860772-84681480-78093392-75549100-71075452-81435600-76247944-86678396-87629712-75546444
2,pagerank,ec-RS-6-3-1024k,10,0,0,None,2874932-2523548-2445780-1785732-2091264-2964652-2309192-3049852-3071756-3188824-2101476-3040664-2787044-2936908-3003828-2275160-2799008-2968188-2831888,2804408-2523820-2446932-1714852-2021684-2893652-2238432-3050804-3072612-3116548-2101820-3042564-2716456-2938584-2932912-2276000-2728188-2969112-2761996,2912180-2609044-2577540-1872280-2131232-3048884-2398760-3183296-3249880-3280868-2274968-3123740-2902400-3069732-3088408-2427380-2927696-3041220-2914928,2912180-2609044-2577540-1872280-2131232-3048884-2398760-3183296-3249880-3280868-2274968-3123740-2902400-3069732-3088408-2427380-2927696-3041220-2914928
2,pagerank,rep3,10,0,0,None,4809088-6696908-5814528-4610604-4411540-4260372-5912268-6110884-4808236-4813548-7149328-6042748-5504948-5277680-4871488-4416460-6449436-5048864-3800864,4809920-6697456-5816492-4612028-4412428-4189704-5841588-6039764-4809224-4743040-7078504-6043324-5433264-5207908-4800784-4345712-6449960-5049360-3730020,4913264-7233936-5923920-4934020-4730468-4591192-6077796-6401016-4916600-4983816-7437636-6443288-5836236-5312284-4988624-4661124-6638432-5107396-3970940,4913264-7233936-5923920-4934020-4730468-4591192-6077796-6401016-4916600-4983816-7437636-6443288-5836236-5312284-4988624-4661124-6638432-5107396-3970940
2,kmeans,ec-RS-6-3-1024k,10,0,0,None,20456880-21160596-15689408-17523844-19078476-19079572-16993504-19594672-17889380-20108068-20368624-17561144-16698988-16703636-19123664-18594504-20134300-18930964-17479868,20385648-21160568-15689592-17523748-19078484-19079888-16922328-19523344-17818196-20108352-20369340-17489780-16699064-16704240-19123844-18523380-20134524-18859800-17480092,42597208-44073028-38037924-39439228-41220412-42260904-38530912-41304468-40046440-41333696-43724768-39579112-39621560-39784544-41292152-40507508-40940612-40276248-39104496,42597208-44073028-38037788-39439228-41220412-42260904-38530912-41304468-40046440-41333696-43724768-39579112-39621560-39784544-41292152-40507508-40940612-40276248-39104496
2,kmeans,rep3,10,0,0,None,41983136-40416176-39707868-37575432-42072724-37336136-40127508-34141048-38303032-39887788-40506256-31498848-33174108-36782792-36434764-29997968-38831044-32748688-34418680,41912380-40416512-39708140-37504124-42001508-37336252-40056448-34069592-38302696-39888512-40506412-31427740-33102784-36711508-36363388-29926704-38831220-32748608-34418764,86017332-82830876-80682664-84750516-86951028-82522548-85014272-78426484-80730812-83956228-82043740-73733160-79895016-83008632-80371936-75682108-81966776-78696064-77372836,86017332-82830876-80682664-84750608-86951020-82522548-85014272-78426484-80730812-83956228-82043740-73733152-79895016-83008632-80371936-75682108-81966776-78696064-77372828
