run_id,job_name,policy,datasize,failure_type,failure_stage,nb_failures,killed_hosts,time_before_f,time_after_f,nb_live_dns,nb_live_workers
0,sorter,ec-RS-6-3-1024k,40,map,100,2,econome-13:econome-20,1555454661.9,1555454662.36,20,20
0,sorter,rep3,40,map,100,2,econome-6:econome-16,1555455214.1,1555455214.67,20,20
1,sorter,ec-RS-6-3-1024k,40,map,100,2,econome-14:econome-12,1555455832.01,1555455832.53,20,20
1,sorter,rep3,40,map,100,2,econome-8:econome-16,1555456381.8,1555456382.27,20,20
2,sorter,ec-RS-6-3-1024k,40,map,100,2,econome-21:econome-15,1555456995.4,1555456995.87,20,20
2,sorter,rep3,40,map,100,2,econome-2:econome-4,1555457542.07,1555457542.59,20,20
3,sorter,ec-RS-6-3-1024k,40,map,100,2,econome-14:econome-16,1555458137.45,1555458137.93,20,20
3,sorter,rep3,40,map,100,2,econome-6:econome-13,1555458699.57,1555458700.08,20,20
4,sorter,ec-RS-6-3-1024k,40,map,100,2,econome-15:econome-18,1555459316.4,1555459316.93,20,20
4,sorter,rep3,40,map,100,2,econome-14:econome-4,1555459873.04,1555459873.66,20,20
