run_id,job_name,policy,datasize,host,lb_before_1,lb_before_2,lb_after_1,lb_after_2
0,sorter,ec-RS-6-3-1024k,40,econome-11,3603260,3603084,7891292,7891292
0,sorter,ec-RS-6-3-1024k,40,econome-12,2814604,2814560,6134128,6134128
0,sorter,ec-RS-6-3-1024k,40,econome-13,3695520,3695520,6614832,6614832
0,sorter,ec-RS-6-3-1024k,40,econome-14,4482632,4482632,7802504,7802504
0,sorter,ec-RS-6-3-1024k,40,econome-15,527476,527476,4232040,4232044
0,sorter,ec-RS-6-3-1024k,40,econome-16,4919552,4919304,8420092,8420092
0,sorter,ec-RS-6-3-1024k,40,econome-17,3598656,3598656,6534180,6534180
0,sorter,ec-RS-6-3-1024k,40,econome-18,2813092,2813092,0,0
0,sorter,ec-RS-6-3-1024k,40,econome-19,2637536,2637536,5575932,5575932
0,sorter,ec-RS-6-3-1024k,40,econome-2,3162344,3162344,6096728,6096728
0,sorter,ec-RS-6-3-1024k,40,econome-20,2898160,2898160,6796524,6796524
0,sorter,ec-RS-6-3-1024k,40,econome-21,2811752,2811752,6338232,6338232
0,sorter,ec-RS-6-3-1024k,40,econome-22,439904,439904,3762116,3762116
0,sorter,ec-RS-6-3-1024k,40,econome-3,3688308,3688308,6622688,6622688
0,sorter,ec-RS-6-3-1024k,40,econome-4,3604408,3604408,6339688,6339688
0,sorter,ec-RS-6-3-1024k,40,econome-5,3687392,3687384,7199948,7199948
0,sorter,ec-RS-6-3-1024k,40,econome-6,3426132,3426132,6555972,6555972
0,sorter,ec-RS-6-3-1024k,40,econome-7,2899848,2899848,6613060,6613060
0,sorter,ec-RS-6-3-1024k,40,econome-8,3427340,3427340,7134812,7134812
0,sorter,ec-RS-6-3-1024k,40,econome-9,4131112,4131068,7079192,7079192
0,sorter,rep3,40,econome-11,6587548,6587600,14508180,14508184
0,sorter,rep3,40,econome-12,6848220,6848428,12139168,12139176
0,sorter,rep3,40,econome-13,5791688,5792168,12150620,12150628
0,sorter,rep3,40,econome-14,5270072,5270164,11287536,11287540
0,sorter,rep3,40,econome-15,4477656,4477504,10426888,10426888
0,sorter,rep3,40,econome-16,6059316,6059524,13451724,13451724
0,sorter,rep3,40,econome-17,6059136,6059388,14742752,14742760
0,sorter,rep3,40,econome-18,5527564,5527628,12189540,12189540
0,sorter,rep3,40,econome-19,6584528,6584616,14251800,14251800
0,sorter,rep3,40,econome-2,6055872,6056056,13089380,13089392
0,sorter,rep3,40,econome-20,7637560,7637588,14850884,14850884
0,sorter,rep3,40,econome-21,8165720,8165864,14856784,14856784
0,sorter,rep3,40,econome-22,7623692,7623512,13770272,13770272
0,sorter,rep3,40,econome-3,5795140,5795516,11997316,11997324
0,sorter,rep3,40,econome-4,6055676,6055908,12449120,12449120
0,sorter,rep3,40,econome-5,7641852,7641924,13696412,13696416
0,sorter,rep3,40,econome-6,5270068,5270296,12484436,12484436
0,sorter,rep3,40,econome-7,6566592,6566920,12621424,12621424
0,sorter,rep3,40,econome-8,4741988,4741712,0,0
0,sorter,rep3,40,econome-9,7640844,7640956,13138148,13138148
0,word-count,ec-RS-6-3-1024k,40,econome-11,3165048,3165048,3181524,3181524
0,word-count,ec-RS-6-3-1024k,40,econome-12,3605556,3605368,3616812,3616812
0,word-count,ec-RS-6-3-1024k,40,econome-13,4484816,4484808,4493660,4493660
0,word-count,ec-RS-6-3-1024k,40,econome-14,3165820,3165812,3179744,3179744
0,word-count,ec-RS-6-3-1024k,40,econome-15,3077884,3077884,3088708,3088708
0,word-count,ec-RS-6-3-1024k,40,econome-16,2111216,2111276,2123204,2123204
0,word-count,ec-RS-6-3-1024k,40,econome-17,3960408,3960400,3970796,3970796
0,word-count,ec-RS-6-3-1024k,40,econome-18,3603816,3603844,3615232,3615232
0,word-count,ec-RS-6-3-1024k,40,econome-19,1230380,1230372,1234316,1234316
0,word-count,ec-RS-6-3-1024k,40,econome-2,4395632,4395668,4411528,4411528
0,word-count,ec-RS-6-3-1024k,40,econome-20,5013052,5013052,5020592,5020592
0,word-count,ec-RS-6-3-1024k,40,econome-21,3606784,3606836,3619796,3619796
0,word-count,ec-RS-6-3-1024k,40,econome-22,1056096,1056096,1069708,1069708
0,word-count,ec-RS-6-3-1024k,40,econome-3,3607328,3607328,3617204,3617204
0,word-count,ec-RS-6-3-1024k,40,econome-4,3429288,3429288,3441108,3441108
0,word-count,ec-RS-6-3-1024k,40,econome-5,3695988,3695988,3708484,3708484
0,word-count,ec-RS-6-3-1024k,40,econome-6,702976,702976,711016,711016
0,word-count,ec-RS-6-3-1024k,40,econome-7,2815068,2815068,2833764,2833764
0,word-count,ec-RS-6-3-1024k,40,econome-8,2903892,2903892,2914104,2914104
0,word-count,ec-RS-6-3-1024k,40,econome-9,3694152,3694152,0,0
0,word-count,rep3,40,econome-11,6600652,6600804,6605032,6605032
0,word-count,rep3,40,econome-12,5272720,5272916,5283460,5283460
0,word-count,rep3,40,econome-13,6855692,6855848,6864364,6864364
0,word-count,rep3,40,econome-14,4218396,4218512,4229696,4229696
0,word-count,rep3,40,econome-15,6327484,6327588,6342404,6342404
0,word-count,rep3,40,econome-16,5801280,5801244,5811048,5811048
0,word-count,rep3,40,econome-17,6591768,6592100,6598428,6598428
0,word-count,rep3,40,econome-18,6851644,6851280,6863556,6863556
0,word-count,rep3,40,econome-19,6064108,6064152,6076936,6076936
0,word-count,rep3,40,econome-2,6329544,6329592,0,0
0,word-count,rep3,40,econome-20,5803392,5803560,5813752,5813752
0,word-count,rep3,40,econome-21,7903616,7903684,7919844,7919844
0,word-count,rep3,40,econome-22,5530504,5530748,5540084,5540084
0,word-count,rep3,40,econome-3,8172160,8172696,8186080,8186080
0,word-count,rep3,40,econome-4,4744332,4744520,4756208,4756208
0,word-count,rep3,40,econome-5,6067904,6068076,6077432,6077432
0,word-count,rep3,40,econome-6,7381788,7381860,7393316,7393316
0,word-count,rep3,40,econome-7,6065540,6065636,6074032,6074032
0,word-count,rep3,40,econome-8,7907952,7907996,7918076,7918076
0,word-count,rep3,40,econome-9,6058580,6058760,6071836,6071836
1,sorter,ec-RS-6-3-1024k,40,econome-11,1844276,1844240,5184924,5184924
1,sorter,ec-RS-6-3-1024k,40,econome-12,1231940,1232000,4365300,4365300
1,sorter,ec-RS-6-3-1024k,40,econome-13,2900720,2900720,6208520,6208520
1,sorter,ec-RS-6-3-1024k,40,econome-14,2900756,2900748,6599528,6599528
1,sorter,ec-RS-6-3-1024k,40,econome-15,3690324,3690280,7606880,7606880
1,sorter,ec-RS-6-3-1024k,40,econome-16,4129064,4129064,7829736,7829736
1,sorter,ec-RS-6-3-1024k,40,econome-17,2900364,2900152,7013336,7013336
1,sorter,ec-RS-6-3-1024k,40,econome-18,4393484,4393104,7324116,7324116
1,sorter,ec-RS-6-3-1024k,40,econome-19,3864780,3864728,7003628,7003628
1,sorter,ec-RS-6-3-1024k,40,econome-2,2900784,2900784,0,0
1,sorter,ec-RS-6-3-1024k,40,econome-20,3427160,3427160,7531032,7531032
1,sorter,ec-RS-6-3-1024k,40,econome-21,3604268,3604224,6741316,6741316
1,sorter,ec-RS-6-3-1024k,40,econome-22,2020600,2020600,5523312,5523312
1,sorter,ec-RS-6-3-1024k,40,econome-3,2638564,2638564,5763712,5763712
1,sorter,ec-RS-6-3-1024k,40,econome-4,1844524,1844524,4367740,4367740
1,sorter,ec-RS-6-3-1024k,40,econome-5,4392720,4392720,7916016,7916016
1,sorter,ec-RS-6-3-1024k,40,econome-6,3953652,3953652,6482224,6482224
1,sorter,ec-RS-6-3-1024k,40,econome-7,4482820,4482820,7418120,7418120
1,sorter,ec-RS-6-3-1024k,40,econome-8,1493728,1493728,4798880,4798880
1,sorter,ec-RS-6-3-1024k,40,econome-9,4654812,4654812,7978328,7978328
1,sorter,rep3,40,econome-11,7369996,7369780,14204460,14204460
1,sorter,rep3,40,econome-12,6845080,6845312,14171636,14171636
1,sorter,rep3,40,econome-13,6069584,6069724,13313024,13313024
1,sorter,rep3,40,econome-14,5527248,5527444,12652656,12652664
1,sorter,rep3,40,econome-15,6594532,6594700,11432276,11432280
1,sorter,rep3,40,econome-16,6052364,6052484,13339080,13339092
1,sorter,rep3,40,econome-17,4999024,4999056,10692856,10692856
1,sorter,rep3,40,econome-18,4741976,4742080,10664336,10664336
1,sorter,rep3,40,econome-19,5270272,5270808,12636080,12636080
1,sorter,rep3,40,econome-2,6573624,6573716,13789536,13789544
1,sorter,rep3,40,econome-20,5527240,5527384,12382056,12382064
1,sorter,rep3,40,econome-21,4739368,4739316,11357812,11357812
1,sorter,rep3,40,econome-22,5270084,5270240,10728312,10728312
1,sorter,rep3,40,econome-3,7383588,7383860,16499360,16499364
1,sorter,rep3,40,econome-4,9198332,9198492,16949136,16949140
1,sorter,rep3,40,econome-5,7112604,7112628,13481480,13481480
1,sorter,rep3,40,econome-6,6316396,6316492,0,0
1,sorter,rep3,40,econome-7,7640820,7640952,14089856,14089856
1,sorter,rep3,40,econome-8,7641048,7641080,13308844,13308848
1,sorter,rep3,40,econome-9,5527564,5527712,10834728,10834728
1,word-count,ec-RS-6-3-1024k,40,econome-11,2639492,2639492,2649504,2649504
1,word-count,ec-RS-6-3-1024k,40,econome-12,4395460,4395460,4405856,4405856
1,word-count,ec-RS-6-3-1024k,40,econome-13,2639744,2639744,2654564,2654564
1,word-count,ec-RS-6-3-1024k,40,econome-14,2550696,2550696,2564520,2564520
1,word-count,ec-RS-6-3-1024k,40,econome-15,3429096,3429052,3435568,3435568
1,word-count,ec-RS-6-3-1024k,40,econome-16,3429980,3429980,3442980,3442980
1,word-count,ec-RS-6-3-1024k,40,econome-17,2374028,2374028,2384404,2384404
1,word-count,ec-RS-6-3-1024k,40,econome-18,3959192,3959184,3971468,3971468
1,word-count,ec-RS-6-3-1024k,40,econome-19,3165768,3165856,3176836,3176836
1,word-count,ec-RS-6-3-1024k,40,econome-2,3605284,3605268,3618004,3618004
1,word-count,ec-RS-6-3-1024k,40,econome-20,2901684,2901684,2909544,2909544
1,word-count,ec-RS-6-3-1024k,40,econome-21,439768,439768,0,0
1,word-count,ec-RS-6-3-1024k,40,econome-22,3869996,3869960,3882456,3882456
1,word-count,ec-RS-6-3-1024k,40,econome-3,1846140,1846140,1860780,1860780
1,word-count,ec-RS-6-3-1024k,40,econome-4,3078760,3078512,3089876,3089876
1,word-count,ec-RS-6-3-1024k,40,econome-5,3341352,3341164,3349500,3349500
1,word-count,ec-RS-6-3-1024k,40,econome-6,3695320,3695320,3709964,3709964
1,word-count,ec-RS-6-3-1024k,40,econome-7,4397836,4397924,4410744,4410744
1,word-count,ec-RS-6-3-1024k,40,econome-8,3869108,3869108,3878432,3878432
1,word-count,ec-RS-6-3-1024k,40,econome-9,3696748,3696748,3711940,3711940
1,word-count,rep3,40,econome-11,6329512,6329648,6342484,6342484
1,word-count,rep3,40,econome-12,6593692,6593832,6606752,6606752
1,word-count,rep3,40,econome-13,6063616,6063840,6074212,6074212
1,word-count,rep3,40,econome-14,5009740,5009684,5016960,5016960
1,word-count,rep3,40,econome-15,6067560,6067820,6072984,6072984
1,word-count,rep3,40,econome-16,8434068,8434332,8444960,8444960
1,word-count,rep3,40,econome-17,5535224,5534864,5544416,5544416
1,word-count,rep3,40,econome-18,4742084,4742592,4753032,4753032
1,word-count,rep3,40,econome-19,7122128,7122348,7136168,7136168
1,word-count,rep3,40,econome-2,7117592,7117932,7130096,7130096
1,word-count,rep3,40,econome-20,7648576,7648372,7662564,7662564
1,word-count,rep3,40,econome-21,7382204,7382124,0,0
1,word-count,rep3,40,econome-22,6063048,6063264,6076504,6076504
1,word-count,rep3,40,econome-3,5011324,5011224,5019960,5019960
1,word-count,rep3,40,econome-4,7119832,7120032,7126948,7126948
1,word-count,rep3,40,econome-5,5272900,5272980,5280276,5280276
1,word-count,rep3,40,econome-6,5801152,5801252,5812264,5812264
1,word-count,rep3,40,econome-7,4748880,4748900,4759836,4759836
1,word-count,rep3,40,econome-8,6324992,6325508,6341068,6341068
1,word-count,rep3,40,econome-9,8160900,8161020,8177408,8177408
2,sorter,ec-RS-6-3-1024k,40,econome-11,3864912,3864948,7174080,7174080
2,sorter,ec-RS-6-3-1024k,40,econome-12,4747904,4747896,7479312,7479312
2,sorter,ec-RS-6-3-1024k,40,econome-13,2814628,2814584,6320112,6320112
2,sorter,ec-RS-6-3-1024k,40,econome-14,3955320,3955344,7667336,7667336
2,sorter,ec-RS-6-3-1024k,40,econome-15,3864848,3864848,7585008,7585008
2,sorter,ec-RS-6-3-1024k,40,econome-16,3867696,3867696,6814544,6814544
2,sorter,ec-RS-6-3-1024k,40,econome-17,3603788,3603788,6944584,6944584
2,sorter,ec-RS-6-3-1024k,40,econome-18,3074884,3074884,6205880,6205880
2,sorter,ec-RS-6-3-1024k,40,econome-19,3686708,3686708,6814672,6814672
2,sorter,ec-RS-6-3-1024k,40,econome-2,3954392,3954172,7461092,7461096
2,sorter,ec-RS-6-3-1024k,40,econome-20,3163024,3162980,6669840,6669840
2,sorter,ec-RS-6-3-1024k,40,econome-21,3601188,3601188,0,0
2,sorter,ec-RS-6-3-1024k,40,econome-22,3603408,3603408,5562104,5562104
2,sorter,ec-RS-6-3-1024k,40,econome-3,527888,527888,4053976,4053976
2,sorter,ec-RS-6-3-1024k,40,econome-4,2814260,2814260,7094688,7094688
2,sorter,ec-RS-6-3-1024k,40,econome-5,2897132,2896920,5438184,5438184
2,sorter,ec-RS-6-3-1024k,40,econome-6,2900024,2900024,7005272,7005272
2,sorter,ec-RS-6-3-1024k,40,econome-7,264208,264208,3584148,3584148
2,sorter,ec-RS-6-3-1024k,40,econome-8,3954256,3954256,7464076,7464076
2,sorter,ec-RS-6-3-1024k,40,econome-9,2108536,2108536,5616668,5616668
2,sorter,rep3,40,econome-11,8433460,8433500,13602592,13602592
2,sorter,rep3,40,econome-12,6845056,6845000,12748148,12748148
2,sorter,rep3,40,econome-13,7101988,7102156,14076700,14076700
2,sorter,rep3,40,econome-14,4738372,4738284,11270428,11270428
2,sorter,rep3,40,econome-15,7380412,7380484,13570648,13570656
2,sorter,rep3,40,econome-16,5791448,5791704,11185416,11185420
2,sorter,rep3,40,econome-17,6062652,6062816,13744500,13744500
2,sorter,rep3,40,econome-18,6326848,6327360,12198648,12198648
2,sorter,rep3,40,econome-19,6062848,6063012,13130560,13130560
2,sorter,rep3,40,econome-2,4477440,4477516,11131324,11131324
2,sorter,rep3,40,econome-20,7905004,7905208,15939468,15939468
2,sorter,rep3,40,econome-21,6584036,6584300,14585980,14586020
2,sorter,rep3,40,econome-22,5259948,5259700,12335440,12335440
2,sorter,rep3,40,econome-3,6066112,6066296,13494264,13494292
2,sorter,rep3,40,econome-4,6055848,6056548,12400948,12400948
2,sorter,rep3,40,econome-5,6845820,6845780,12704952,12704960
2,sorter,rep3,40,econome-6,6312900,6313004,0,0
2,sorter,rep3,40,econome-7,6834580,6834728,12465548,12465548
2,sorter,rep3,40,econome-8,4470456,4470652,12069224,12069240
2,sorter,rep3,40,econome-9,6845080,6845192,13876148,13876148
2,word-count,ec-RS-6-3-1024k,40,econome-11,3431328,3431416,3447640,3447640
2,word-count,ec-RS-6-3-1024k,40,econome-12,4134728,4134728,4143736,4143736
2,word-count,ec-RS-6-3-1024k,40,econome-13,3430596,3430420,3438232,3438232
2,word-count,ec-RS-6-3-1024k,40,econome-14,3344664,3344424,3354352,3354352
2,word-count,ec-RS-6-3-1024k,40,econome-15,3605708,3605708,3616224,3616224
2,word-count,ec-RS-6-3-1024k,40,econome-16,3869164,3869164,3880664,3880664
2,word-count,ec-RS-6-3-1024k,40,econome-17,2903132,2903132,2920236,2920236
2,word-count,ec-RS-6-3-1024k,40,econome-18,3868424,3868424,3879836,3879836
2,word-count,ec-RS-6-3-1024k,40,econome-19,3871996,3871960,3884272,3884272
2,word-count,ec-RS-6-3-1024k,40,econome-2,2111748,2111748,2120288,2120288
2,word-count,ec-RS-6-3-1024k,40,econome-20,3165252,3165004,0,0
2,word-count,ec-RS-6-3-1024k,40,econome-21,2550132,2550088,2567828,2567828
2,word-count,ec-RS-6-3-1024k,40,econome-22,3164424,3164424,3171212,3171212
2,word-count,ec-RS-6-3-1024k,40,econome-3,2813448,2813448,2823744,2823744
2,word-count,ec-RS-6-3-1024k,40,econome-4,2903136,2903136,2913744,2913744
2,word-count,ec-RS-6-3-1024k,40,econome-5,3958120,3958120,3966696,3966696
2,word-count,ec-RS-6-3-1024k,40,econome-6,3166608,3166600,3176240,3176240
2,word-count,ec-RS-6-3-1024k,40,econome-7,528480,528480,541168,541168
2,word-count,ec-RS-6-3-1024k,40,econome-8,3078080,3078080,3094980,3094980
2,word-count,ec-RS-6-3-1024k,40,econome-9,3426244,3426244,3440848,3440848
2,word-count,rep3,40,econome-11,4749176,4749160,4761172,4761172
2,word-count,rep3,40,econome-12,6320720,6320768,6328668,6328668
2,word-count,rep3,40,econome-13,4482564,4482712,4492288,4492288
2,word-count,rep3,40,econome-14,6857888,6858032,6870820,6870820
2,word-count,rep3,40,econome-15,5801140,5801308,5808708,5808708
2,word-count,rep3,40,econome-16,7384268,7384296,7394852,7394852
2,word-count,rep3,40,econome-17,6331784,6331828,6340540,6340540
2,word-count,rep3,40,econome-18,7652728,7652936,7663816,7663816
2,word-count,rep3,40,econome-19,6589236,6589268,6602168,6602168
2,word-count,rep3,40,econome-2,5528252,5528436,5540184,5540184
2,word-count,rep3,40,econome-20,5543676,5543744,5563244,5563244
2,word-count,rep3,40,econome-21,6334000,6334144,6341336,6341336
2,word-count,rep3,40,econome-22,3694848,3694368,3705564,3705564
2,word-count,rep3,40,econome-3,6848928,6848968,6859960,6859960
2,word-count,rep3,40,econome-4,6322752,6323008,6335524,6335524
2,word-count,rep3,40,econome-5,7915740,7915728,7926536,7926536
2,word-count,rep3,40,econome-6,6318996,6319356,6326384,6326384
2,word-count,rep3,40,econome-7,6316208,6316900,6333940,6333940
2,word-count,rep3,40,econome-8,8169860,8170064,0,0
2,word-count,rep3,40,econome-9,7386292,7386568,7391864,7391864
3,sorter,ec-RS-6-3-1024k,40,econome-11,3602560,3602560,6715284,6715284
3,sorter,ec-RS-6-3-1024k,40,econome-12,2898632,2898560,6218392,6218392
3,sorter,ec-RS-6-3-1024k,40,econome-13,2547212,2547212,6262752,6262752
3,sorter,ec-RS-6-3-1024k,40,econome-14,4216972,4216972,7542708,7542708
3,sorter,ec-RS-6-3-1024k,40,econome-15,2812484,2812272,5920504,5920504
3,sorter,ec-RS-6-3-1024k,40,econome-16,3691240,3691240,6044216,6044216
3,sorter,ec-RS-6-3-1024k,40,econome-17,5010044,5009832,8332504,8332504
3,sorter,ec-RS-6-3-1024k,40,econome-18,1495116,1495116,5598888,5598888
3,sorter,ec-RS-6-3-1024k,40,econome-19,3338396,3338396,7050392,7050392
3,sorter,ec-RS-6-3-1024k,40,econome-2,3428008,3428000,6751596,6751596
3,sorter,ec-RS-6-3-1024k,40,econome-20,3689268,3689268,6028792,6028792
3,sorter,ec-RS-6-3-1024k,40,econome-21,3602800,3602800,6142872,6142872
3,sorter,ec-RS-6-3-1024k,40,econome-22,3690224,3690224,7410868,7410868
3,sorter,ec-RS-6-3-1024k,40,econome-3,3166088,3166088,0,0
3,sorter,ec-RS-6-3-1024k,40,econome-4,1493200,1493200,4435304,4435304
3,sorter,ec-RS-6-3-1024k,40,econome-5,3690492,3690492,7590400,7590400
3,sorter,ec-RS-6-3-1024k,40,econome-6,2635680,2635680,7126724,7126724
3,sorter,ec-RS-6-3-1024k,40,econome-7,264756,264756,3780740,3780740
3,sorter,ec-RS-6-3-1024k,40,econome-8,3865280,3865280,7767184,7767184
3,sorter,ec-RS-6-3-1024k,40,econome-9,4130628,4130628,6671288,6671288
3,sorter,rep3,40,econome-11,8165916,8165996,14450828,14450828
3,sorter,rep3,40,econome-12,7898376,7898548,15865008,15865012
3,sorter,rep3,40,econome-13,7620096,7620152,13531940,13531940
3,sorter,rep3,40,econome-14,7640820,7641020,0,0
3,sorter,rep3,40,econome-15,5530728,5530856,12828812,12828820
3,sorter,rep3,40,econome-16,4467468,4467616,12049144,12049144
3,sorter,rep3,40,econome-17,5537920,5537984,12898576,12898576
3,sorter,rep3,40,econome-18,6858700,6858828,12972616,12972616
3,sorter,rep3,40,econome-19,7376972,7376692,14513500,14513500
3,sorter,rep3,40,econome-2,5784948,5784608,13774588,13774596
3,sorter,rep3,40,econome-20,6848276,6848436,13326892,13326892
3,sorter,rep3,40,econome-21,7119392,7119672,13692220,13692220
3,sorter,rep3,40,econome-22,7905048,7905148,15531056,15531056
3,sorter,rep3,40,econome-3,5530772,5530872,11573748,11573748
3,sorter,rep3,40,econome-4,5537944,5538560,13257564,13257568
3,sorter,rep3,40,econome-5,5514388,5514208,12000368,12000368
3,sorter,rep3,40,econome-6,4480964,4481004,9088788,9088792
3,sorter,rep3,40,econome-7,4470492,4470660,9460716,9460716
3,sorter,rep3,40,econome-8,5530784,5531064,10935220,10935220
3,sorter,rep3,40,econome-9,6580724,6581328,13451328,13451328
3,word-count,ec-RS-6-3-1024k,40,econome-11,3694516,3694124,3706996,3706980
3,word-count,ec-RS-6-3-1024k,40,econome-12,3164656,3164656,3178812,3178812
3,word-count,ec-RS-6-3-1024k,40,econome-13,3077696,3077696,0,0
3,word-count,ec-RS-6-3-1024k,40,econome-14,3165776,3165812,3176384,3176384
3,word-count,ec-RS-6-3-1024k,40,econome-15,2550200,2549980,2555056,2555056
3,word-count,ec-RS-6-3-1024k,40,econome-16,3165396,3165396,3177484,3177484
3,word-count,ec-RS-6-3-1024k,40,econome-17,2639076,2639068,2650544,2650544
3,word-count,ec-RS-6-3-1024k,40,econome-18,3870864,3870864,3878740,3878740
3,word-count,ec-RS-6-3-1024k,40,econome-19,3166544,3166588,3176380,3176380
3,word-count,ec-RS-6-3-1024k,40,econome-2,3695020,3695020,3709600,3709592
3,word-count,ec-RS-6-3-1024k,40,econome-20,4663672,4663672,4677380,4677380
3,word-count,ec-RS-6-3-1024k,40,econome-21,3165784,3165748,3179268,3179252
3,word-count,ec-RS-6-3-1024k,40,econome-22,2021948,2021948,2034296,2034296
3,word-count,ec-RS-6-3-1024k,40,econome-3,791680,791680,803680,803680
3,word-count,ec-RS-6-3-1024k,40,econome-4,3169496,3169496,3180536,3180536
3,word-count,ec-RS-6-3-1024k,40,econome-5,3344996,3344996,3361916,3361916
3,word-count,ec-RS-6-3-1024k,40,econome-6,3604712,3604712,3614220,3614220
3,word-count,ec-RS-6-3-1024k,40,econome-7,3429720,3429720,3439976,3439976
3,word-count,ec-RS-6-3-1024k,40,econome-8,3341708,3341708,3354616,3354616
3,word-count,ec-RS-6-3-1024k,40,econome-9,3602128,3602128,3613480,3613480
3,word-count,rep3,40,econome-11,7386328,7386620,7404564,7404564
3,word-count,rep3,40,econome-12,5539532,5539748,5549280,5549280
3,word-count,rep3,40,econome-13,6060796,6061132,6072040,6072040
3,word-count,rep3,40,econome-14,4746572,4746780,4753408,4753408
3,word-count,rep3,40,econome-15,6848880,6849156,6862880,6862880
3,word-count,rep3,40,econome-16,6858092,6858616,6866704,6866704
3,word-count,rep3,40,econome-17,7117580,7118172,0,0
3,word-count,rep3,40,econome-18,6320740,6320764,6332476,6332476
3,word-count,rep3,40,econome-19,6327596,6327320,6339072,6339072
3,word-count,rep3,40,econome-2,4744844,4744924,4751424,4751424
3,word-count,rep3,40,econome-20,5010956,5011100,5015384,5015384
3,word-count,rep3,40,econome-21,7123144,7123068,7135236,7135236
3,word-count,rep3,40,econome-22,4480168,4480212,4490952,4490952
3,word-count,rep3,40,econome-3,6591476,6591588,6602972,6602972
3,word-count,rep3,40,econome-4,7375068,7375224,7386208,7386208
3,word-count,rep3,40,econome-5,5272936,5272852,5282428,5282428
3,word-count,rep3,40,econome-6,7648652,7648520,7662084,7662084
3,word-count,rep3,40,econome-7,7117932,7117656,7127684,7127684
3,word-count,rep3,40,econome-8,7122140,7122228,7135408,7135408
3,word-count,rep3,40,econome-9,6855636,6855920,6869660,6869660
4,sorter,ec-RS-6-3-1024k,40,econome-11,3957336,3957396,6898216,6898216
4,sorter,ec-RS-6-3-1024k,40,econome-12,3598800,3598800,7901588,7901588
4,sorter,ec-RS-6-3-1024k,40,econome-13,2372472,2372472,6094256,6094256
4,sorter,ec-RS-6-3-1024k,40,econome-14,3076768,3076768,6400568,6400568
4,sorter,ec-RS-6-3-1024k,40,econome-15,3425556,3425344,6924656,6924656
4,sorter,ec-RS-6-3-1024k,40,econome-16,3691520,3691556,6618428,6618428
4,sorter,ec-RS-6-3-1024k,40,econome-17,3426092,3426092,7529368,7529368
4,sorter,ec-RS-6-3-1024k,40,econome-18,3607280,3607280,7324036,7324036
4,sorter,ec-RS-6-3-1024k,40,econome-19,967080,967080,3895176,3895176
4,sorter,ec-RS-6-3-1024k,40,econome-2,2900892,2900884,6397264,6397264
4,sorter,ec-RS-6-3-1024k,40,econome-20,3076444,3076196,6411468,6411468
4,sorter,ec-RS-6-3-1024k,40,econome-21,3690660,3690660,0,0
4,sorter,ec-RS-6-3-1024k,40,econome-22,3424232,3424232,7534908,7534908
4,sorter,ec-RS-6-3-1024k,40,econome-3,3688628,3688628,6415020,6415020
4,sorter,ec-RS-6-3-1024k,40,econome-4,2373524,2373584,5677784,5677784
4,sorter,ec-RS-6-3-1024k,40,econome-5,3600956,3601016,6534012,6534012
4,sorter,ec-RS-6-3-1024k,40,econome-6,3341848,3341848,6460912,6460912
4,sorter,ec-RS-6-3-1024k,40,econome-7,2635608,2635608,5968040,5968040
4,sorter,ec-RS-6-3-1024k,40,econome-8,3339064,3339064,5875984,5875984
4,sorter,ec-RS-6-3-1024k,40,econome-9,3073996,3073968,6004512,6004512
4,sorter,rep3,40,econome-11,5530740,5531004,12835448,12835448
4,sorter,rep3,40,econome-12,5795432,5795376,11934812,11934812
4,sorter,rep3,40,econome-13,7112416,7112556,14132120,14132120
4,sorter,rep3,40,econome-14,6319840,6320040,12982412,12982412
4,sorter,rep3,40,econome-15,4738188,4738276,11369460,11369468
4,sorter,rep3,40,econome-16,6067172,6067152,11412380,11412380
4,sorter,rep3,40,econome-17,6855240,6855280,16317388,16317396
4,sorter,rep3,40,econome-18,7108964,7109332,13488680,13488680
4,sorter,rep3,40,econome-19,5267208,5266988,9985692,9985692
4,sorter,rep3,40,econome-2,5273712,5273788,11377632,11377632
4,sorter,rep3,40,econome-20,6323512,6323468,0,0
4,sorter,rep3,40,econome-21,6584264,6584568,12752656,12752656
4,sorter,rep3,40,econome-22,7112436,7112508,13465200,13465200
4,sorter,rep3,40,econome-3,6055644,6055836,13071256,13071256
4,sorter,rep3,40,econome-4,4988812,4988724,10660584,10660584
4,sorter,rep3,40,econome-5,6062848,6063328,12780172,12780172
4,sorter,rep3,40,econome-6,8687492,8687284,16311920,16311928
4,sorter,rep3,40,econome-7,7901564,7902052,15771732,15771732
4,sorter,rep3,40,econome-8,6048664,6048860,12355344,12355344
4,sorter,rep3,40,econome-9,6566584,6566860,13515384,13515384
4,word-count,ec-RS-6-3-1024k,40,econome-11,3429192,3429012,3439668,3439668
4,word-count,ec-RS-6-3-1024k,40,econome-12,2637896,2637684,2649892,2649892
4,word-count,ec-RS-6-3-1024k,40,econome-13,3694004,3693960,3707436,3707436
4,word-count,ec-RS-6-3-1024k,40,econome-14,1847552,1847508,1860344,1860344
4,word-count,ec-RS-6-3-1024k,40,econome-15,3343168,3343168,3353228,3353228
4,word-count,ec-RS-6-3-1024k,40,econome-16,3958944,3958944,3973708,3973708
4,word-count,ec-RS-6-3-1024k,40,econome-17,3869188,3869180,3877724,3877724
4,word-count,ec-RS-6-3-1024k,40,econome-18,2375452,2375388,2389556,2389556
4,word-count,ec-RS-6-3-1024k,40,econome-19,3956452,3956452,3965616,3965616
4,word-count,ec-RS-6-3-1024k,40,econome-2,4395484,4395448,0,0
4,word-count,ec-RS-6-3-1024k,40,econome-20,2639024,2638988,2651144,2651144
4,word-count,ec-RS-6-3-1024k,40,econome-21,2904116,2904116,2917104,2917104
4,word-count,ec-RS-6-3-1024k,40,econome-22,2549344,2549336,2559672,2559672
4,word-count,ec-RS-6-3-1024k,40,econome-3,3606872,3606872,3619500,3619500
4,word-count,ec-RS-6-3-1024k,40,econome-4,2813004,2813004,2821792,2821792
4,word-count,ec-RS-6-3-1024k,40,econome-5,4661600,4661600,4674476,4674476
4,word-count,ec-RS-6-3-1024k,40,econome-6,527720,527704,539228,539228
4,word-count,ec-RS-6-3-1024k,40,econome-7,4397116,4397116,4410820,4410820
4,word-count,ec-RS-6-3-1024k,40,econome-8,2023884,2023884,2032960,2032960
4,word-count,ec-RS-6-3-1024k,40,econome-9,3695692,3695692,3707780,3707780
4,word-count,rep3,40,econome-11,5798852,5799128,5806176,5806176
4,word-count,rep3,40,econome-12,7386640,7386484,7394240,7394240
4,word-count,rep3,40,econome-13,6063092,6063384,6078264,6078264
4,word-count,rep3,40,econome-14,6063048,6063200,6071732,6071732
4,word-count,rep3,40,econome-15,6596296,6596148,6608032,6608032
4,word-count,rep3,40,econome-16,8707780,8707784,8718392,8718392
4,word-count,rep3,40,econome-17,5803364,5803492,5815244,5815244
4,word-count,rep3,40,econome-18,7377524,7377924,7384172,7384172
4,word-count,rep3,40,econome-19,5801140,5801180,5820972,5820972
4,word-count,rep3,40,econome-2,4220664,4220652,4236968,4236968
4,word-count,rep3,40,econome-20,7381788,7381988,0,0
4,word-count,rep3,40,econome-21,5803368,5803504,5817004,5817004
4,word-count,rep3,40,econome-22,6580192,6580392,6584428,6584428
4,word-count,rep3,40,econome-3,4740244,4740544,4751348,4751348
4,word-count,rep3,40,econome-4,8707484,8707552,8714656,8714656
4,word-count,rep3,40,econome-5,7113124,7113292,7119884,7119884
4,word-count,rep3,40,econome-6,7117628,7117796,7132236,7132236
4,word-count,rep3,40,econome-7,6593740,6593900,6606580,6606580
4,word-count,rep3,40,econome-8,3166392,3166608,3180076,3180076
4,word-count,rep3,40,econome-9,5526696,5526636,5531576,5531576
5,sorter,ec-RS-6-3-1024k,40,econome-11,4743916,4743880,9051184,9051184
5,sorter,ec-RS-6-3-1024k,40,econome-12,2898088,2898044,7592036,7592036
5,sorter,ec-RS-6-3-1024k,40,econome-13,2898736,2898736,6216032,6216032
5,sorter,ec-RS-6-3-1024k,40,econome-14,4394592,4394592,7917352,7917352
5,sorter,ec-RS-6-3-1024k,40,econome-15,2899220,2899220,6417272,6417272
5,sorter,ec-RS-6-3-1024k,40,econome-16,4130940,4130940,8427944,8427944
5,sorter,ec-RS-6-3-1024k,40,econome-17,4392848,4392848,7518140,7518140
5,sorter,ec-RS-6-3-1024k,40,econome-18,2638860,2638640,5752860,5752860
5,sorter,ec-RS-6-3-1024k,40,econome-19,2108364,2108364,5238780,5238780
5,sorter,ec-RS-6-3-1024k,40,econome-2,2813656,2813444,6919276,6919276
5,sorter,ec-RS-6-3-1024k,40,econome-20,3340796,3340796,5699180,5699180
5,sorter,ec-RS-6-3-1024k,40,econome-21,2019428,2019428,4748012,4748012
5,sorter,ec-RS-6-3-1024k,40,econome-22,4391980,4391928,6327220,6327220
5,sorter,ec-RS-6-3-1024k,40,econome-3,2813120,2813120,0,0
5,sorter,ec-RS-6-3-1024k,40,econome-4,2899828,2899828,6423328,6423328
5,sorter,ec-RS-6-3-1024k,40,econome-5,3429092,3428888,6547684,6547684
5,sorter,ec-RS-6-3-1024k,40,econome-6,3691592,3691592,6625068,6625068
5,sorter,ec-RS-6-3-1024k,40,econome-7,2901024,2901016,6208768,6208768
5,sorter,ec-RS-6-3-1024k,40,econome-8,528692,528692,3470436,3470436
5,sorter,ec-RS-6-3-1024k,40,econome-9,3334552,3334552,6643640,6643640
5,sorter,rep3,40,econome-11,6055632,6055840,12932968,12932968
5,sorter,rep3,40,econome-12,5784472,5784660,12430508,12430508
5,sorter,rep3,40,econome-13,5527240,5527512,13242752,13242752
5,sorter,rep3,40,econome-14,8433396,8433604,13843180,13843180
5,sorter,rep3,40,econome-15,6323676,6323512,14293708,14293720
5,sorter,rep3,40,econome-16,6062964,6062824,12115204,12115204
5,sorter,rep3,40,econome-17,6319876,6319904,14041672,14041676
5,sorter,rep3,40,econome-18,7630692,7630732,0,0
5,sorter,rep3,40,econome-19,6848612,6848492,12082832,12082832
5,sorter,rep3,40,econome-2,4999544,4999892,11527440,11527440
5,sorter,rep3,40,econome-20,6323324,6323648,12929820,12929820
5,sorter,rep3,40,econome-21,7105848,7105864,14086384,14086384
5,sorter,rep3,40,econome-22,7112452,7112564,12399764,12399764
5,sorter,rep3,40,econome-3,6312872,6313564,15000188,15000204
5,sorter,rep3,40,econome-4,8162272,8162432,13607168,13607168
5,sorter,rep3,40,econome-5,4220464,4220288,10395612,10395612
5,sorter,rep3,40,econome-6,4477496,4477644,11643020,11643020
5,sorter,rep3,40,econome-7,4748604,4748680,11107296,11107296
5,sorter,rep3,40,econome-8,7105496,7105648,13975024,13975024
5,sorter,rep3,40,econome-9,6845808,6845920,13558516,13558520
5,word-count,ec-RS-6-3-1024k,40,econome-11,3076860,3076688,3091024,3091024
5,word-count,ec-RS-6-3-1024k,40,econome-12,3345912,3345876,3354952,3354952
5,word-count,ec-RS-6-3-1024k,40,econome-13,264320,264356,272364,272364
5,word-count,ec-RS-6-3-1024k,40,econome-14,3166492,3166428,3177840,3177840
5,word-count,ec-RS-6-3-1024k,40,econome-15,3080604,3080356,3095036,3095036
5,word-count,ec-RS-6-3-1024k,40,econome-16,3871104,3871104,3882792,3882792
5,word-count,ec-RS-6-3-1024k,40,econome-17,3337492,3337492,3353308,3353308
5,word-count,ec-RS-6-3-1024k,40,econome-18,2902944,2902944,0,0
5,word-count,ec-RS-6-3-1024k,40,econome-19,3870280,3870280,3883056,3883056
5,word-count,ec-RS-6-3-1024k,40,econome-2,4133476,4133424,4143452,4143452
5,word-count,ec-RS-6-3-1024k,40,econome-20,3430660,3430660,3443168,3443168
5,word-count,ec-RS-6-3-1024k,40,econome-21,3431992,3432052,3439580,3439580
5,word-count,ec-RS-6-3-1024k,40,econome-22,4483460,4483460,4498356,4498356
5,word-count,ec-RS-6-3-1024k,40,econome-3,3166920,3166920,3182464,3182464
5,word-count,ec-RS-6-3-1024k,40,econome-4,2641608,2641608,2654948,2654948
5,word-count,ec-RS-6-3-1024k,40,econome-5,3870444,3870444,3878504,3878504
5,word-count,ec-RS-6-3-1024k,40,econome-6,3164872,3164836,3173584,3173584
5,word-count,ec-RS-6-3-1024k,40,econome-7,1846520,1846520,1853728,1853728
5,word-count,ec-RS-6-3-1024k,40,econome-8,2899996,2899996,2912716,2912716
5,word-count,ec-RS-6-3-1024k,40,econome-9,3339444,3339444,3351624,3351624
5,word-count,rep3,40,econome-11,7119840,7119988,7133648,7133648
5,word-count,rep3,40,econome-12,6070168,6069880,6080904,6080904
5,word-count,rep3,40,econome-13,7120080,7120128,7131372,7131372
5,word-count,rep3,40,econome-14,5270472,5270736,5278720,5278720
5,word-count,rep3,40,econome-15,6584720,6584888,6597552,6597552
5,word-count,rep3,40,econome-16,5010776,5011296,5020968,5020968
5,word-count,rep3,40,econome-17,8705064,8705284,8713864,8713864
5,word-count,rep3,40,econome-18,7379560,7379668,7389528,7389528
5,word-count,rep3,40,econome-19,6594740,6594688,6605224,6605224
5,word-count,rep3,40,econome-2,5796932,5796704,5809868,5809868
5,word-count,rep3,40,econome-20,6853420,6854040,6868832,6868832
5,word-count,rep3,40,econome-21,4749268,4749232,0,0
5,word-count,rep3,40,econome-22,6065516,6065508,6073480,6073480
5,word-count,rep3,40,econome-3,5534868,5534804,5544172,5544172
5,word-count,rep3,40,econome-4,6327244,6327320,6336612,6336612
5,word-count,rep3,40,econome-5,6327784,6327764,6341552,6341552
5,word-count,rep3,40,econome-6,6322928,6322964,6334640,6334640
5,word-count,rep3,40,econome-7,6327300,6327512,6337912,6337912
5,word-count,rep3,40,econome-8,6853712,6854036,6866996,6866996
5,word-count,rep3,40,econome-9,5534668,5535188,5539904,5539904
6,sorter,ec-RS-6-3-1024k,40,econome-11,3426120,3426208,7339172,7339172
6,sorter,ec-RS-6-3-1024k,40,econome-12,3339960,3339924,6475632,6475632
6,sorter,ec-RS-6-3-1024k,40,econome-13,3074576,3074576,7186644,7186644
6,sorter,ec-RS-6-3-1024k,40,econome-14,3952548,3952540,7471292,7471292
6,sorter,ec-RS-6-3-1024k,40,econome-15,3607296,3607384,6937044,6937044
6,sorter,ec-RS-6-3-1024k,40,econome-16,3161040,3161040,6487472,6487472
6,sorter,ec-RS-6-3-1024k,40,econome-17,4129568,4129568,7251484,7251484
6,sorter,ec-RS-6-3-1024k,40,econome-18,3427404,3427404,7132200,7132200
6,sorter,ec-RS-6-3-1024k,40,econome-19,4217684,4217632,6953248,6953248
6,sorter,ec-RS-6-3-1024k,40,econome-2,3604440,3604440,6921064,6921064
6,sorter,ec-RS-6-3-1024k,40,econome-20,2901880,2901880,5437324,5437324
6,sorter,ec-RS-6-3-1024k,40,econome-21,3428936,3428716,7732616,7732616
6,sorter,ec-RS-6-3-1024k,40,econome-22,3690152,3690152,0,0
6,sorter,ec-RS-6-3-1024k,40,econome-3,1756500,1756492,5269528,5269528
6,sorter,ec-RS-6-3-1024k,40,econome-4,704936,704724,4600976,4600980
6,sorter,ec-RS-6-3-1024k,40,econome-5,4389360,4389316,7314188,7314188
6,sorter,ec-RS-6-3-1024k,40,econome-6,3864804,3864804,6581796,6581796
6,sorter,ec-RS-6-3-1024k,40,econome-7,2899784,2899776,5627048,5627048
6,sorter,ec-RS-6-3-1024k,40,econome-8,528808,528692,3666036,3666036
6,sorter,ec-RS-6-3-1024k,40,econome-9,3163320,3163320,6482012,6482012
6,sorter,rep3,40,econome-11,6845308,6845336,14393548,14393556
6,sorter,rep3,40,econome-12,6323380,6323660,14230660,14230668
6,sorter,rep3,40,econome-13,6323516,6323472,0,0
6,sorter,rep3,40,econome-14,7109252,7109524,13635604,13635608
6,sorter,rep3,40,econome-15,6059124,6059384,12564640,12564640
6,sorter,rep3,40,econome-16,6848588,6848680,12570304,12570308
6,sorter,rep3,40,econome-17,6845084,6845452,13382288,13382292
6,sorter,rep3,40,econome-18,7634052,7634108,15674684,15674732
6,sorter,rep3,40,econome-19,5534420,5534492,11776540,11776548
6,sorter,rep3,40,econome-2,7098488,7098748,12865160,12865160
6,sorter,rep3,40,econome-20,6062820,6062812,13943208,13943220
6,sorter,rep3,40,econome-21,6048712,6048800,13008932,13008936
6,sorter,rep3,40,econome-22,7637332,7637592,12919540,12919544
6,sorter,rep3,40,econome-3,6316600,6316484,12092588,12092592
6,sorter,rep3,40,econome-4,6848268,6848488,14033840,14033844
6,sorter,rep3,40,econome-5,5005860,5006020,11532244,11532252
6,sorter,rep3,40,econome-6,5002512,5002416,12598892,12598900
6,sorter,rep3,40,econome-7,5271108,5271068,10220872,10220872
6,sorter,rep3,40,econome-8,5530728,5530928,12190716,12190720
6,sorter,rep3,40,econome-9,6055644,6055784,12885448,12885448
6,word-count,ec-RS-6-3-1024k,40,econome-11,3693376,3693376,3703340,3703340
6,word-count,ec-RS-6-3-1024k,40,econome-12,2638240,2638204,2649408,2649408
6,word-count,ec-RS-6-3-1024k,40,econome-13,1055724,1055724,0,0
6,word-count,ec-RS-6-3-1024k,40,econome-14,3429640,3429640,3442808,3442808
6,word-count,ec-RS-6-3-1024k,40,econome-15,2636720,2636720,2644332,2644332
6,word-count,ec-RS-6-3-1024k,40,econome-16,4489156,4489156,4502408,4502408
6,word-count,ec-RS-6-3-1024k,40,econome-17,3165088,3165088,3177356,3177356
6,word-count,ec-RS-6-3-1024k,40,econome-18,2374580,2374388,2383332,2383332
6,word-count,ec-RS-6-3-1024k,40,econome-19,3341600,3341556,3350388,3350388
6,word-count,ec-RS-6-3-1024k,40,econome-2,4135104,4135096,4148604,4148604
6,word-count,ec-RS-6-3-1024k,40,econome-20,3959228,3959192,3973324,3973324
6,word-count,ec-RS-6-3-1024k,40,econome-21,3606508,3606508,3618544,3618544
6,word-count,ec-RS-6-3-1024k,40,econome-22,4394256,4394256,4406236,4406236
6,word-count,ec-RS-6-3-1024k,40,econome-3,2638324,2638324,2647604,2647604
6,word-count,ec-RS-6-3-1024k,40,econome-4,3080288,3080288,3091796,3091796
6,word-count,ec-RS-6-3-1024k,40,econome-5,4663304,4663304,4674232,4674232
6,word-count,ec-RS-6-3-1024k,40,econome-6,2901112,2901112,2912592,2912592
6,word-count,ec-RS-6-3-1024k,40,econome-7,1496272,1495996,1507220,1507220
6,word-count,ec-RS-6-3-1024k,40,econome-8,2549524,2549524,2567924,2567924
6,word-count,ec-RS-6-3-1024k,40,econome-9,3077500,3077500,3091028,3091028
6,word-count,rep3,40,econome-11,5006496,5006420,5018532,5018532
6,word-count,rep3,40,econome-12,6851180,6851336,6860452,6860452
6,word-count,rep3,40,econome-13,6858140,6858100,6868140,6868140
6,word-count,rep3,40,econome-14,5536908,5536996,5550752,5550752
6,word-count,rep3,40,econome-15,8174400,8174504,8184452,8184452
6,word-count,rep3,40,econome-16,5805960,5806236,0,0
6,word-count,rep3,40,econome-17,6589392,6589476,6605016,6605016
6,word-count,rep3,40,econome-18,6591628,6591780,6602756,6602756
6,word-count,rep3,40,econome-19,6858140,6858172,6870196,6870196
6,word-count,rep3,40,econome-2,6065312,6065708,6076552,6076552
6,word-count,rep3,40,econome-20,5803368,5803436,5810952,5810952
6,word-count,rep3,40,econome-21,8436660,8436520,8448616,8448616
6,word-count,rep3,40,econome-22,6592508,6592532,6602076,6602076
6,word-count,rep3,40,econome-3,6591800,6592328,6600776,6600776
6,word-count,rep3,40,econome-4,5008564,5008716,5018140,5018140
6,word-count,rep3,40,econome-5,5009036,5009156,5016792,5016792
6,word-count,rep3,40,econome-6,5794348,5794628,5811324,5811324
6,word-count,rep3,40,econome-7,7372780,7372908,7387272,7387272
6,word-count,rep3,40,econome-8,5799036,5798936,5802488,5802488
6,word-count,rep3,40,econome-9,5803404,5803628,5814596,5814596
7,sorter,ec-RS-6-3-1024k,40,econome-11,3865288,3865040,6230052,6230052
7,sorter,ec-RS-6-3-1024k,40,econome-12,3339248,3339248,7420752,7420752
7,sorter,ec-RS-6-3-1024k,40,econome-13,4656416,4656204,0,0
7,sorter,ec-RS-6-3-1024k,40,econome-14,528704,528764,4059704,4059704
7,sorter,ec-RS-6-3-1024k,40,econome-15,5009052,5009044,8336724,8336724
7,sorter,ec-RS-6-3-1024k,40,econome-16,1582120,1582048,5664940,5664940
7,sorter,ec-RS-6-3-1024k,40,econome-17,2020532,2020532,6126624,6126624
7,sorter,ec-RS-6-3-1024k,40,econome-18,3074308,3074308,5807164,5807164
7,sorter,ec-RS-6-3-1024k,40,econome-19,2637076,2637076,5562228,5562228
7,sorter,ec-RS-6-3-1024k,40,econome-2,3169064,3169064,6086224,6086224
7,sorter,ec-RS-6-3-1024k,40,econome-20,3600596,3600596,7508772,7508772
7,sorter,ec-RS-6-3-1024k,40,econome-21,703464,703464,3430288,3430288
7,sorter,ec-RS-6-3-1024k,40,econome-22,3691148,3691148,7603648,7603648
7,sorter,ec-RS-6-3-1024k,40,econome-3,3338560,3338552,7241424,7241424
7,sorter,ec-RS-6-3-1024k,40,econome-4,3688524,3688320,5836468,5836468
7,sorter,ec-RS-6-3-1024k,40,econome-5,4481620,4481620,8188676,8188676
7,sorter,ec-RS-6-3-1024k,40,econome-6,3954740,3954704,7087724,7087724
7,sorter,ec-RS-6-3-1024k,40,econome-7,3866916,3866916,7790132,7790132
7,sorter,ec-RS-6-3-1024k,40,econome-8,3165056,3165056,6095884,6095884
7,sorter,ec-RS-6-3-1024k,40,econome-9,2896920,2896920,5823788,5823788
7,sorter,rep3,40,econome-11,7637320,7637592,15406704,15406728
7,sorter,rep3,40,econome-12,7105476,7105648,13448256,13448272
7,sorter,rep3,40,econome-13,5273520,5273708,10411556,10411556
7,sorter,rep3,40,econome-14,6059132,6059268,12721568,12721568
7,sorter,rep3,40,econome-15,5794972,5795256,13089304,13089308
7,sorter,rep3,40,econome-16,7373136,7373392,12850348,12850348
7,sorter,rep3,40,econome-17,9754872,9754592,15379464,15379464
7,sorter,rep3,40,econome-18,5527252,5527448,12170320,12170320
7,sorter,rep3,40,econome-19,6041992,6042204,14087636,14087672
7,sorter,rep3,40,econome-2,4992096,4992088,0,0
7,sorter,rep3,40,econome-20,5534236,5534424,13196500,13196528
7,sorter,rep3,40,econome-21,4999036,4999248,12313872,12313872
7,sorter,rep3,40,econome-22,5531088,5531184,12551068,12551068
7,sorter,rep3,40,econome-3,8165976,8166456,15638268,15638296
7,sorter,rep3,40,econome-4,8169560,8169732,14144324,14144324
7,sorter,rep3,40,econome-5,6048860,6048732,12491720,12491720
7,sorter,rep3,40,econome-6,4473980,4474028,11172176,11172180
7,sorter,rep3,40,econome-7,5274584,5274556,11814572,11814572
7,sorter,rep3,40,econome-8,6052588,6052488,12486824,12486824
7,sorter,rep3,40,econome-9,6591044,6591224,12477232,12477232
7,word-count,ec-RS-6-3-1024k,40,econome-11,3167240,3167204,3180472,3180472
7,word-count,ec-RS-6-3-1024k,40,econome-12,3693972,3694032,3710692,3710692
7,word-count,ec-RS-6-3-1024k,40,econome-13,2814116,2814176,2824884,2824884
7,word-count,ec-RS-6-3-1024k,40,econome-14,2639812,2639812,2653220,2653220
7,word-count,ec-RS-6-3-1024k,40,econome-15,3078708,3078664,3088652,3088652
7,word-count,ec-RS-6-3-1024k,40,econome-16,2814284,2814380,2825268,2825268
7,word-count,ec-RS-6-3-1024k,40,econome-17,4133612,4133604,4144392,4144392
7,word-count,ec-RS-6-3-1024k,40,econome-18,3429532,3429524,3443868,3443868
7,word-count,ec-RS-6-3-1024k,40,econome-19,4396700,4396700,4407880,4407880
7,word-count,ec-RS-6-3-1024k,40,econome-2,3077492,3077492,3082748,3082748
7,word-count,ec-RS-6-3-1024k,40,econome-20,4131612,4131400,4140992,4140992
7,word-count,ec-RS-6-3-1024k,40,econome-21,5012620,5012576,5024292,5024292
7,word-count,ec-RS-6-3-1024k,40,econome-22,1847636,1847636,1856248,1856248
7,word-count,ec-RS-6-3-1024k,40,econome-3,3340868,3340868,3353448,3353448
7,word-count,ec-RS-6-3-1024k,40,econome-4,527532,527488,542380,542380
7,word-count,ec-RS-6-3-1024k,40,econome-5,4398864,4398644,4410296,4410296
7,word-count,ec-RS-6-3-1024k,40,econome-6,3957940,3957940,0,0
7,word-count,ec-RS-6-3-1024k,40,econome-7,264384,264384,275508,275508
7,word-count,ec-RS-6-3-1024k,40,econome-8,2903416,2903416,2920940,2920940
7,word-count,ec-RS-6-3-1024k,40,econome-9,3695004,3694960,3703236,3703236
7,word-count,rep3,40,econome-11,6853840,6853868,6867852,6867852
7,word-count,rep3,40,econome-12,6855820,6855720,6866988,6866988
7,word-count,rep3,40,econome-13,7117580,7117856,7124308,7124308
7,word-count,rep3,40,econome-14,6851144,6851348,6860880,6860880
7,word-count,rep3,40,econome-15,7906156,7905876,7915916,7915916
7,word-count,rep3,40,econome-16,5004056,5004352,5013660,5013660
7,word-count,rep3,40,econome-17,6851448,6851532,6867372,6867372
7,word-count,rep3,40,econome-18,7388748,7388880,7398844,7398844
7,word-count,rep3,40,econome-19,6325048,6325208,6339012,6339012
7,word-count,rep3,40,econome-2,5013032,5013240,5026260,5026260
7,word-count,rep3,40,econome-20,5796612,5796816,0,0
7,word-count,rep3,40,econome-21,6330580,6330600,6337068,6337068
7,word-count,rep3,40,econome-22,6858240,6857980,6870452,6870452
7,word-count,rep3,40,econome-3,5534692,5535120,5542916,5542916
7,word-count,rep3,40,econome-4,5794568,5794616,5805852,5805852
7,word-count,rep3,40,econome-5,5539420,5539432,5553736,5553736
7,word-count,rep3,40,econome-6,5539172,5539240,5545828,5545828
7,word-count,rep3,40,econome-7,4751088,4751152,4765168,4765168
7,word-count,rep3,40,econome-8,6594044,6594596,6604288,6604288
7,word-count,rep3,40,econome-9,7643768,7644192,7657580,7657580
8,sorter,ec-RS-6-3-1024k,40,econome-11,4922236,4922288,8847908,8847908
8,sorter,ec-RS-6-3-1024k,40,econome-12,2811076,2811076,6527108,6527108
8,sorter,ec-RS-6-3-1024k,40,econome-13,3955524,3955524,0,0
8,sorter,ec-RS-6-3-1024k,40,econome-14,264336,264336,4181912,4181912
8,sorter,ec-RS-6-3-1024k,40,econome-15,4127656,4127656,8020492,8020492
8,sorter,ec-RS-6-3-1024k,40,econome-16,4215828,4215828,7924872,7924872
8,sorter,ec-RS-6-3-1024k,40,econome-17,2638084,2638084,5969688,5969688
8,sorter,ec-RS-6-3-1024k,40,econome-18,3953456,3953448,7469136,7469136
8,sorter,ec-RS-6-3-1024k,40,econome-19,3691132,3691124,6424356,6424356
8,sorter,ec-RS-6-3-1024k,40,econome-2,2637892,2637892,7316060,7316060
8,sorter,ec-RS-6-3-1024k,40,econome-20,3339204,3339020,7239032,7239032
8,sorter,ec-RS-6-3-1024k,40,econome-21,3866028,3865992,6408256,6408256
8,sorter,ec-RS-6-3-1024k,40,econome-22,440560,440368,3577924,3577924
8,sorter,ec-RS-6-3-1024k,40,econome-3,4214836,4214836,6939524,6939524
8,sorter,ec-RS-6-3-1024k,40,econome-4,2375360,2375296,4916872,4916872
8,sorter,ec-RS-6-3-1024k,40,econome-5,3953444,3953444,8055448,8055448
8,sorter,ec-RS-6-3-1024k,40,econome-6,1757284,1757284,4884332,4884332
8,sorter,ec-RS-6-3-1024k,40,econome-7,3337544,3337544,6244892,6244892
8,sorter,ec-RS-6-3-1024k,40,econome-8,3601648,3601604,6535408,6535408
8,sorter,ec-RS-6-3-1024k,40,econome-9,3165984,3165984,5118092,5118092
8,sorter,rep3,40,econome-11,7098680,7098936,12720940,12720940
8,sorter,rep3,40,econome-12,4467192,4467172,11793772,11793780
8,sorter,rep3,40,econome-13,6584036,6584168,12457784,12457784
8,sorter,rep3,40,econome-14,5801948,5802108,12284872,12284872
8,sorter,rep3,40,econome-15,6062644,6062748,14208684,14208688
8,sorter,rep3,40,econome-16,7112628,7113136,13940080,13940080
8,sorter,rep3,40,econome-17,6841280,6841384,13670896,13670888
8,sorter,rep3,40,econome-18,5534564,5534488,12804920,12804920
8,sorter,rep3,40,econome-19,6059480,6059320,12586944,12586936
8,sorter,rep3,40,econome-2,6062824,6062896,13880604,13880608
8,sorter,rep3,40,econome-20,6573596,6573700,12018892,12018892
8,sorter,rep3,40,econome-21,5777708,5777820,0,0
8,sorter,rep3,40,econome-22,6059140,6059200,12390084,12390084
8,sorter,rep3,40,econome-3,6055812,6055840,12382104,12382104
8,sorter,rep3,40,econome-4,5801936,5802040,11112500,11112500
8,sorter,rep3,40,econome-5,6056684,6056656,13480576,13480576
8,sorter,rep3,40,econome-6,5802248,5802856,12394684,12394684
8,sorter,rep3,40,econome-7,7637384,7637528,13345376,13345376
8,sorter,rep3,40,econome-8,7634352,7634352,14861956,14861968
8,sorter,rep3,40,econome-9,7376624,7376828,14730544,14730548
8,word-count,ec-RS-6-3-1024k,40,econome-11,3694708,3694768,3709860,3709860
8,word-count,ec-RS-6-3-1024k,40,econome-12,704276,704276,712152,712152
8,word-count,ec-RS-6-3-1024k,40,econome-13,2814148,2814148,2830032,2830032
8,word-count,ec-RS-6-3-1024k,40,econome-14,3163516,3163508,3175312,3175312
8,word-count,ec-RS-6-3-1024k,40,econome-15,3077548,3077608,3089024,3089024
8,word-count,ec-RS-6-3-1024k,40,econome-16,4218808,4218800,4233112,4233112
8,word-count,ec-RS-6-3-1024k,40,econome-17,3959156,3959156,3971588,3971588
8,word-count,ec-RS-6-3-1024k,40,econome-18,3341716,3341672,3352720,3352720
8,word-count,ec-RS-6-3-1024k,40,econome-19,3608416,3608416,3622204,3622204
8,word-count,ec-RS-6-3-1024k,40,econome-2,2901336,2901328,2910532,2910532
8,word-count,ec-RS-6-3-1024k,40,econome-20,264436,264384,272052,272052
8,word-count,ec-RS-6-3-1024k,40,econome-21,4397276,4397240,4408332,4408332
8,word-count,ec-RS-6-3-1024k,40,econome-22,4656876,4656840,4667260,4667260
8,word-count,ec-RS-6-3-1024k,40,econome-3,3431648,3431428,3441532,3441532
8,word-count,ec-RS-6-3-1024k,40,econome-4,4487500,4487500,4498308,4498308
8,word-count,ec-RS-6-3-1024k,40,econome-5,3345664,3345664,3357848,3357848
8,word-count,ec-RS-6-3-1024k,40,econome-6,440952,440776,450052,450052
8,word-count,ec-RS-6-3-1024k,40,econome-7,3163884,3163884,3179024,3179024
8,word-count,ec-RS-6-3-1024k,40,econome-8,3432320,3432312,3446596,3446596
8,word-count,ec-RS-6-3-1024k,40,econome-9,4221228,4221184,0,0
8,word-count,rep3,40,econome-11,6329708,6329840,6337036,6337036
8,word-count,rep3,40,econome-12,5535184,5535180,5545156,5545156
8,word-count,rep3,40,econome-13,7115544,7115616,7124128,7124128
8,word-count,rep3,40,econome-14,7384232,7384168,7395212,7395212
8,word-count,rep3,40,econome-15,6851364,6851336,0,0
8,word-count,rep3,40,econome-16,7384064,7384232,7395760,7395760
8,word-count,rep3,40,econome-17,6068108,6068220,6073124,6073124
8,word-count,rep3,40,econome-18,7648236,7648364,7661024,7661024
8,word-count,rep3,40,econome-19,4478048,4478140,4488496,4488496
8,word-count,rep3,40,econome-2,6598240,6598360,6614572,6614572
8,word-count,rep3,40,econome-20,6056328,6056380,6064208,6064208
8,word-count,rep3,40,econome-21,5008880,5009164,5017596,5017596
8,word-count,rep3,40,econome-22,6331760,6332332,6347768,6347768
8,word-count,rep3,40,econome-3,7382140,7381988,7392076,7392076
8,word-count,rep3,40,econome-4,5272748,5272976,5280620,5280620
8,word-count,rep3,40,econome-5,5540220,5540144,5560560,5560560
8,word-count,rep3,40,econome-6,5796600,5796756,5807692,5807692
8,word-count,rep3,40,econome-7,7905684,7906076,7912480,7912480
8,word-count,rep3,40,econome-8,5536956,5537172,5554192,5554192
8,word-count,rep3,40,econome-9,6325012,6325152,6333688,6333688
9,sorter,ec-RS-6-3-1024k,40,econome-11,4748580,4748580,7863272,7863272
9,sorter,ec-RS-6-3-1024k,40,econome-12,3863808,3863808,6996352,6996352
9,sorter,ec-RS-6-3-1024k,40,econome-13,2635648,2635640,6728768,6728768
9,sorter,ec-RS-6-3-1024k,40,econome-14,3074464,3074464,6792740,6792740
9,sorter,ec-RS-6-3-1024k,40,econome-15,3338360,3338316,6459408,6459408
9,sorter,ec-RS-6-3-1024k,40,econome-16,3955332,3955332,7865248,7865248
9,sorter,ec-RS-6-3-1024k,40,econome-17,4919064,4919064,8635596,8635596
9,sorter,ec-RS-6-3-1024k,40,econome-18,3161248,3161248,0,0
9,sorter,ec-RS-6-3-1024k,40,econome-19,3339276,3339232,7610368,7610368
9,sorter,ec-RS-6-3-1024k,40,econome-2,2373088,2372812,5097756,5097756
9,sorter,ec-RS-6-3-1024k,40,econome-20,3163296,3163296,7076908,7076908
9,sorter,ec-RS-6-3-1024k,40,econome-21,2549316,2549316,5867912,5867912
9,sorter,ec-RS-6-3-1024k,40,econome-22,441176,441176,3952956,3952956
9,sorter,ec-RS-6-3-1024k,40,econome-3,4131664,4131628,6668760,6668760
9,sorter,ec-RS-6-3-1024k,40,econome-4,4216824,4216824,7530372,7530372
9,sorter,ec-RS-6-3-1024k,40,econome-5,2283796,2283796,5223816,5223816
9,sorter,ec-RS-6-3-1024k,40,econome-6,2900000,2899992,7013652,7013652
9,sorter,ec-RS-6-3-1024k,40,econome-7,1846328,1846328,4993164,4993164
9,sorter,ec-RS-6-3-1024k,40,econome-8,3692440,3692256,6423284,6423284
9,sorter,ec-RS-6-3-1024k,40,econome-9,2635840,2635840,4594816,4594816
9,sorter,rep3,40,econome-11,7369660,7369844,13718104,13718104
9,sorter,rep3,40,econome-12,7115940,7116108,12902024,12902024
9,sorter,rep3,40,econome-13,5791448,5791576,12569144,12569144
9,sorter,rep3,40,econome-14,7647796,7647864,14697064,14697064
9,sorter,rep3,40,econome-15,4999072,4999044,13487572,13487584
9,sorter,rep3,40,econome-16,6323636,6323900,13893860,13893852
9,sorter,rep3,40,econome-17,5266744,5266864,11196960,11196960
9,sorter,rep3,40,econome-18,6313592,6313204,13863824,13863824
9,sorter,rep3,40,econome-19,7640852,7641088,14003096,14003096
9,sorter,rep3,40,econome-2,6046244,6046280,12993620,12993620
9,sorter,rep3,40,econome-20,6045216,6045312,12722704,12722704
9,sorter,rep3,40,econome-21,5259576,5259636,10656308,10656308
9,sorter,rep3,40,econome-22,7905220,7905424,14783544,14783536
9,sorter,rep3,40,econome-3,5527284,5527448,10954084,10954084
9,sorter,rep3,40,econome-4,6059120,6059708,11693048,11693048
9,sorter,rep3,40,econome-5,6062964,6063128,12712492,12712492
9,sorter,rep3,40,econome-6,6055848,6055840,13450808,13450808
9,sorter,rep3,40,econome-7,6316688,6316480,14311408,14311408
9,sorter,rep3,40,econome-8,5798432,5798616,11378156,11378156
9,sorter,rep3,40,econome-9,6855420,6855856,0,0
9,word-count,ec-RS-6-3-1024k,40,econome-11,2901948,2901940,2910780,2910780
9,word-count,ec-RS-6-3-1024k,40,econome-12,4664292,4664256,4676856,4676856
9,word-count,ec-RS-6-3-1024k,40,econome-13,2111340,2111340,2122084,2122084
9,word-count,ec-RS-6-3-1024k,40,econome-14,3693204,3693204,3699268,3699268
9,word-count,ec-RS-6-3-1024k,40,econome-15,1583276,1583276,1595332,1595332
9,word-count,ec-RS-6-3-1024k,40,econome-16,3344464,3344428,3352408,3352408
9,word-count,ec-RS-6-3-1024k,40,econome-17,4134068,4134068,4146432,4146432
9,word-count,ec-RS-6-3-1024k,40,econome-18,3340940,3340940,3352528,3352528
9,word-count,ec-RS-6-3-1024k,40,econome-19,2288208,2288208,2299452,2299452
9,word-count,ec-RS-6-3-1024k,40,econome-2,2551084,2551084,0,0
9,word-count,ec-RS-6-3-1024k,40,econome-20,3958240,3958240,3974408,3974408
9,word-count,ec-RS-6-3-1024k,40,econome-21,4658468,4658468,4678960,4678960
9,word-count,ec-RS-6-3-1024k,40,econome-22,3166312,3166108,3176260,3176260
9,word-count,ec-RS-6-3-1024k,40,econome-3,2637888,2637888,2648636,2648636
9,word-count,ec-RS-6-3-1024k,40,econome-4,2550312,2550312,2562744,2562744
9,word-count,ec-RS-6-3-1024k,40,econome-5,3164600,3164600,3183316,3183316
9,word-count,ec-RS-6-3-1024k,40,econome-6,3868536,3868260,3879804,3879804
9,word-count,ec-RS-6-3-1024k,40,econome-7,2638940,2638896,2649060,2649060
9,word-count,ec-RS-6-3-1024k,40,econome-8,3432384,3432348,3442828,3442828
9,word-count,ec-RS-6-3-1024k,40,econome-9,2637876,2637692,2647196,2647196
9,word-count,rep3,40,econome-11,4220960,4220768,4230588,4230588
9,word-count,rep3,40,econome-12,7912624,7912632,7924004,7924004
9,word-count,rep3,40,econome-13,6069840,6069944,0,0
9,word-count,rep3,40,econome-14,6851356,6851284,6866148,6866148
9,word-count,rep3,40,econome-15,6858092,6858232,6875008,6875008
9,word-count,rep3,40,econome-16,6589224,6589392,6603112,6603112
9,word-count,rep3,40,econome-17,5266012,5266036,5277000,5277000
9,word-count,rep3,40,econome-18,4745416,4745348,4755472,4755472
9,word-count,rep3,40,econome-19,5805824,5806016,5814460,5814460
9,word-count,rep3,40,econome-2,7372768,7373056,7384524,7384524
9,word-count,rep3,40,econome-20,6327292,6327452,6333088,6333088
9,word-count,rep3,40,econome-21,6860188,6860348,6871276,6871276
9,word-count,rep3,40,econome-22,5539380,5539308,5545676,5545676
9,word-count,rep3,40,econome-3,6323112,6323280,6334248,6334248
9,word-count,rep3,40,econome-4,4746760,4747264,4758912,4758912
9,word-count,rep3,40,econome-5,6063372,6063644,6070016,6070016
9,word-count,rep3,40,econome-6,8432168,8431916,8440652,8440652
9,word-count,rep3,40,econome-7,6329508,6329828,6342208,6342208
9,word-count,rep3,40,econome-8,6855636,6856212,6868400,6868400
9,word-count,rep3,40,econome-9,7379524,7379624,7392372,7392372
