run_id,job_name,policy,datasize,tx,rx,nb_failures,failure_stage,killed_hosts,lb_before_1,lb_before_2,lb_after_1,lb_after_2
0,sorter,ec,10,37197373713,37163087039,0,0,None,1235100-1235480-1235356-1058916-176528-1234844-176704-1059128-1058976-529692-529452-705920-529804-236-1235196-705868-705716-1058668-1058820-352976,1235092-1235480-1235348-1058872-176528-1234844-176704-1059084-1058976-529444-529452-705920-529496-236-1235196-705868-705716-1058668-1058820-352976,2118596-2312484-2317460-2094268-327172-2275052-1155952-1840096-1994560-1567840-676000-1397884-724120-1084908-2265388-1292932-1541592-1647252-1890824-1286564,2119696-2312892-2317620-2095024-327308-2275256-1156768-1840272-1995112-1568188-676348-1398436-724120-1085316-2266720-1293136-1541796-1647252-1891232-1287176
0,sorter,ec,20,74335906518,74272458662,0,0,None,1411876-1588044-2117692-1941236-2293700-1588468-1412028-176668-2470212-2293480-2294388-1059244-177428-1588000-1588096-1235100-1588336-1587568-1588060-1764504,1411876-1588044-2117692-1941236-2293700-1588468-1412028-176492-2470212-2293436-2294388-1059040-176872-1588000-1588096-1235092-1588300-1587568-1588060-1764264,2878960-3760140-4002204-3405652-4551724-3061200-3279524-1943580-4617156-4054664-4159140-2432128-1159372-3553932-2767176-2706792-2176764-3662316-2576728-2842044,2880004-3760472-4003452-3407028-4551724-3061452-3279524-1943832-4616924-4054664-4159140-2432128-1159372-3553932-2767176-2707836-2176764-3662316-2576192-2841552
0,sorter,ec,40,148476824530,148272454481,0,0,None,2470496-353180-5294256-3528984-3176128-2823116-3881976-3881464-3705500-3705972-353180-354220-2999608-3529336-4411184-3705512-3881264-3882280-3706436-3881500,2470496-353180-5294040-3528984-3176080-2823116-3881976-3881464-3705500-3705972-353180-353492-2999596-3529280-4411148-3705500-3881264-3882280-3706436-3881500,5624204-2895736-9000864-7069260-5507468-5963604-7038020-6456280-6440632-7448696-2525520-3685012-6139492-7062624-8137656-6815764-7809044-6220440-7052420-8220664,5625752-2897032-9004236-7071684-5509860-5965188-7039272-6457564-6441920-7448696-2526128-3686788-6140100-7062624-8137656-6817176-7809168-6220440-7052420-8220272
0,sorter,ec,80,297100782000,296686527669,0,0,None,8115880-8116120-7057792-7940668-6705064-6881052-6528028-5823000-7588456-5999732-5117580-6175968-6705644-6529152-6881864-2470168-1588236-6705284-6705160-7411804,8115880-8116120-7057776-7940668-6704824-6881044-6528028-5823000-7587812-5999732-5117580-6175968-6705644-6529152-6881864-2470168-1588236-6705284-6705160-7411804,15684924-15285456-15036340-15045276-13359880-15530284-8840744-12863352-15457976-12668160-12454088-13751872-14205684-11273784-12720752-8240884-4153916-12950196-10841488-13841800,15684748-15285456-15036340-15045136-13362828-15530284-8842800-12863352-15457660-12668160-12454088-13751872-14205684-11273784-12720752-8240884-4153916-12950196-10841488-13841800
0,sorter,rep3,10,34671557640,34655835920,0,0,None,2379628-2121044-2379704-2379636-1851208-1856944-2115396-1589064-1851200-2379696-1060608-532648-1851244-532032-794564-1849628-1057012-1324656-1324884-530220,2379628-2121044-2379704-2379636-1851208-1856944-2115396-1589064-1851200-2379696-1060424-532648-1851244-532032-794512-1849628-1057012-1324656-1324832-530220,3840220-3678432-4501836-2757764-3628956-2917124-3669664-4859392-2891888-4590888-3543160-1283832-3765216-1679328-3024320-3606660-3015740-2379012-1946912-1951852,3840464-3679556-4502080-2758296-3629160-2917268-3669664-4859392-2891888-4590888-3543160-1283832-3765216-1679328-3024320-3606660-3015740-2379012-1946576-1951832
0,sorter,rep3,20,67649466130,67580620651,0,0,None,3445472-3704204-4496828-2910140-3440044-2383420-3175848-2645828-2117244-3706264-4230988-3180180-2117588-4232624-2913836-3704204-1854832-2385204-3438196-3436384,3445472-3704204-4496828-2910140-3440044-2383420-3175848-2645828-2117244-3706264-4230988-3180180-2117208-4232588-2913836-3704204-1854824-2385036-3438196-3436384,6937600-6428056-8173568-5677768-6533084-5170468-5729132-6898020-4666532-6080944-6708196-7727584-5977928-7830956-6519712-5530884-5295452-5777128-6727924-6660792,6937932-6429052-8174232-5678100-6533748-5170800-5729796-6898352-4666008-6082636-6708528-7728248-5977928-7830940-6519396-5530884-5295452-5778156-6728952-6660792
0,sorter,rep3,40,135348406281,135187619218,0,0,None,5559016-7144440-6353904-5292996-6614216-5826824-5029148-7404764-5559004-6353948-6880020-7147852-5025176-6874596-6350028-7407612-5830496-5566448-7674900-7140604,5559016-7144392-6353904-5292996-6614216-5826824-5029148-7404752-5559004-6353716-6880020-7147804-5025176-6874596-6350028-7407088-5830496-5566260-7674384-7140604,11917288-11035360-12843356-14139000-12857260-10565896-12073468-13545256-11247040-13131980-14432056-13333028-10392340-11516228-12878052-15176380-14013824-9313364-15129004-14563028,11918360-11037912-12843960-14139888-12857260-10566744-12074020-13545856-11249184-13131980-14432056-13333028-10392340-11516228-12878052-15176380-14013824-9313364-15128640-14563028
0,sorter,rep3,80,269298330166,269048688582,0,0,None,14292004-14297404-14805720-11112784-11905320-13756380-9793396-11650616-12972852-11387624-13231560-12969184-11382428-13767252-13492960-13492324-14023376-13228604-11908828-10598712,14291968-14297404-14805720-11112784-11905320-13756328-9793396-11650008-12972852-11387624-13231560-12969184-11382392-13767200-13492132-13492324-14023376-13228604-11908768-10598712,27840664-23827048-28161460-24811148-27128048-25145588-21210352-28635196-23108852-24963936-30204284-27137580-21405596-23334056-31012488-27169748-24034436-24079144-23895180-21077972,27844676-23828944-28162628-24815024-27130592-25150328-21210352-28636492-23108852-24964708-30206224-27137216-21405596-23335428-31012488-27175008-24037984-24082112-23895180-21077972
0,word-count,ec,10,12118436856,12123132828,0,0,None,717172-1076424-896060-1076112-1077456-896956-1257160-897892-896172-718312-179800-897148-1076512-1076120-897920-192-897552-324-718312-897300,717172-1076424-896060-1076112-1077456-896956-1257160-897892-896172-718312-179800-896812-1076512-1076120-897920-16-897552-112-718304-897300,719804-1084636-900272-1084080-1084996-904192-1268948-903668-899860-724840-188728-908100-1083992-1083608-911380-12712-906448-10988-725080-906780,720232-1085552-900272-1084296-1084996-904192-1268948-903668-899860-724840-188728-908100-1083992-1083404-911192-12712-906448-10988-725080-906780
0,word-count,ec,20,23378898623,23381854565,0,0,None,1614468-2153212-1972956-359364-1794236-898044-2151140-1794408-1256716-2153580-2691540-180136-2511280-2152528-1434400-2153720-1795744-1256864-180012-1794740,1614468-2153212-1972956-359364-1794236-898044-2151140-1794408-1256716-2153580-2691532-180136-2511280-2152476-1434400-2153720-1795744-1256688-179588-1794740,1624364-2155312-1974260-365232-1803540-909620-2159208-1807636-1271980-2157184-2704896-187892-2517472-2162112-1441424-2161140-1801744-1267968-189716-1804520,1626604-2155668-1975996-367896-1804980-909932-2159192-1807952-1273084-2157624-2705336-188476-2517740-2162652-1442136-2161580-1801744-1267968-189716-1804520
0,word-count,ec,40,47040169943,47039280498,0,0,None,4485892-2870436-3410752-3049860-3769712-4127448-4667876-359372-4128148-539464-3586332-3588736-4844660-3230600-359392-3407112-3047152-3587036-4487264-3048292,4485892-2870436-3410752-3049860-3769712-4127448-4667876-359372-4128148-539464-3586332-3588724-4844660-3230600-359392-3407076-3047152-3586988-4487264-3048272,4497808-2881172-3418932-3063784-3774640-4128456-4681872-370688-4139080-548608-3594832-3603140-4855168-3236084-376940-3417676-3060336-3594916-4492804-3055712,4499192-2884156-3419388-3064288-3775140-4128960-4684656-371980-4140972-549216-3594832-3603884-4857736-3238088-376576-3417676-3060336-3595560-4491304-3056152
0,word-count,ec,80,93724216244,93709308592,0,0,None,7538312-7175700-5383032-6459512-7173668-5919816-5921656-7892272-6102364-6818916-5206164-8075948-6816756-4124708-6997880-5382648-5023832-7714120-6819312-6641776,7538312-7175700-5383032-6459512-7173668-5919816-5921656-7892272-6102364-6818916-5206164-8075948-6816756-4124708-6997880-5381832-5023780-7714120-6819312-6641776,7550244-7186368-5391348-6464660-7194492-5938676-5937448-7902608-6123208-6835012-5219208-8091516-6832640-4137148-7013636-5406664-5032812-7727756-6829256-6654448,7551640-7187388-5391348-6465680-7194128-5938676-5936880-7902608-6123208-6835012-5219208-8091376-6832640-4137148-7013636-5406664-5032812-7724676-6829256-6654448
0,word-count,rep3,10,1266459638,1271841341,0,0,None,1887968-2435640-1321020-831280-2133068-2152232-1907408-1076116-792816-2132892-1359548-1643008-2681128-2133060-1926476-792700-792816-1095388-1056800-2132856,1887968-2435640-1321020-831280-2133068-2152232-1907204-1076116-792604-2132856-1359540-1643008-2680828-2133060-1926476-792700-792816-1095344-1056800-2132856,1892908-2440028-1327440-837368-2137968-2160328-1913760-1081108-795716-2139284-1368880-1650000-2685632-2139592-1934236-798748-798176-1100648-1065808-2136612,1892672-2440456-1327860-838008-2138648-2160696-1913748-1081656-796840-2139284-1369304-1650000-2685904-2139592-1934236-798748-798164-1100648-1066584-2137388
0,word-count,rep3,20,2184298366,2188291926,0,0,None,3530960-2680556-3756788-2680952-2964340-3453880-4059316-3530968-2738504-4265740-3228184-4059528-1907964-3473312-3473276-2680688-3473108-3228184-1907228-3473284,3530924-2680520-3756788-2680952-2964340-3453880-4059316-3530924-2738504-4265740-3228184-4059528-1907576-3473108-3473276-2680688-3473108-3228184-1907204-3473108,3537184-2685396-3767776-2686832-2969992-3464816-4067924-3535516-2742336-4270392-3234508-4071064-1916148-3478364-3479424-2687972-3480740-3233736-1916284-3482012,3537972-2686368-3768396-2687620-2973012-3465520-4067708-3536220-2743040-4269648-3235396-4072240-1917204-3478900-3480044-2688944-3480552-3234004-1916636-3483188
0,word-count,rep3,40,3794824559,3796801489,0,0,None,8570272-4851948-6153612-6437092-7777584-9381996-6417828-4362444-7532456-6495072-5096840-4344008-7004064-6211464-6398752-5096884-7552044-5702308-6192516-7552032,8570236-4851912-6153612-6437092-7777584-9381996-6417808-4362444-7532408-6494896-5096840-4344008-7004016-6211464-6398752-5096836-7552044-5702308-6192516-7552032,8579524-4864048-6165660-6445144-7781356-9390796-6425456-4368696-7540528-6507860-5104264-4352380-7016912-6223888-6409664-5109036-7563560-5708416-6202852-7558876,8581024-4865732-6169088-6448724-7781856-9391792-6429424-4370616-7542932-6507812-5104264-4351988-7017512-6223496-6410224-5109036-7563372-5710260-6202852-7558876
0,word-count,rep3,80,6325333562,6316377377,0,0,None,14497900-14498092-12403568-13537440-9988064-13215464-11630304-13196348-13931192-14046596-11875804-13855488-12158688-14723708-14253588-11328176-12268700-13647672-10496636-12706308,14497864-14497872-12403568-13537440-9987260-13215464-11630304-13196156-13931140-14046560-11875804-13855488-12158644-14723516-14253588-11328176-12268664-13647672-10496380-12706308,14516620-14504592-12421456-13547076-10004124-13240680-11635296-13213692-13948172-14062484-11896468-13871092-12178348-14742716-14269904-11342420-12283592-13658404-10516656-12717636,14519500-14505404-12429680-13549816-10004076-13244860-11635296-13215684-13948124-14062484-11896280-13871092-12175148-14742716-14269904-11342420-12283356-13658404-10516656-12717636
1,sorter,ec,10,36964386907,36917386588,0,0,None,1058856-1058828-1411832-706024-705700-1058820-882644-1411568-882396-176552-530060-882432-529672-882404-176236-705936-881664-529760-705972-706060,1058616-1058616-1411824-706016-705700-1058820-882644-1411568-882396-176552-530060-882396-529444-882404-176236-705936-881628-529760-705972-706060,2041684-1550440-2300196-1587600-1534372-2187300-1818844-2299336-1914660-614660-1469332-1475580-1367908-1521764-1112020-1393364-1468016-1173360-1439732-1549596,2041888-1550440-2300196-1587600-1534372-2187300-1818832-2299336-1914660-615380-1469332-1475580-1367908-1521764-1112020-1392972-1467400-1173360-1439732-1549596
1,sorter,ec,20,74511902804,74451893590,0,0,None,1411824-1587972-1764564-1941296-2293692-2294380-2294744-352904-1058916-2117596-1764308-1764564-1941032-2293384-1411984-1235384-1411568-1235276-1411860-176880,1411824-1587972-1764564-1941296-2293692-2294380-2294744-352904-1058916-2117596-1764308-1764564-1940996-2293180-1411772-1235348-1411568-1235100-1411824-176660,1802940-3062772-2066124-3804260-4648232-4548896-3857844-2122704-2723692-3889384-3342572-3835980-3614256-4242996-2981232-3002820-1910652-3102804-3380440-1642296,1804356-3063568-2065684-3805248-4648484-4549012-3858920-2123752-2723716-3889928-3342824-3837492-3614508-4243328-2981428-3002504-1913116-3103136-3382576-1642652
1,sorter,ec,40,148857069100,148698307019,0,0,None,3529784-3705280-3881984-3705000-4057952-4235028-3529580-3882500-2646860-4057684-3705512-3705000-3529292-3705280-354232-2999388-3353164-4235184-352968-353456,3529784-3705280-3881984-3704988-4057952-4235028-3529580-3882492-2646860-4057684-3705512-3705000-3529292-3705244-354232-2999340-3353116-4235184-352968-353456,7055144-6637192-5634404-8027620-6793616-5809300-6101148-6437724-5607464-6830576-6459980-7640596-7097164-8222116-3663196-6531640-6867832-6567208-4856668-4291808,7055872-6638928-5634404-8028224-6793616-5809300-6101148-6437724-5607464-6830576-6459664-7640596-7097164-8220624-3663196-6531640-6867832-6567208-4856668-4291808
1,sorter,ec,80,296371320404,295997257388,0,0,None,8116668-6352700-5998920-6704876-7058544-1766088-6881608-2647700-7762692-5823352-7588604-7058844-6881336-7587760-5469492-6704840-7057564-6528612-5646752-7411576,8116632-6352648-5998920-6704824-7058544-1765084-6881608-2646900-7762692-5823160-7588604-7058844-6881336-7587760-5469492-6704824-7057520-6528356-5646752-7411576,14837788-13285024-12948392-13231796-14920436-8435464-14069684-9736508-14713360-12323496-13903092-14369052-12518904-12157908-11878028-9797416-13183064-13501636-10737688-13648028,14837788-13288152-12949340-13231796-14922540-8436452-14069684-9736508-14717464-12326552-13903092-14369052-12518904-12157816-11878028-9797416-13183064-13501636-10737688-13648028
1,sorter,rep3,10,34950860596,34940861842,0,0,None,2115404-1589008-1587040-1854832-2115528-1854876-1323232-2115440-2119204-1587004-1585396-2381500-268144-792824-796468-2119168-1322844-794424-1853012-1585288,2115404-1589008-1587004-1854832-2115528-1854876-1323232-2115396-2119020-1587004-1585396-2381500-268144-792824-796228-2119168-1322808-794424-1853012-1585288,3258288-2164812-3051720-3087476-3015420-3811440-3369356-4121640-2452636-2502748-4178072-4191168-2216124-3121956-2263536-3989556-4093336-2240448-3878516-2522204,3258840-2164584-3052416-3088628-3015564-3811788-3370740-4122048-2453128-2502608-4177804-4191312-2216124-3122140-2263680-3989556-4093336-2240120-3878516-2521700
1,sorter,rep3,20,67368499643,67310916153,0,0,None,4228972-3970220-2647616-2385072-3172772-3968604-3970248-4759336-2117244-2917060-2649224-3702392-2649604-2645988-2117996-2910008-3175812-3440044-3177652-2913464,4228964-3970212-2647580-2385028-3172772-3968604-3970248-4759336-2117208-2917060-2649224-3702384-2649604-2645608-2117996-2910008-3175812-3440044-3177652-2913464,7099212-6494852-6814128-5452664-7013624-7475848-6292204-8463928-6352112-5043876-5799816-6622192-6005872-5605304-6118000-6600248-7026704-5241468-5489008-6049196,7099504-6494852-6814460-5452916-7013956-7476180-6292204-8463928-6352112-5043876-5799816-6622192-6005872-5605304-6118000-6600248-7026688-5241468-5487600-6048852
1,sorter,rep3,40,135900355665,135735807849,0,0,None,5559364-5034244-7406752-5028988-5823236-5555388-6353644-6349824-5557540-6353416-5037872-7407604-5294844-8733508-6348192-7144192-5027200-8991784-7405316-6623084,5559364-5034236-7406752-5028800-5823236-5555388-6353644-6349824-5557540-6353416-5037860-7407604-5294808-8733508-6348192-7144180-5027200-8991740-7405064-6623084,12705268-11996276-12761288-12009560-11147408-12651896-11928924-12326804-14018712-12204644-9802148-15018532-11176444-17004640-12543572-12946360-11412904-15538452-13336172-11582600,12705268-11997952-12761288-12009532-11148616-12651988-11928924-12328424-14018712-12204644-9801784-15018012-11176100-17004324-12543552-12946332-11412904-15538452-13334736-11582600
1,sorter,rep3,80,269504463855,269270787098,0,0,None,14027824-14556788-11646384-15337896-10586000-11381204-11642776-15079120-10859424-11377368-11646420-17465968-10584404-13226344-11655684-12709248-15077528-11910452-13499620-9798876,14027772-14556788-11646384-15337896-10585976-11380992-11642776-15079120-10859232-11377368-11646384-17465968-10584404-13226344-11655648-12709248-15077528-11909708-13499620-9798876,27931428-24661792-23747592-28237540-22309392-27103216-22180532-28421936-24560676-22147968-24850664-29497844-27451552-26020304-26491204-24939316-27529584-27171828-22587636-20366108,27934524-24665420-23753852-28238620-22306748-27104116-22180532-28422924-24560676-22148440-24850664-29495236-27451552-26019988-26491204-24938952-27529584-27171512-22587636-20366108
1,word-count,ec,10,11863397298,11867843062,0,0,None,179816-896976-359160-179632-1077108-179772-538400-1077320-1436812-1255308-718348-718104-1436268-1435424-1433540-717160-716112-1077484-844-717308,179816-896976-359160-179632-1077108-179772-538400-1077320-1436812-1255308-718304-718060-1436252-1435220-1433540-717160-716112-1077484-844-717272,186328-904824-368556-186908-1081544-194300-546100-1083624-1440680-1262172-720880-725128-1446816-1442696-1445564-724976-725024-1088312-10088-726992,187132-904792-370264-187340-1081916-195300-546332-1083012-1440896-1261968-720892-725128-1447660-1442696-1445564-724976-725024-1088312-10076-726992
1,word-count,ec,20,23855499725,23858286238,0,0,None,1973640-1255988-897196-179772-1615312-2153884-1973464-1795844-1795064-1435772-1256384-2331400-1256688-1795412-2331052-1434400-1973632-2330544-2154064-359576,1973640-1255988-897196-179588-1615312-2153884-1973412-1795844-1795064-1435728-1256384-2331400-1256680-1795412-2331052-1434400-1973596-2330324-2153860-359576,1982416-1263960-911280-190628-1622716-2158968-1982172-1807900-1804708-1444112-1264092-2339888-1265500-1807808-2337500-1439968-1984408-2338368-2162700-365732,1982816-1265156-911360-190984-1622084-2159236-1982768-1808256-1806132-1444468-1264092-2341084-1264888-1807808-2337500-1439968-1984408-2338368-2162700-365732
1,word-count,ec,40,47219941941,47219664277,0,0,None,4305252-3768284-3768296-538944-3410928-4127780-3050348-3051932-3407040-3409388-2691444-359348-3587736-4307740-3406404-4308396-359584-3947188-4664784-4124684,4304936-3767932-3768296-538944-3410928-4127768-3050348-3051924-3407040-3409344-2691444-359160-3587736-4307692-3406404-4308348-359160-3947188-4664784-4124672,4317128-3780268-3782152-547404-3422860-4139608-3060228-3059640-3416788-3420072-2694876-368848-3599140-4313440-3418792-4321808-369852-3959496-4678172-4136024,4317624-3780904-3782648-547416-3423632-4139420-3060228-3059920-3417428-3420072-2696016-368848-3599140-4313440-3418792-4321808-369852-3959496-4678172-4136024
1,word-count,ec,80,93873574272,93859381709,0,0,None,6098140-7355964-5742576-6814868-2513860-6640272-6820180-7179088-7358320-2870976-6459940-7533140-6278916-6997172-7351532-5563552-8437172-6817932-6995140-7359652,6098104-7355964-5742576-6814868-2513684-6640272-6819976-7179088-7358320-2870976-6458912-7533116-6278916-6997172-7351532-5563516-8437172-6817932-6995140-7359396,6108848-7366672-5757640-6822496-2528804-6650352-6826976-7190676-7368148-2887064-6473592-7542452-6287180-7016680-7366620-5576688-8447244-6836060-7007748-7371680,6111764-7368112-5760960-6827292-2532128-6651184-6830204-7194160-7373676-2892292-6476056-7539764-6288412-7016680-7366620-5580672-8447244-6836060-7007748-7371680
1,word-count,rep3,10,1615895662,1620957824,0,0,None,2133244-1868668-1926652-1604568-1359576-1359548-1868696-2416340-1907212-2435632-1849388-792604-1076688-1056940-1868864-850516-1888256-528452-1095380-2397052,2133060-1868660-1926652-1604464-1359576-1359548-1868696-2416340-1907212-2435632-1849388-792604-1076380-1056896-1868864-850516-1887940-528452-1095380-2397052,2137092-1878484-1935916-1607900-1365432-1369692-1874840-2421212-1910884-2438004-1858464-800400-1078016-1066068-1875532-858252-1890180-536260-1107852-2401980,2138156-1879220-1936288-1608748-1365420-1369692-1874840-2421212-1910884-2437204-1858464-800400-1078016-1066068-1875532-858252-1890168-536072-1107852-2401980
1,word-count,rep3,20,3051216216,3055813733,0,0,None,2397104-2944760-1623744-2190892-4568692-3756620-1643424-3756752-4078596-4813572-4285144-4851904-2435604-3756576-3209080-3209672-2680556-1888136-2738380-3737720,2397104-2944760-1623744-2190892-4568692-3756620-1643424-3756752-4078596-4813572-4285144-4851904-2435604-3756576-3208912-3209292-2680520-1887932-2738336-3737720,2402092-2950732-1633748-2202156-4574648-3765332-1654588-3765632-4081712-4821624-4293856-4859904-2444312-3760592-3217248-3216060-2687828-1891140-2747028-3744240,2404304-2951352-1634536-2202508-4575084-3765196-1655008-3765632-4082852-4821624-4293856-4861060-2444184-3760592-3217248-3216060-2687828-1891140-2747028-3744024
1,word-count,rep3,40,3959754328,3961733330,0,0,None,7061832-6192164-5947624-5644820-6173452-6211476-7493908-8041564-7023336-5928324-6701288-5948468-6115068-5927996-6965472-7210432-5419368-5683092-7042772-6398760,7061832-6192156-5947624-5644492-6173452-6211428-7493908-8041528-7023336-5928324-6701276-5948468-6115068-5927996-6965472-7210432-5418840-5683036-7042772-6398760,7072084-6202816-5957344-5660656-6185528-6223432-7500996-8048872-7035588-5939040-6714432-5964716-6122376-5938744-6971460-7220008-5435452-5692296-7048008-6407544,7071868-6202816-5957344-5660440-6184632-6223368-7501404-8048668-7036088-5939040-6716252-5964716-6122376-5938744-6971460-7220008-5435452-5692080-7048008-6407544
1,word-count,rep3,80,7046082409,7036212912,0,0,None,16063784-15272844-11933804-10554232-13460972-12725580-12667824-12384304-14214636-12081556-14214624-12422840-10232832-12725800-12893672-11006324-13099848-15838168-11836852-12629256,16063768-15272844-11933804-10554232-13460972-12725580-12667764-12384304-14214396-12081556-14214396-12422840-10232184-12725800-12893536-11005500-13099848-15838168-11836836-12629220,16073024-15285756-11951512-10564144-13476552-12741960-12689636-12398552-14219300-12095852-14231016-12432776-10244108-12750372-12911028-11016752-13109156-15853588-11847660-12651200,16074852-15292464-11952740-10569564-13478596-12743724-12692484-12401024-14221344-12101068-14231604-12434216-10244684-12750372-12913072-11016752-13111408-15857992-11847660-12651200
2,sorter,ec,10,37185401114,37145618558,0,0,None,1058660-1058624-1058360-176712-1235392-705928-1235356-1058500-706228-1235136-332-1412440-706264-882644-705956-1058140-529444-706124-200-352968,1058660-1058616-1058360-176712-1235392-705928-1235356-1058456-706124-1235092-332-1412440-706264-882396-705956-1058104-529444-706124-200-352968,1843116-1799308-1899024-915568-1971948-1546680-1582080-2139116-1049108-2164716-1021772-2400344-1643924-1079596-1546348-1989992-1317148-1535288-1179636-1187784,1843668-1800004-1899576-915976-1972152-1546884-1582796-2139116-1048828-2164920-1022180-2401060-1645252-1079800-1546568-1989992-1317148-1535492-1179636-1187784
2,sorter,ec,20,74283812332,74220822488,0,0,None,176888-1412000-2293984-2293480-1764760-1411488-1764520-1940952-2117648-353188-1764828-1588220-1411868-1058616-1765564-1764820-1940756-1411552-1588256-1940740,176888-1412000-2293984-2293436-1764724-1411488-1764520-1940952-2117648-352976-1764828-1588220-1411824-1058616-1765156-1764776-1940756-1411552-1588212-1940740,371804-3279856-4550604-2491108-3628548-3365992-3535924-3988528-3884348-2405188-3425684-1788520-3190344-2533120-3732492-3541356-3795204-3392764-3067272-3615672,372468-3281812-4551240-2492732-3629544-3367652-3536508-3989112-3885012-2406024-3425684-1789104-3191384-2533372-3732176-3541860-3795204-3392764-3067272-3615672
2,sorter,ec,40,148701409123,148483969920,0,0,None,4411452-4587116-353396-2823420-3881988-3705516-3352036-3882232-3353124-4764136-3883284-3352328-3704768-353144-353504-3882748-3352560-3353160-3352036-2823644,4411404-4587116-352968-2823420-3881988-3705516-3352036-3882232-3353068-4764136-3883284-3352292-3704768-352968-352968-3882748-3352548-3353160-3352036-2823644,8139696-6769728-3500120-5402272-5655148-6629692-5118256-5448184-5295668-6895368-7810792-7108292-8022716-3516180-4464592-8200564-7071736-8443864-7288564-6352300,8139380-6771268-3501796-5402272-5654784-6628200-5118256-5448688-5295304-6895488-7810560-7108292-8022716-3516152-4464592-8200564-7071356-8443520-7288536-6352300
2,sorter,ec,80,295931869392,295537140183,0,0,None,6704040-2470644-7763952-8117292-6528384-7234712-7587732-2118256-8646156-5293068-6000260-7057776-6705644-7058596-6000868-6528648-7410984-1941444-8116376-7763696,6704040-2470644-7763952-8117292-6528348-7234508-7587716-2118256-8645496-5293016-5999644-7057776-6705644-7058544-6000868-6528648-7410984-1941444-8116376-7763696,15200592-8643600-14323308-14776788-13600636-9144440-16403900-8148216-18119176-13438284-12406416-12830328-13245596-13092248-8177348-13879548-10125536-10049920-13940048-14659316,15204872-8643600-14325428-14776788-13600636-9144440-16404328-8147708-18118720-13438284-12406416-12830328-13245596-13092248-8177348-13879548-10125536-10049920-13940048-14659316
2,sorter,rep3,10,33841368264,33815844590,0,0,None,2124668-2381508-796844-1853048-1853116-1587108-2117252-2117208-2908036-1851244-794600-2381644-1058796-528724-1585396-1060664-794460-1058656-1322844-1585200,2124668-2381508-796844-1853048-1853116-1587108-2117208-2117208-2908036-1851244-794600-2381404-1058612-528724-1585396-1060664-794424-1058612-1322844-1585192,3765012-4119216-2028116-3459936-3724708-2599716-3342164-2940848-4602372-3828792-2663196-3846484-2493384-2127940-3641460-1998020-2600468-2787196-3341844-3621180,3766176-4119384-2028168-3460392-3724716-2600068-3342200-2940588-4603008-3828792-2663184-3846484-2493384-2127940-3641264-1998020-2600468-2787196-3341844-3620852
2,sorter,rep3,20,68208790128,68140902362,0,0,None,3442228-3966784-3966800-2911856-2649260-3172180-2913464-3175864-2909796-3177800-3970212-2648348-1855036-3704196-2647456-2911616-4493540-2649260-2645644-3707988,3441820-3966784-3966800-2911812-2649260-3172180-2913464-3175864-2909796-3177800-3970212-2647792-1855036-3704196-2647412-2911608-4493160-2649260-2645600-3707988,7132992-6913136-6904992-5726028-5022916-6236700-7813464-6707024-7828404-6594544-7363016-4228380-4848720-6739924-5980976-6452136-6648740-6327308-4866764-6717572,7133008-6914172-6905656-5727024-5024000-6237696-7813796-6708056-7828388-6594544-7364048-4228380-4848720-6739924-5980976-6451920-6648740-6327308-4866052-6717572
2,sorter,rep3,40,135019780297,134864357043,0,0,None,5566644-6621224-6615788-7938592-7147848-3972376-6083824-9250508-5289908-6350020-7139076-6358068-6879996-4764828-7149868-8199356-4772200-5296656-6083784-5555428,5566456-6621224-6615788-7938592-7147804-3972376-6083780-9250508-5289684-6350020-7139076-6357552-6879996-4764828-7149868-8199152-4772264-5296656-6083836-5555380,12839512-12323772-14228680-14562332-13616012-9904896-12923716-16537200-10438004-13313316-14045624-12654244-13480520-11388628-13546516-13193780-9417304-10700876-11811896-13184416,12840576-12322880-14229284-14560580-13616012-9905360-12923716-16538768-10438004-13313000-14045624-12654244-13480520-11388628-13546516-13193780-9417304-10700876-11811896-13184416
2,sorter,rep3,80,270342422819,270093875607,0,0,None,11644608-13756540-14563464-13499396-13501368-12430520-12695936-12180212-11380604-14286780-12449896-13233220-15091804-13229628-13492792-12433536-10848376-11648212-12178620-9523816,11644572-13756540-14563464-13499396-13501192-12430520-12695936-12180212-11380604-14286780-12449896-13232372-15091804-13228756-13492792-12433536-10848376-11648196-12178408-9523764,24690388-27645856-29533476-28057588-25657524-25554312-28076776-24896180-24808396-26575600-27752548-22027248-30440404-20749352-27894220-24057616-21200632-24316560-23807008-20457944,24691476-27648184-29537484-28059868-25659636-25560348-28079312-24899500-24808396-26576764-27753356-22027248-30439836-20748984-27893616-24057616-21197708-24316560-23807008-20457944
2,word-count,ec,10,12068003192,12072583219,0,0,None,538740-1076460-897460-895864-1255656-1257196-180072-1074880-1255788-717972-897408-359292-359168-717316-718340-717308-897784-898008-897544-538640,538732-1076416-897460-895864-1255656-1257196-180072-1074880-1255788-717972-897408-359160-359160-717272-718340-717272-897784-898008-897544-538392,548008-1081576-902420-899732-1266712-1265396-187668-1082824-1265380-725276-904496-362712-366928-730556-726908-724088-908320-907396-906504-549076,548928-1082008-902908-900508-1266520-1265884-187940-1082824-1265380-725276-904496-362712-366928-730556-727684-724088-908320-907396-906504-548276
2,word-count,ec,20,23601129937,23604152265,0,0,None,1975004-1794060-2152476-1077660-2509932-2155288-1972580-1436636-1256516-2512696-1615928-1973468-1793008-1076776-1974112-1252932-179800-179808-1615004-1795404,1975004-1794060-2152476-1077660-2509932-2155048-1972580-1436636-1256340-2512652-1615928-1973468-1793008-1076776-1974112-1252756-179588-179808-1614792-1795396,1987648-1803144-2158356-1085644-2518392-2165964-1978184-1444012-1269108-2521188-1623100-1985528-1802236-1088244-1981904-1261712-187604-185148-1623528-1807236,1988720-1803480-2158708-1085996-2518392-2167472-1978168-1444012-1268028-2521188-1623100-1985528-1802236-1088244-1981904-1261712-187604-184228-1623528-1807048
2,word-count,ec,40,47192051802,47192136434,0,0,None,359336-3585992-2513708-4124740-3767288-2690704-3050732-2871104-3769336-3949252-3409004-3589416-4664996-3767152-3767604-359160-3051764-4485892-3229744-3587880,359336-3585956-2513344-4124740-3767252-2690704-3050732-2871092-3769336-3949252-3409004-3589368-4664996-3767152-3767604-359160-3051716-4485892-3229744-3587880,369624-3589396-2524668-4131636-3776528-2695544-3057996-2878092-3786812-3959192-3421248-3599468-4680544-3779756-3777784-369868-3065872-4493568-3245992-3603940,370396-3591220-2525164-4132132-3776528-2695664-3056104-2878092-3786812-3959192-3421248-3599468-4680544-3779756-3777756-369868-3065872-4493568-3245992-3603940
2,word-count,ec,80,94431123467,94417171884,0,0,None,6459732-6637336-7175576-7712688-6998112-2153212-5379880-7716812-7892308-6638024-6996840-2515552-6819128-7717088-6999260-5922176-6276844-5382688-7002204-8792932,6459732-6637320-7175356-7712688-6998112-2152816-5379880-7716812-7892272-6638024-6996804-2514508-6819248-7716476-6999208-5922116-6276792-5382928-7002528-8793052,6468876-6649296-7185984-7730288-7014328-2164208-5384296-7734416-7906720-6649760-7013372-2527744-6834744-7734424-7017912-5933884-6289240-5396344-7017612-8805708,6469688-6654456-7187340-7731636-7018512-2164208-5385528-7734416-7906484-6649712-7013372-2527744-6834744-7734424-7017912-5933884-6289240-5396344-7017612-8805708
2,word-count,rep3,10,2199049440,2204269965,0,0,None,1868960-2171532-1359760-1907212-2152136-1378812-2435632-1340488-3209052-1321200-1321208-1585432-2152128-1340284-566952-1057108-1320996-850524-1056836-1887984,1868960-2171400-1359760-1907212-2152128-1378812-2435596-1340488-3209052-1321200-1320996-1585192-2152128-1340276-566952-1057108-1320996-850516-1056800-1887984,1872224-2173300-1366956-1909468-2159512-1384112-2444528-1343560-3213192-1327056-1327528-1596860-2158720-1343616-572288-1063916-1328952-858912-1066084-1894464,1872804-2174500-1367928-1910260-2160712-1384268-2444600-1343832-3213908-1326652-1327528-1596860-2158720-1343616-572288-1063916-1328752-858912-1066084-1894464
2,word-count,rep3,20,2776282278,2780386137,0,0,None,2925444-2983472-3267080-3266764-2680528-2983268-4304276-2416536-2680908-2132864-2944724-3737692-4002288-2738380-2944760-3228404-3814436-4285004-2983472-4246628,2925444-2983472-3267080-3266764-2680528-2983268-4304276-2416536-2680908-2132864-2944724-3737692-4001880-2738336-2944716-3228192-3814436-4285004-2983472-4246628,2928316-2987336-3278720-3272060-2690792-2987452-4312324-2425032-2683972-2141900-2949240-3749320-4009488-2745960-2958380-3237424-3821176-4294712-2995328-4253016,2928316-2988508-3279516-3273764-2690776-2987452-4312324-2425032-2682864-2141900-2949052-3749120-4009284-2745960-2958380-3237424-3821176-4294712-2995328-4253016
2,word-count,rep3,40,3638883227,3641324034,0,0,None,5683276-6682004-6379448-6965492-4400600-8004044-5438156-7248940-7494420-6192380-6514168-8099604-5116100-6475680-5870192-4304428-6720876-6153976-7307008-8080424,5683276-6682004-6379272-6965472-4400600-8003512-5438112-7248940-7494384-6192380-6514168-8099604-5116100-6475680-5870144-4304428-6720876-6153928-7307008-8080424,5696020-6689972-6389576-6977320-4416560-8008804-5452916-7257120-7505284-6201508-6520352-8114556-5126356-6487396-5884516-4309764-6729320-6165340-7312596-8091272,5699088-6691060-6390208-6978240-4418680-8009124-5453020-7257120-7505096-6201508-6520352-8114556-5126356-6487396-5884300-4309764-6729320-6165340-7312596-8091272
2,word-count,rep3,80,6824107080,6815923551,0,0,None,10252272-13556748-12648552-11534556-12100880-11327892-13177548-15271216-13441316-12326656-14781368-11308240-13687652-10270904-13608968-15631752-14987932-13743872-13216084-11385344,10252272-13556712-12648552-11534556-12100880-11327716-13177548-15271216-13441292-12326656-14781332-11308240-13687652-10270728-13608968-15631752-14987712-13743820-13216324-11385344,10273008-13567148-12665620-11542520-12108452-11334340-13193344-15287496-13461780-12352768-14799116-11325828-13699396-10292796-13625200-15645004-15004184-13761092-13226104-11400528,10271416-13568492-12666776-11548144-12111152-11334340-13194576-15287308-13461780-12352532-14799116-11325828-13699200-10292788-13625200-15645004-15004184-13760868-13226104-11400528
3,sorter,ec,10,36995646481,36961616151,0,0,None,1058720-529452-882644-882404-1058880-176668-706220-176916-705964-1058916-706052-1235716-882388-1235488-1411320-882432-352748-529204-1411092-192,1058720-529452-882644-882404-1058880-176668-706220-176916-705964-1058872-705920-1235716-882388-1235488-1411320-882396-352712-529196-1411092-192,1997668-1316160-983872-1808576-2235688-1061084-1538796-1211588-1746368-1943516-1685492-2119952-1668928-1928544-2346120-1569700-455836-1706880-2391908-101352,1998312-1316464-983096-1808984-2235880-1061084-1539660-1211588-1746512-1943516-1685636-2120672-1668928-1928356-2346120-1569844-454700-1706552-2391908-101352
3,sorter,ec,20,74198749205,74128546161,0,0,None,1058632-1764556-1940756-1588052-353180-1941164-352932-176676-1940784-1411576-1412028-2117764-2646812-2294124-1941200-1235136-1941464-2117456-1764564-1765272,1058616-1764556-1940756-1588052-352968-1940952-352712-176676-1940784-1411576-1412028-2117728-2646812-2294124-1941200-1235092-1941252-2117456-1764564-1765272,2338240-3837868-4102864-2180040-2519612-3518376-2919648-1940760-3805808-3664852-2097876-3986404-4211532-3677932-3497920-2804964-3605084-2502016-3141836-3241872,2338656-3838828-4102848-2180040-2518900-3518376-2919648-1940760-3805780-3664852-2097876-3986404-4211216-3677616-3497920-2804648-3605084-2502016-3141836-3241872
3,sorter,ec,40,148460788168,148269513127,0,0,None,2999592-3176116-353156-529620-3352596-3705804-3881756-3528984-2999860-2822864-3528776-3706032-4412668-4764392-4059032-2470528-3529392-2470416-3881512-3352496,2999544-3176116-352968-529444-3352596-3705804-3881756-3528972-2999860-2822864-3528768-3706032-4412668-4764392-4059032-2470528-3529392-2470176-3881464-3352496,6148484-4537136-2897728-3887940-6311748-7244544-6422880-6667872-3780468-5953332-7071140-7845308-8332328-8270452-8176272-6398628-6678188-6186832-7412276-6905152,6149088-4539456-2898940-3890076-6310340-7244544-6422880-6668448-3782036-5953332-7071140-7845308-8332328-8270452-8176272-6398628-6678188-6186832-7412276-6905152
3,sorter,ec,80,296311242286,295926226982,0,0,None,6176260-8116932-8470388-6705796-7057324-7411972-7057908-8645820-2117648-7058164-7234780-7057676-2823808-5646488-6352904-6704824-7058304-2294528-5822460-7234544,6176260-8116932-8470352-6705796-7057324-7411956-7057264-8645820-2117648-7058128-7234780-7057676-2823580-5646232-6352904-6704824-7058288-2293692-5822684-7234748,13474404-15981248-15953276-12761260-14785212-12864244-14646116-15947728-10377400-13199364-12075132-13865096-9793496-10241696-11723988-11910888-11475420-7915060-12998140-12209060,13476516-15988040-15954444-12764600-14784896-12864196-14647104-15947728-10377036-13199364-12075132-13865048-9793496-10241696-11723988-11910888-11475420-7915060-12998140-12208884
3,sorter,rep3,10,35232626641,35221565229,0,0,None,1853328-1321040-60-1058796-1854920-1321040-2119056-1590644-528408-2645616-2911856-1588852-2117852-2117684-264256-1851296-1060644-2115404-1588860-1851404,1853012-1320996-16-1058612-1854920-1321040-2119056-1590644-528408-2645616-2911856-1588852-2117852-2117684-264212-1851296-1060636-2115396-1588860-1851404,4090372-3940448-1577476-2822176-3585952-2537212-3331096-3608564-1940608-4033528-4421164-3122220-3785636-3353744-1467836-3577068-3081024-3148508-2797764-3305268,4090924-3941356-1578636-2823160-3586156-2537560-3331300-3609032-1940956-4033484-4421716-3122220-3785636-3354560-1468040-3577272-3080900-3148712-2797764-3305268
3,sorter,rep3,20,67921120045,67847909219,0,0,None,1853188-2916160-2383232-3440204-4229176-3968436-3704372-2119224-2913640-5021560-3438224-2908196-4757596-2652892-2656508-2908168-2385080-1856856-5021588-2385028,1853188-2916160-2383232-3440204-4229176-3968436-3704372-2119224-2913624-5021552-3438224-2908196-4757356-2652848-2656472-2908152-2385080-1856636-5021588-2385028,4477904-5779376-5176348-7122108-7751808-6357684-6036120-5524164-5671800-9114244-7103532-6331196-8544000-5912808-5330660-6776628-5328468-5924876-8213272-4578380,4479588-5779484-5177592-7122108-7751808-6357760-6036092-5524148-5673204-9114320-7103532-6331196-8544372-5912808-5330660-6776312-5328468-5924876-8213272-4578380
3,sorter,rep3,40,135308093012,135150667359,0,0,None,6876408-5559024-7933456-6093276-6614024-5029120-6615824-5304064-8195840-5559220-7412000-7145256-7672620-7144216-4240060-6350128-5825012-5826880-6084164-5555388,6876408-5559024-7933456-6093276-6614024-5029112-6615788-5303868-8195840-5559220-7412000-7145256-7672620-7144180-4240060-6350128-5825076-5826888-6083836-5555388,13553256-11616852-13939420-11203312-13089068-10944096-13745424-12022416-13993704-13204184-15638696-13621588-14728552-15398764-10077500-11985148-11855104-11419064-12414436-9654436,13555032-11617224-13939580-11206144-13091128-10944096-13745424-12023020-13993704-13204184-15638352-13621588-14728236-15398764-10077500-11985148-11855104-11419064-12414436-9654436
3,sorter,rep3,80,269183981644,268965799964,0,0,None,13758748-11391468-10587788-13238860-14543496-13226148-14025960-13492148-13492756-11641732-12169580-10862728-10858228-11917872-12697768-13231772-15083000-12699800-13761800-11387676,13758748-11391468-10587788-13238860-14543496-13226132-14025960-13492132-13492740-11641556-12169664-10862968-10857660-11917872-12697732-13232012-15082864-12700144-13762124-11387984,27317200-23053448-23380856-28411796-23083632-21158864-30684488-23459488-25704256-26246172-26953464-24981068-22562800-26585784-25441756-24763924-28157932-24841720-27487084-23924584,27320232-23055196-23382788-28412648-23083584-21160828-30686956-23462976-25704256-26246172-26956024-24980704-22562800-26585784-25441708-24763924-28157884-24841720-27487084-23924584
3,word-count,ec,10,11820205619,11824746610,0,0,None,179896-538740-179860-1257072-1435220-897844-1076656-1076424-359212-1076468-718192-897196-660-1075404-538740-1255648-897084-897580-537700-1255300,179896-538732-179588-1257020-1435220-897836-1076656-1076424-359212-1076416-718192-897196-660-1075396-538740-1255648-897084-897536-537700-1255300,186064-549344-191576-1263728-1439848-906140-1082036-1089060-372348-1085520-726720-904096-8672-1087076-544304-1260736-901144-905996-548960-1262648,186588-549984-191600-1264040-1440060-905936-1082036-1089060-371532-1085332-726720-904084-8672-1087076-544304-1260736-901144-905796-548960-1262648
3,word-count,ec,20,24078651522,24081587668,0,0,None,2154100-1255000-359336-1257224-1973604-1972776-1436600-1255988-1435956-1974156-1794104-2867024-1435984-1434704-1795608-1435568-1255996-1974452-1794604-1436304,2154100-1254956-359336-1257188-1973604-1972776-1436600-1255988-1435956-1974140-1793680-2867024-1435984-1434696-1795608-1435568-1255988-1974452-1794604-1436260,2163624-1264880-367484-1268692-1983284-1982148-1446880-1266156-1448612-1983024-1802620-2869520-1444760-1439884-1806868-1446128-1260824-1986580-1802632-1442548,2164948-1265012-367716-1269276-1984768-1982148-1446880-1266156-1448612-1983024-1802620-2869520-1444760-1439884-1806868-1446128-1260824-1986580-1802632-1442548
3,word-count,ec,40,47108930740,47107735471,0,0,None,359372-3050684-4307532-3948936-4304140-4488308-4842520-3587692-3051416-3948228-3767904-3407452-360432-2871172-2154088-4126092-3408144-3767252-4305264-538908,359160-3050684-4307520-3948936-4304140-4488308-4842520-3587692-3051368-3948228-3767904-3407452-360432-2871124-2154052-4126092-3408108-3767252-4304936-538908,367888-3063268-4317736-3960004-4317756-4497024-4853796-3596272-3062004-3958720-3773184-3418108-365544-2878732-2167752-4141768-3418772-3781412-4316064-549380,369608-3063268-4316460-3962152-4317756-4497668-4856584-3596492-3062004-3958720-3773184-3418108-365536-2878732-2167752-4141580-3418772-3781412-4316064-549380
3,word-count,ec,80,94274273317,94260408652,0,0,None,8248012-6101348-6817436-6821008-2332968-2871128-7180052-7179196-6817940-8255872-6097912-7357680-7173904-8253020-7714312-7534876-7178804-6461504-2153708-6637712,8247968-6101348-6817436-6821008-2332968-2871128-7179404-7179196-6817924-8255872-6097912-7357680-7173072-8252968-7714312-7534840-7178788-6461504-2153708-6637712,8259720-6121336-6823056-6836392-2350768-2887456-7192960-7191356-6833612-8267040-6105420-7371856-7186244-8262500-7730088-7551968-7193176-6475000-2171104-6654824,8259720-6121336-6827228-6836392-2350768-2887456-7192960-7191356-6833612-8267040-6105420-7371856-7186244-8262500-7730088-7551968-7193176-6475000-2171104-6654824
3,word-count,rep3,10,1872506720,1877600069,0,0,None,2925680-1604480-1907204-2925656-1849432-1643008-1095396-792808-2397264-1076248-1623736-1643008-1887932-1605108-1056984-1359576-1868880-302888-1868660-850420,2925540-1604480-1907204-2925656-1849432-1643008-1095396-792604-2397264-1076072-1623736-1643008-1887932-1604772-1056800-1359540-1868880-302852-1868660-850420,2934240-1611308-1915116-2932088-1851896-1648840-1102328-800044-2401016-1078676-1630156-1648060-1894408-1613696-1069476-1368132-1873236-308248-1871772-856980,2934240-1611308-1915116-2932088-1851896-1648840-1101964-800044-2400008-1078676-1630156-1648060-1894208-1613696-1069476-1368132-1873236-308248-1871772-856980
3,word-count,rep3,20,2748921257,2753071028,0,0,None,3795128-4246980-2699996-2926196-2925460-4568472-2152172-2983704-2680696-4510656-2983472-3453852-3041084-2152172-3247500-3473108-3247456-2210280-3492380-3775892,3795120-4246980-2699996-2926196-2925452-4568472-2152172-2983464-2680696-4510620-2983260-3453844-3041084-2152128-3247500-3473108-3247456-2210112-3492380-3775892,3802964-4252380-2708632-2935736-2935412-4573920-2160292-2993800-2689440-4517888-2994148-3455756-3047724-2162096-3256388-3474964-3253368-2219664-3498080-3782812,3803672-4254256-2709388-2936172-2935680-4574628-2159900-2993800-2689440-4517872-2993952-3455740-3047724-2162096-3256388-3474964-3253368-2219664-3498080-3782812
3,word-count,rep3,40,3488438904,3490406902,0,0,None,4852584-7306812-5927996-5116148-6193216-4833020-6965472-4607232-6514216-6759136-8570124-6192332-7191172-8305724-5947244-6192156-6739864-9098676-5342272-6475820,4852584-7306812-5927960-5116148-6192684-4833020-6965472-4607184-6514168-6759136-8570124-6192332-7191124-8305724-5947244-6192156-6739828-9098740-5342336-6475688,4862736-7315764-5930344-5130756-6208840-4843060-6975624-4616268-6529804-6770940-8581200-6200360-7203668-8320028-5953184-6197928-6749824-9108000-5347384-6487192,4863876-7318880-5930344-5131212-6210680-4843060-6975624-4616768-6529804-6770940-8581200-6200360-7203452-8320028-5953184-6197928-6749824-9108000-5347384-6486976
3,word-count,rep3,80,6858211583,6849373094,0,0,None,12140416-13028336-12345760-12648544-12629244-13782416-11045736-13930928-13138560-13139136-13988780-15232900-14233668-12081796-8667084-13499544-12307216-16933496-11121132-12365060,12139372-13028336-12345760-12648492-12629220-13782364-11045736-13930928-13138340-13138468-13988744-15232968-14233668-12081796-8667132-13499664-12307328-16933684-11121252-12365384,12150780-13039528-12356336-12667356-12640512-13794128-11065384-13942296-13152128-13161132-14002420-15242984-14244796-12087468-8692208-13509232-12321704-16954720-11142424-12382592,12155072-13042756-12361132-12669612-12645640-13796588-11065384-13944752-13154056-13161132-14002148-15245024-14244796-12091440-8696180-13509196-12321704-16954496-11142424-12382592
4,sorter,ec,10,37036865019,36995683348,0,0,None,882016-176772-1235392-1235560-176916-705964-1411568-529540-882404-882432-1058976-353620-529436-1058800-705664-1058864-882148-882448-705444-529452,882016-176772-1235348-1235356-176916-705920-1411568-529444-882404-882396-1058976-353620-529436-1058800-705664-1058864-882140-882448-705408-529452,1766436-1354536-2073668-2174444-1112264-1401916-2144560-1463576-1764736-1725732-1937728-452116-1612812-2141720-1635268-2086064-1668520-986516-802700-1510064,1767744-1355088-2073872-2175056-1113396-1402264-2144476-1463924-1764408-1725796-1937920-452840-1612812-2141720-1634748-2085736-1669244-985896-802700-1510064
4,sorter,ec,20,74614585252,74545577222,0,0,None,2293700-1764784-1940996-1058908-1940952-1764988-1411780-353152-1764616-353180-353384-1940784-2471432-2117472-1411620-1411860-1587788-1588292-1940236-2293956,2293692-1764776-1940996-1058872-1940952-1764988-1411568-353152-1764616-352968-353384-1940784-2471432-2117472-1411568-1411860-1587788-1588248-1940272-2293948,4045020-3537072-3794492-2241572-3702468-3328960-3194264-2121144-3049052-1537164-1927572-3826240-4237688-3500260-3074568-2204868-3650672-2852452-3710416-4056168,4046140-3537080-3794824-2242156-3703456-3329212-3194264-2121144-3049036-1537164-1927572-3826240-4237688-3500260-3074568-2204868-3650672-2852056-3710416-4056168
4,sorter,ec,40,148880684106,148692655899,0,0,None,4059784-4587124-3528804-529620-529620-529232-3176108-3705568-4587936-3352296-353156-2999860-4587864-3881740-4058452-4058960-3882592-3529276-4411204-3176396,4059784-4587124-3528768-529620-529444-529232-3176072-3705244-4587624-3352296-353156-2999860-4587864-3881740-4058452-4058912-3882592-3529276-4411148-3176384,6794808-8303432-6854320-4094120-4264308-4260676-6326384-7630344-8684728-8251308-941496-3587292-5174648-7397620-8189668-7783620-7419236-7071068-7582044-6510060,6801440-8304636-6854320-4095288-4264308-4261284-6326852-7630812-8685796-8250992-941496-3589040-5174648-7397276-8189668-7783620-7419236-7071068-7582044-6509856
4,sorter,ec,80,296257928355,295835667589,0,0,None,7058836-7411036-6704840-8469876-2646580-6881952-5999492-8822296-8116632-2295500-6352332-7235408-6527348-6882996-6704568-5998944-6175448-7411592-6882200-2470652,7058836-7410984-6704824-8469840-2646580-6881308-5999440-8822280-8116632-2295500-6352076-7235408-6527348-6882996-6704568-5998944-6175396-7411592-6882164-2470424,14345104-14231680-15781096-15143572-9997160-15002608-11706864-16175112-14240328-9292188-13551084-12824060-12945640-12102144-13510020-11711608-11642896-10575700-11462704-7958036,14347092-14236700-15783584-15145548-9999648-15002608-11708028-16174728-14240328-9292140-13552216-12824060-12945640-12102144-13510020-11711244-11642488-10575700-11462704-7958036
4,sorter,rep3,10,34393575990,34371905390,0,0,None,1849608-1853064-2115668-1853048-2383260-1854868-1587340-794424-1587048-2119124-1851412-530828-1587004-3173992-1322852-1590832-1058832-792620-268048-1587144,1849608-1853064-2115668-1853048-2383216-1854868-1587304-794416-1587004-2119116-1851412-530828-1587004-3173992-1322852-1590832-1058612-792620-268048-1587144,3989704-3075472-4119812-4624676-3829288-3804760-3216120-2863264-3080876-3328628-2831584-1435704-3085636-3878500-3067984-3035372-2862104-2643068-1947844-2809476,3990156-3075880-4120544-4625068-3829492-3804992-3216588-2863516-3080876-3328628-2831932-1436352-3085636-3878184-3068632-3035372-2862104-2643068-1947844-2809476
4,sorter,rep3,20,67655858722,67592838836,0,0,None,4230776-3176192-2909848-2647624-2917044-2651452-2913420-3967376-2381632-3174000-3441812-4761192-3443668-2649224-3704196-3173992-2115396-1853180-5025360-2381608,4230776-3175972-2909796-2647624-2917044-2651452-2913420-3967376-2381632-3174000-3441812-4761192-3443632-2649224-3704196-3173992-2115396-1853012-5025176-2381608,6507376-6848648-5770784-5832000-6029228-5425248-6530296-7201204-5704756-6043040-6802976-7976952-6120372-4562048-5982544-6785352-6650148-4589888-8435820-7260868,6508212-6849276-5771076-5832000-6029480-5425072-6530296-7202252-5704740-6041976-6802644-7976952-6120364-4562048-5982544-6785352-6649816-4589888-8435820-7260868
4,sorter,rep3,40,135612820961,135442719734,0,0,None,5557204-7139068-4763016-7410188-6087408-5823220-6350012-5827376-6874584-6353440-5565492-6092888-5823688-8463396-6089244-5825360-7412428-5555380-7408412-6613976,5557204-7139068-4763016-7410188-6087408-5823200-6350012-5827136-6874584-6353404-5565492-6092832-5823264-8463348-6089336-5825140-7412340-5555444-7408604-6614040,12663436-14056828-11413756-13647204-13280056-9597540-12787188-13316972-12632980-13843900-13646044-12786932-8445296-13552388-12904076-12990236-14035636-12074940-14265776-12161480,12666812-14057116-11415432-13649016-13280056-9599140-12787464-13317576-12632980-13843900-13646016-12786932-8445296-13552388-12904048-12990208-14035636-12074940-14265776-12161480
4,sorter,rep3,80,269267170356,269011469871,0,0,None,10061624-12961980-13244668-10589616-14816556-14021148-13231560-15345188-7946064-11914204-14282944-12699748-13758148-9800652-14552576-12435568-12970988-14022388-12703836-12709872,10061208-12961980-13244448-10589616-14815744-14021148-13231560-15345128-7946064-11914204-14282944-12699544-13758148-9800636-14552540-12435552-12970988-14022336-12703776-12709872,23327904-29732408-22339984-22673840-31041504-24308940-28198132-28344740-19590184-25797452-25525940-26343960-23582732-24320676-25816724-23171916-24633488-25831248-28996008-24614436,23328984-29739056-22341660-22677980-31045452-24312008-28199928-28347804-19589868-25798616-25527020-26343960-23584276-24320676-25816724-23171916-24633488-25831248-28995832-24611356
4,word-count,ec,10,12059351657,12063718430,0,0,None,897544-718524-897676-896888-179836-1434300-1256444-1077144-1077696-897084-717308-718956-896844-1076092-896504-288-1256340-895856-359372-200,897544-718524-897676-896844-179836-1434196-1256444-1077144-1077652-897084-717272-718612-896844-1076092-896504-288-1256340-895812-359160-200,904192-728264-906624-906796-188592-1447048-1264992-1080936-1084528-898644-726180-725084-908604-1084112-903924-11204-1267380-905136-364980-10500,904608-728264-906624-906392-188592-1446684-1264992-1080108-1084528-898644-726180-725084-908604-1084112-903924-11204-1267380-904732-364980-10500
4,word-count,ec,20,23532150077,23535290991,0,0,None,1614008-1614148-2152188-1435976-1614628-359380-1971916-1974288-1974672-1794372-1254964-2512712-1973596-1795776-1614452-179800-1614836-1794952-1436600-1615824,1614008-1614148-2152188-1435736-1614628-359160-1971916-1974288-1974672-1794372-1254956-2512712-1973596-1795404-1614452-179588-1614836-1794908-1436592-1615824,1623272-1623796-2162836-1442592-1624064-366960-1981700-1981264-1986872-1802528-1267040-2521752-1979852-1803508-1623828-187516-1624000-1804688-1446012-1622916,1622676-1624456-2164060-1443028-1624500-367408-1981700-1982412-1986872-1802528-1267040-2521564-1979852-1803508-1623828-187516-1624000-1804688-1446012-1622916
4,word-count,ec,40,46785303371,46784346186,0,0,None,3047252-3230508-3769916-2873584-2867996-538896-4661016-4308068-3227680-3768180-3766220-3588772-4128176-4125000-3052060-4128812-359588-2153544-3411240-3589028,3047240-3230508-3769676-2873584-2867996-538896-4661016-4308068-3227680-3768180-3766220-3588724-4128120-4124672-3052060-4128800-359588-2153508-3411240-3589028,3055792-3235568-3777700-2889232-2882412-551420-4671840-4319000-3235308-3784052-3770056-3595496-4137160-4135712-3066220-4139076-372308-2165652-3423752-3602272,3055792-3237528-3777700-2888840-2882412-551028-4671812-4319000-3235308-3783836-3770056-3595496-4137160-4135712-3066004-4139076-372260-2165652-3423752-3602272
4,word-count,ec,80,93886937955,93872793886,0,0,None,7176024-6996852-7176708-7538568-6996832-6642044-7894328-6281324-7534804-7536920-2154956-7178140-6638348-6817588-2334324-2870976-7173344-6992596-8253200-7000516,7176024-6996816-7176708-7537932-6996832-6641992-7894312-6281324-7534804-7536920-2154660-7178140-6638340-6817572-2334564-2870764-7173412-6992716-8253100-7000516,7192528-7008248-7182564-7545868-7011420-6658632-7906940-6296516-7552176-7549408-2169100-7190580-6651528-6834356-2346076-2891744-7184356-7007104-8267276-7011992,7197508-7009956-7186528-7542992-7011420-6663384-7907276-6296516-7552160-7549408-2169100-7190580-6651520-6834356-2343164-2891744-7184356-7007104-8267276-7011984
4,word-count,rep3,10,1552114173,1559101498,0,0,None,1076496-2397052-1340400-792604-831388-2680564-1604676-2132908-1076080-547936-2152128-2719168-1887940-2152224-1604464-1868660-850456-811884-1095624-2661900,1076496-2397052-1340268-792604-831388-2680564-1604464-2132856-1076080-547892-2152128-2719064-1887940-2152224-1604464-1868660-850420-811876-1095624-2661556,1079448-2405676-1354216-798612-835828-2686568-1611388-2137624-1078988-555352-2159804-2725980-1896780-2157904-1608212-1871416-856812-820468-1100260-2669760,1079864-2406560-1354216-799172-836200-2686568-1611600-2137624-1078376-555352-2159804-2725980-1896768-2157896-1608212-1871416-856812-820468-1100260-2669760
4,word-count,rep3,20,2788329712,2792835110,0,0,None,3247640-3208912-4001536-3512068-2944936-3737356-1340452-3266940-3247472-3718272-3267480-2983260-4529892-2964180-3473108-2983296-3756576-3492788-2474140-2416324,3247640-3208912-4001536-3511828-2944716-3737356-1340452-3266940-3247472-3718236-3267108-2983260-4529892-2964180-3473144-2983296-3756576-3492620-2474176-2416360,3253708-3214608-4005568-3521188-2951696-3741332-1349312-3279212-3252192-3735724-3274044-2990912-4534104-2973796-3480884-2991856-3766720-3501036-2482304-2420296,3254032-3214960-4005568-3520984-2951696-3742400-1349312-3278132-3251988-3735724-3274044-2990912-4534104-2973796-3480884-2991856-3766692-3500836-2482304-2420296
4,word-count,rep3,40,2537519302,2538999271,0,0,None,8041880-6024332-4852100-6153964-6740060-6682016-5927960-7229712-6153992-6984760-5399604-6494944-5645728-6211792-6249984-7816204-6211464-7494068-7719572-5097080,8041528-6024332-4852100-6153964-6740060-6682016-5927960-7229668-6153992-6984760-5399604-6494896-5645020-6211792-6249972-7816204-6211464-7493864-7719516-5097144,8053524-6030816-4861648-6158468-6750604-6689008-5940484-7238828-6163664-7000036-5405592-6508372-5659068-6218292-6258832-7824316-6228636-7509868-7728876-5109168,8053524-6029168-4861648-6160324-6750604-6690864-5940456-7238828-6163664-7000036-5405592-6508372-5659068-6218292-6258832-7824316-6228636-7509868-7728876-5109168
4,word-count,rep3,80,5952739599,5944899142,0,0,None,11308460-10290236-13590076-13176884-12160320-14195124-13460404-14478652-13950252-13403208-13687420-11836668-14575156-10212964-12989960-14536424-13743856-8704824-13138340-14819876,11308460-10290236-13590076-13176884-12160320-14195124-13460404-14478600-13950200-13403448-13686736-11836752-14575224-10212912-12989896-14536888-13744180-8705064-13138580-14820356,11316568-10306032-13608412-13183124-12180248-14212796-13479628-14488892-13971768-13418196-13693444-11846556-14598260-10228628-13012664-14552940-13767316-8719584-13159136-14835564,11315944-10307860-13611876-13185748-12180060-14213560-13482100-14493612-13971768-13418196-13693444-11846556-14598176-10228628-13012664-14552940-13767316-8719584-13159136-14835564
