run_id,policy,job_name,submittedAt,launchedAt,finishedAt,hdfs_bytes_read,hdfs_bytes_written,file_bytes_read_map,file_bytes_read_reduce,file_bytes_written_map,file_bytes_written_reduce,total_launched_maps,total_launched_reduces,num_failed_maps,num_failed_reduces,num_killed_maps,num_killed_reduces,data_local_maps,rack_local_maps,other_local_maps,map_startTime,map_finishTime,reduce_startTime,reduce_finishTime
0,ec,wordcount,1548807267473,1548807272051,1548807340339,44236125280,54440040,2625290582,2010341674,4547717900,2017741104,160,36,0,0,0,0,158,2,0,1548807274346,1548807336092,1548807326526,1548807340285
0,ec,wordcount,1548807039947,1548807044583,1548807098880,22118062640,41982670,1311952294,1004230338,2272005541,1011629732,80,36,0,0,0,0,78,2,0,1548807046860,1548807096022,1548807090938,1548807098836
0,ec,wordcount,1548807512437,1548807516977,1548807647099,88472250560,75613949,5249397251,4019280896,9092681146,4026680326,320,36,0,0,0,0,319,1,0,1548807519279,1548807639554,1548807577535,1548807647044
0,ec,wordcount,1548806817157,1548806821529,1548806870194,11059031320,37203508,656287953,502576275,1136892310,509975669,40,36,0,0,0,0,35,5,0,1548806823814,1548806867876,1548806864815,1548806870148
0,rep3,wordcount,1548808506032,1548808510504,1548808639790,87475730624,78649054,5251354954,4022244728,9098423627,4029644158,320,36,0,0,0,0,316,4,0,1548808512798,1548808632658,1548808569976,1548808639774
0,rep3,wordcount,1548808034327,1548808039056,1548808093510,21868874288,43403658,1312993485,1005621307,2274727992,1013020701,80,36,0,0,0,0,77,3,0,1548808041342,1548808089891,1548808085427,1548808093494
0,rep3,wordcount,1548808261225,1548808265558,1548808333313,43737826400,54454393,2625352696,2010622649,4548277239,2018022079,160,36,0,0,0,0,156,4,0,1548808267844,1548808329391,1548808320015,1548808333299
0,rep3,wordcount,1548807815019,1548807820773,1548807867721,10934398232,37016819,656259765,502425457,1136657121,509824851,40,36,0,0,0,0,38,2,0,1548807823090,1548807865640,1548807863074,1548807867705
1,ec,wordcount,1548810672152,1548810676464,1548810732950,22118062640,42418289,1312283027,1004668001,2272882269,1012067395,80,36,0,0,0,0,78,2,0,1548810678754,1548810729654,1548810722857,1548810732900
1,ec,wordcount,1548810908896,1548810913508,1548810982394,44236125280,56223844,2626066556,2012096505,4551164743,2019495935,160,36,0,0,0,0,156,4,0,1548810915801,1548810978107,1548810968997,1548810982342
1,ec,wordcount,1548810446176,1548810451920,1548810500623,11059031320,37950300,656668853,503326576,1138397233,510725970,40,36,0,0,0,0,34,6,0,1548810454215,1548810498298,1548810494215,1548810500578
1,ec,wordcount,1548811158405,1548811162841,1548811293740,88472250560,79928903,5252160743,4023756386,9101585800,4031155816,320,36,0,0,0,0,319,1,0,1548811165116,1548811286588,1548811223386,1548811293686
1,rep3,wordcount,1548811686991,1548811691827,1548811744430,21869029936,42729474,1312485786,1004944127,2273369070,1012343521,80,36,0,0,0,0,74,6,0,1548811694110,1548811741575,1548811738173,1548811744417
1,rep3,wordcount,1548812157328,1548812161633,1548812292598,87475964096,78987211,5251527821,4022354514,9098708061,4029753944,320,36,0,0,0,0,313,7,0,1548812163908,1548812285380,1548812221251,1548812292587
1,rep3,wordcount,1548811462321,1548811467069,1548811517544,10934553880,38178468,656869950,503555766,1138856459,510955160,40,36,0,0,0,0,37,3,0,1548811469386,1548811515313,1548811509372,1548811517526
1,rep3,wordcount,1548811913824,1548811918540,1548811983351,43738059872,55228185,2625717201,2011133330,4549299063,2018532760,160,36,0,0,0,0,155,5,0,1548811920816,1548811979219,1548811973013,1548811983339
4,ec,wordcount,1548821621813,1548821626516,1548821680438,22118062640,43569560,1312873945,1005787832,2275060675,1013187226,80,36,0,0,0,0,78,2,0,1548821628796,1548821677485,1548821673871,1548821680390
4,ec,wordcount,1548822102383,1548822106980,1548822236184,88472250560,75479261,5249616176,4019145971,9092417336,4026545401,320,36,0,0,0,0,318,2,0,1548822109268,1548822228756,1548822167483,1548822236126
4,ec,wordcount,1548821393627,1548821398168,1548821448837,11059031320,37846564,656611566,503222336,1138187358,510621730,40,36,0,0,0,0,35,5,0,1548821400464,1548821446547,1548821440463,1548821448780
4,ec,wordcount,1548821853054,1548821857810,1548821924465,44236125280,54491751,2625141041,2010356639,4547676448,2017756069,160,36,0,0,0,0,159,1,0,1548821860105,1548821920299,1548821913248,1548821924413
4,rep3,wordcount,1548822855201,1548822859567,1548822928555,43737592928,54388025,2625073663,2010252208,4547467864,2017651638,160,36,0,0,0,0,160,0,0,1548822861859,1548822924425,1548822914219,1548822928541
4,rep3,wordcount,1548822405517,1548822410327,1548822458876,10934476056,37856944,656630784,503232725,1138209405,510632119,40,36,0,0,0,0,37,3,0,1548822412624,1548822456122,1548822452648,1548822458860
4,rep3,wordcount,1548822627711,1548822632210,1548822685080,21868874288,42770950,1312452245,1004985737,2273455917,1012385131,80,36,0,0,0,0,75,5,0,1548822634496,1548822682282,1548822678560,1548822685065
4,rep3,wordcount,1548823103674,1548823108381,1548823236574,87476119744,80636321,5252290585,4023974492,9101889003,4031373922,320,36,0,0,0,0,317,3,0,1548823110671,1548823229139,1548823168872,1548823236560
3,ec,wordcount,1548817969592,1548817974382,1548818030156,22118062640,43818508,1313101344,1006038049,2275561469,1013437443,80,36,0,0,0,0,77,3,0,1548817976653,1548818027292,1548818020737,1548818030105
3,ec,wordcount,1548818454130,1548818458807,1548818587743,88472250560,77472750,5250510322,4020832671,9095654687,4028232101,320,36,0,0,0,0,319,1,0,1548818461106,1548818580677,1548818519317,1548818587698
3,ec,wordcount,1548818203467,1548818207932,1548818278048,44236125280,54128800,2624831731,2010028612,4547089139,2017428042,160,36,0,0,0,0,156,4,0,1548818210227,1548818273810,1548818263402,1548818277996
3,ec,wordcount,1548817742936,1548817747475,1548817796217,11059031320,37628788,656454732,503003616,1137749884,510403010,40,36,0,0,0,0,36,4,0,1548817749781,1548817793322,1548817790792,1548817796172
3,rep3,wordcount,1548818978631,1548818983103,1548819035375,21868796464,42573813,1312341476,1004787503,2273056117,1012186897,80,36,0,0,0,0,75,5,0,1548818985385,1548819032565,1548819028470,1548819035359
3,rep3,wordcount,1548818756693,1548818760991,1548818809799,10934320408,36342689,655829372,501748202,1135298793,509147596,40,36,0,0,0,0,36,4,0,1548818763267,1548818807589,1548818804316,1548818809785
3,rep3,wordcount,1548819204501,1548819209013,1548819275193,43737826400,54257289,2625215228,2010315447,4547725647,2017714877,160,36,0,0,0,0,157,3,0,1548819211295,1548819271042,1548819263608,1548819275179
3,rep3,wordcount,1548819449769,1548819454551,1548819582942,87475886272,78800409,5251112108,4022166928,9098333614,4029566358,320,36,0,0,0,0,314,6,0,1548819456840,1548819575783,1548819514035,1548819582926
2,ec,wordcount,1548814319798,1548814324423,1548814378215,22118062640,42262705,1312230940,1004511627,2272567052,1011911021,80,36,0,0,0,0,78,2,0,1548814326710,1548814375388,1548814371767,1548814378159
2,ec,wordcount,1548814558829,1548814563116,1548814628248,44236125280,54730263,2625339444,2010596268,4548157364,2017995698,160,36,0,0,0,0,158,2,0,1548814565421,1548814624124,1548814618608,1548814628204
2,ec,wordcount,1548814805637,1548814810068,1548814940294,88472250560,80163281,5252431659,4023693798,9101461572,4031093228,320,36,0,0,0,0,319,1,0,1548814812353,1548814932896,1548814870551,1548814940238
2,ec,wordcount,1548814093247,1548814098886,1548814147926,11059031320,37359092,656339257,502732585,1137206175,510131979,40,36,0,0,0,0,37,3,0,1548814101158,1548814145680,1548814142181,1548814147875
2,rep3,wordcount,1548815559120,1548815563596,1548815628610,43737826400,56047428,2626135456,2011919636,4550811903,2019319066,160,36,0,0,0,0,157,3,0,1548815565884,1548815624404,1548815619034,1548815628595
2,rep3,wordcount,1548815802567,1548815807460,1548815936591,87475108032,75053869,5249147618,4018827574,9091710685,4026227004,320,36,0,0,0,0,314,6,0,1548815809773,1548815928723,1548815866900,1548815936575
2,rep3,wordcount,1548815330732,1548815335354,1548815389184,21868952112,43953308,1313187056,1006173419,2275831848,1013572813,80,36,0,0,0,0,75,5,0,1548815337634,1548815386491,1548815380706,1548815389171
2,rep3,wordcount,1548815109438,1548815114058,1548815162056,10934476056,36913107,656166061,502321299,1136446701,509720693,40,36,0,0,0,0,35,5,0,1548815116360,1548815159684,1548815157346,1548815162040
0,ec,sorter,1548805803452,1548805808283,1548805849827,88562882240,86046210336,86157948640,86011097984,172088715090,86018510446,320,36,0,0,0,0,320,0,0,1548805810564,1548805835211,1548805817620,1548805849764
0,ec,sorter,1548805598611,1548805603358,1548805627436,44281441120,43023106976,43078974320,43005548992,86044357490,43012961454,160,36,0,0,0,0,152,8,0,1548805605649,1548805621031,1548805612639,1548805627378
0,ec,sorter,1548805212967,1548805217379,1548805234708,11070360280,10755779236,10769743580,10751387356,21511089310,10758799782,40,36,0,0,0,0,36,4,0,1548805219679,1548805224894,1548805225609,1548805234650
0,ec,sorter,1548805405226,1548805409861,1548805426533,22140720560,21511554976,21539487160,21502774496,43022178630,21510186922,80,36,0,0,0,0,75,5,0,1548805412146,1548805419619,1548805419159,1548805426485
0,rep3,sorter,1548806019885,1548806025560,1548806040304,10758237380,10755779236,10769743580,10751387356,21511089310,10758799782,40,36,0,0,0,0,36,4,0,1548806027833,1548806033477,1548806033803,1548806040289
0,rep3,sorter,1548806602949,1548806607791,1548806646895,86065899040,86046210336,86157948640,86011097984,172088715090,86018510446,320,36,0,0,0,0,317,3,0,1548806610102,1548806632467,1548806617089,1548806646881
0,rep3,sorter,1548806209225,1548806213926,1548806230850,21516474760,21511554976,21539487160,21502774496,43022178630,21510186922,80,36,0,0,0,0,78,2,0,1548806216204,1548806223992,1548806223211,1548806230833
0,rep3,sorter,1548806400665,1548806405478,1548806429118,43032949520,43023106976,43078974320,43005548992,86044357490,43012961454,160,36,0,0,0,0,156,4,0,1548806407773,1548806420763,1548806414865,1548806429101
1,ec,sorter,1548809422217,1548809426754,1548809467982,88562882240,86046210336,86157948640,86011097984,172088715090,86018510446,320,36,0,0,0,0,317,3,0,1548809429043,1548809453701,1548809436087,1548809467923
1,ec,sorter,1548809213886,1548809218708,1548809242267,44281441120,43023106976,43078974320,43005548992,86044357490,43012961454,160,36,0,0,0,0,157,3,0,1548809221001,1548809234781,1548809228042,1548809242219
1,ec,sorter,1548808815888,1548808821669,1548808837108,11070360280,10755779236,10769743580,10751387356,21511089310,10758799782,40,36,0,0,0,0,37,3,0,1548808823940,1548808829764,1548808830908,1548808837056
1,ec,sorter,1548809012604,1548809017194,1548809038664,22140720560,21511554976,21539487160,21502774496,43022178630,21510186922,80,36,0,0,0,0,80,0,0,1548809019454,1548809027827,1548809026499,1548809038611
1,rep3,sorter,1548809639035,1548809643563,1548809657679,10758237380,10755779236,10769743580,10751387356,21511089310,10758799782,40,36,0,0,0,0,35,5,0,1548809645842,1548809650723,1548809651783,1548809657665
1,rep3,sorter,1548810229894,1548810234497,1548810273498,86065899040,86046210336,86157948640,86011097984,172088715090,86018510446,320,36,0,0,0,0,316,4,0,1548810236789,1548810259308,1548810243839,1548810273483
1,rep3,sorter,1548809829380,1548809834152,1548809851645,21516474760,21511554976,21539487160,21502774496,43022178630,21510186922,80,36,0,0,0,0,79,1,0,1548809836445,1548809844194,1548809843482,1548809851629
1,rep3,sorter,1548810024976,1548810029613,1548810053567,43032949520,43023106976,43078974320,43005548992,86044357490,43012961454,160,36,0,0,0,0,154,6,0,1548810031877,1548810045229,1548810038906,1548810053550
4,ec,sorter,1548819956117,1548819961031,1548819978629,22140720560,21511554976,21539487160,21502774496,43022178630,21510186922,80,36,0,0,0,0,78,2,0,1548819963290,1548819971934,1548819970320,1548819978574
4,ec,sorter,1548819759777,1548819764388,1548819779743,11070360280,10755779236,10769743580,10751387356,21511089310,10758799782,40,36,0,0,0,0,39,1,0,1548819766679,1548819772295,1548819773622,1548819779695
4,ec,sorter,1548820364989,1548820369652,1548820408799,88562882240,86046210336,86157948640,86011097984,172088715090,86018510446,320,36,0,0,0,0,320,0,0,1548820371941,1548820396705,1548820378992,1548820408743
4,ec,sorter,1548820155324,1548820159694,1548820185287,44281441120,43023106976,43078974320,43005548992,86044357490,43012961454,160,36,0,0,0,0,153,7,0,1548820161983,1548820176621,1548820169084,1548820185228
4,rep3,sorter,1548820968544,1548820973064,1548820998219,43032949520,43023106976,43078974320,43005548992,86044357490,43012961454,160,36,0,0,0,0,155,5,0,1548820975363,1548820989414,1548820982351,1548820998202
4,rep3,sorter,1548820772306,1548820776853,1548820793658,21516474760,21511554976,21539487160,21502774496,43022178630,21510186922,80,36,0,0,0,0,78,2,0,1548820779152,1548820786451,1548820786115,1548820793644
4,rep3,sorter,1548820582141,1548820586732,1548820600721,10758237380,10755779236,10769743580,10751387356,21511089310,10758799782,40,36,0,0,0,0,37,3,0,1548820589035,1548820594633,1548820594999,1548820600706
4,rep3,sorter,1548821175896,1548821180535,1548821219833,86065899040,86046210336,86157948640,86011097984,172088715090,86018510446,320,36,0,0,0,0,317,3,0,1548821182812,1548821205232,1548821189860,1548821219818
3,ec,sorter,1548816112391,1548816117667,1548816133192,11070360280,10755779236,10769743580,10751387356,21511089310,10758799782,40,36,0,0,0,0,37,3,0,1548816119939,1548816125566,1548816126891,1548816133133
3,ec,sorter,1548816308926,1548816313530,1548816331303,22140720560,21511554976,21539487160,21502774496,43022178630,21510186922,80,36,0,0,0,0,75,5,0,1548816315804,1548816323955,1548816322780,1548816331245
3,ec,sorter,1548816507891,1548816512281,1548816537399,44281441120,43023106976,43078974320,43005548992,86044357490,43012961454,160,36,0,0,0,0,158,2,0,1548816514577,1548816528230,1548816521661,1548816537340
3,ec,sorter,1548816717286,1548816721636,1548816760892,88562882240,86046210336,86157948640,86011097984,172088715090,86018510446,320,36,0,0,0,0,316,4,0,1548816723925,1548816749267,1548816730999,1548816760842
3,rep3,sorter,1548817525413,1548817530037,1548817569362,86065899040,86046210336,86157948640,86011097984,172088715090,86018510446,320,36,0,0,0,0,317,3,0,1548817532319,1548817555408,1548817539412,1548817569347
3,rep3,sorter,1548817320100,1548817324536,1548817347580,43032949520,43023106976,43078974320,43005548992,86044357490,43012961454,160,36,0,0,0,0,156,4,0,1548817326827,1548817340069,1548817333849,1548817347563
3,rep3,sorter,1548816934184,1548816938965,1548816953263,10758237380,10755779236,10769743580,10751387356,21511089310,10758799782,40,36,0,0,0,0,34,6,0,1548816941258,1548816946967,1548816947195,1548816953250
3,rep3,sorter,1548817125123,1548817129832,1548817146758,21516474760,21511554976,21539487160,21502774496,43022178630,21510186922,80,36,0,0,0,0,77,3,0,1548817132110,1548817139954,1548817139110,1548817146743
2,ec,sorter,1548813068258,1548813072820,1548813111754,88562882240,86046210336,86157948640,86011097984,172088715090,86018510446,320,36,0,0,0,0,314,6,0,1548813075108,1548813100201,1548813082099,1548813111700
2,ec,sorter,1548812663463,1548812667876,1548812684338,22140720560,21511554976,21539487160,21502774496,43022178630,21510186922,80,36,0,0,0,0,75,5,0,1548812670166,1548812677739,1548812677144,1548812684283
2,ec,sorter,1548812469398,1548812473952,1548812487964,11070360280,10755779236,10769743580,10751387356,21511089310,10758799782,40,36,0,0,0,0,35,5,0,1548812476248,1548812481793,1548812482205,1548812487918
2,ec,sorter,1548812860415,1548812865079,1548812888903,44281441120,43023106976,43078974320,43005548992,86044357490,43012961454,160,36,0,0,0,0,158,2,0,1548812867366,1548812881307,1548812874413,1548812888844
2,rep3,sorter,1548813476816,1548813481491,1548813498373,21516474760,21511554976,21539487160,21502774496,43022178630,21510186922,80,36,0,0,0,0,76,4,0,1548813483779,1548813491587,1548813490758,1548813498360
2,rep3,sorter,1548813875387,1548813879830,1548813919272,86065899040,86046210336,86157948640,86011097984,172088715090,86018510446,320,36,0,0,0,0,313,7,0,1548813882109,1548813904844,1548813889139,1548813919257
2,rep3,sorter,1548813284920,1548813289649,1548813303474,10758237380,10755779236,10769743580,10751387356,21511089310,10758799782,40,36,0,0,0,0,39,1,0,1548813291946,1548813297333,1548813297889,1548813303462
2,rep3,sorter,1548813671631,1548813676252,1548813699013,43032949520,43023106976,43078974320,43005548992,86044357490,43012961454,160,36,0,0,0,0,157,3,0,1548813678547,1548813690256,1548813685550,1548813698996
