run_id,policy,job_name,submittedAt,launchedAt,finishedAt,hdfs_bytes_read,hdfs_bytes_written,file_bytes_read_map,file_bytes_read_reduce,file_bytes_written_map,file_bytes_written_reduce,total_launched_maps,total_launched_reduces,num_killed_maps,num_killed_reduces,data_local_maps,rack_local_maps,other_local_maps,map_startTime,map_finishTime,reduce_startTime,reduce_finishTime,map_exec_time,reduce_exec_time
0,ec,wordcount,1548787995704,1548788000139,1548788049109,11059031320,37151688,656233075,502524224,1136789406,509923618,40,36,0,0,38,2,0,1548788002427,1548788046712,1548788043425,1548788049055,47 44 45 46 43 43 45 41 42 40 41 42 43 46 44 46 45 45 44 42 41 43 41 43 42 42 42 43 44 44 40 45 42 41 42 42 43 43 43 42,49 49 48 49 49 48 48 48 48 49 49 48 48 48 48 49 49 48 48 48 49 49 49 48 49 49 49 49 49 49 48 49 49 49 48 49
0,ec,wordcount,1548788709744,1548788714018,1548788840126,88472250560,79184229,5251593823,4022515528,9098969529,4029914958,320,36,0,0,318,2,0,1548788716295,1548788832865,1548788774471,1548788840079,56 60 61 57 58 58 61 60 59 56 62 60 59 59 59 58 62 58 59 61 58 58 60 62 57 64 61 62 63 61 60 61 61 60 56 58 58 60 57 63 58 59 61 57 60 54 59 59 113 113 119 114 117 116 118 112 116 118 118 116 117 117 114 114 112 109 115 112 111 113 115 117 116 114 116 111 109 114 115 116 108 115 111 109 112 114 115 112 115 113 113 115 114 111 113 115 116 115 116 114 112 112 113 112 116 118 117 116 116 115 113 116 113 117 116 114 112 113 115 115 114 111 111 115 115 116 112 113 63 114 106 67 110 112 108 108 112 109 115 107 107 104 109 110 107 111 64 63 110 67 108 108 108 109 112 108 65 64 66 63 116 113 113 111 112 114 112 114 111 109 110 118 116 115 115 114 115 115 115 110 66 114 110 107 115 110 110 110 110 112 112 110 64 65 61 63 63 60 63 63 67 62 64 62 64 64 66 64 62 61 63 59 62 62 64 63 60 62 61 61 64 63 62 62 65 66 67 64 65 65 65 66 108 108 107 104 103 103 111 64 63 62 62 67 66 66 64 64 64 62 64 64 65 64 63 65 68 62 66 62 63 63 59 60 63 64 62 65 66 62 61 61 60 60 59 61 61 61 61 62 60 61 62 64 64 64 63 64 61 66 63 62 63 64 60 61 63 63 62 59 60 58 60 64 59 57 64 59 62 61 59 63 61 57 59 65 61 64 61 59,126 126 126 126 126 125 125 125 126 126 126 125 125 125 126 125 125 125 125 125 125 125 125 126 126 126 125 125 125 126 125 125 125 125 126 125
0,ec,wordcount,1548788220081,1548788224816,1548788279696,22118062640,43237668,1312881407,1005491240,2274531709,1012890634,80,36,0,0,77,3,0,1548788227099,1548788276733,1548788271221,1548788279650,47 45 46 48 47 46 49 46 44 45 45 49 50 47 45 47 49 45 49 50 48 49 48 48 46 49 47 50 48 48 49 45 47 49 48 49 47 49 48 48 47 46 43 46 47 44 43 44 46 44 44 47 46 46 47 46 47 47 45 47 44 47 47 48 44 49 43 46 49 47 48 52 48 47 46 49 47 47 48 47,54 54 54 54 55 54 55 54 54 54 54 54 55 54 54 55 54 54 54 54 55 55 54 54 54 54 54 54 54 54 54 55 54 54 54 55
0,ec,wordcount,1548788456451,1548788460973,1548788528196,44236125280,54097614,2624955578,2009960580,4546883160,2017360010,160,36,0,0,157,3,0,1548788463253,1548788523971,1548788516517,1548788528140,55 58 54 57 55 55 56 55 54 60 56 54 55 53 53 56 53 57 56 55 57 56 57 57 54 54 56 55 54 54 53 54 62 57 59 56 55 54 56 55 56 56 55 55 55 50 56 53 57 54 50 56 54 53 55 56 51 54 51 51 57 62 53 55 55 56 56 58 53 55 57 55 52 55 60 51 56 57 56 58 55 58 57 56 58 55 57 58 57 57 56 58 57 59 58 57 56 55 57 57 59 58 58 59 59 59 59 61 54 59 56 55 59 59 59 61 54 52 56 57 59 58 57 57 56 58 60 55 56 59 63 60 58 60 60 62 57 60 58 59 63 60 58 61 58 61 58 59 60 58 60 58 60 60 58 59 59 61 58 59,66 66 66 66 66 67 67 67 66 67 66 67 66 67 66 66 67 67 67 67 67 67 66 67 66 66 66 66 67 66 67 66 67 67 66 66
0,rep3,wordcount,1548789236100,1548789240522,1548789294391,21868952112,42706513,1312648703,1005273031,2274223132,1012672425,80,36,0,0,74,6,0,1548789242809,1548789291634,1548789286900,1548789294375,48 45 46 46 49 50 46 47 46 47 50 45 42 46 43 44 47 48 47 48 46 47 49 47 51 46 46 46 46 45 47 46 45 44 44 43 47 46 47 44 46 48 42 45 44 44 44 44 47 45 44 44 45 47 47 48 46 47 46 48 46 50 45 48 48 45 47 50 49 50 48 47 46 46 50 50 49 47 48 47,54 53 54 53 53 53 53 53 53 53 53 53 53 53 53 54 53 53 53 53 53 53 53 53 53 53 53 53 53 53 54 53 53 53 53 53
0,rep3,wordcount,1548789470036,1548789474519,1548789539345,43737904224,54024777,2624966356,2009924634,4546879727,2017324064,160,36,0,0,157,3,0,1548789476794,1548789535283,1548789529105,1548789539330,56 59 55 55 56 57 53 57 55 57 57 57 57 57 57 55 55 57 58 56 60 57 56 57 57 56 58 53 58 54 58 59 59 56 56 59 56 58 58 55 59 58 59 54 59 57 59 57 59 55 59 58 58 59 59 59 61 58 59 58 57 58 57 58 56 59 58 58 58 60 59 56 58 59 58 58 59 59 59 60 59 55 54 50 54 52 57 55 54 55 55 55 58 54 56 55 57 58 58 55 52 55 53 58 57 55 56 57 55 54 55 55 57 54 57 54 55 52 54 55 55 53 54 53 49 52 55 53 59 54 54 55 54 55 53 52 55 53 55 51 56 53 52 56 58 54 55 54 55 53 55 52 55 56 55 55 55 54 57 53,64 64 64 64 64 64 64 64 65 64 64 64 64 64 64 64 64 64 64 64 64 65 64 64 64 64 64 64 64 64 64 65 64 64 65 65
0,rep3,wordcount,1548789725115,1548789729741,1548789860367,87475185856,76280088,5249229716,4019634585,9093260342,4027034015,320,36,0,0,315,5,0,1548789732023,1548789853163,1548789790244,1548789860350,59 60 63 64 60 61 59 60 59 60 61 59 62 63 59 62 63 63 58 61 61 59 62 61 60 63 58 59 58 61 58 65 62 60 64 62 64 62 60 61 55 62 65 62 60 65 63 63 59 59 62 60 61 59 61 62 61 63 64 59 61 61 63 63 62 53 61 60 63 62 58 59 59 62 58 59 55 60 61 62 58 58 58 59 59 60 59 60 54 59 59 61 58 60 61 60 63 64 62 65 59 64 61 62 61 63 63 61 62 62 62 67 63 59 62 57 58 60 62 61 61 58 59 61 55 65 62 63 57 59 58 60 56 60 59 62 61 59 59 53 56 52 115 115 110 109 120 116 112 112 112 115 118 118 109 109 113 113 115 119 117 111 109 109 117 110 112 110 113 113 116 115 107 112 112 113 119 118 110 113 121 118 114 119 119 119 121 118 123 117 119 123 111 111 109 112 109 111 112 111 110 120 116 112 114 109 110 119 112 115 106 113 113 120 110 107 111 105 106 112 116 109 111 113 113 120 110 112 109 115 112 119 110 113 114 113 108 110 112 115 109 113 111 113 115 118 112 111 110 117 112 112 118 121 110 116 64 67 69 64 65 58 64 62 67 110 107 61 63 67 65 64 62 60 65 64 63 65 68 64 61 62 64 63 64 63 65 65 109 114 105 117 104 109 109 108 111 109 108 110 104 111 104 106 101 64 108 106 106 62 103 63 103 106 69 61 110 66 68 108,129 130 129 129 130 130 129 130 130 129 130 130 129 130 130 129 130 130 130 130 130 130 129 130 130 130 129 130 130 130 129 130 130 130 130 130
0,rep3,wordcount,1548789010852,1548789015729,1548789065058,10934320408,37369482,656301129,502742938,1137228161,510142332,40,36,0,0,37,3,0,1548789018023,1548789062263,1548789058002,1548789065043,46 44 44 44 43 41 46 43 44 44 45 44 43 42 42 43 41 41 41 41 44 39 42 41 43 43 44 41 41 44 42 41 43 42 41 44 41 43 40 41,48 48 48 48 48 48 48 48 48 49 48 48 48 48 48 48 48 48 48 49 48 48 48 48 48 48 48 48 48 49 48 48 49 48 48 48
1,ec,wordcount,1548791976826,1548791981338,1548792035082,22118062640,43777030,1313002474,1005996414,2275478594,1013395808,80,36,0,0,75,5,0,1548791983684,1548792032374,1548792027699,1548792035031,45 46 47 46 46 46 47 48 46 45 45 45 47 46 45 46 47 47 45 47 47 46 48 47 46 46 50 47 46 46 47 47 48 49 49 47 46 47 46 47 46 47 48 47 49 48 47 49 48 48 50 48 45 46 48 50 46 48 47 46 48 48 48 47 50 46 44 51 44 47 44 44 46 45 45 49 43 45 46 46,53 53 53 53 53 53 53 53 53 53 53 53 53 53 53 53 53 53 53 54 53 53 53 53 53 53 54 53 53 53 53 53 53 53 53 53
1,ec,wordcount,1548791750520,1548791754868,1548791804053,11059031320,38022904,656730920,503399455,1138543760,510798849,40,36,0,0,39,1,0,1548791757155,1548791802017,1548791798156,1548791804001,45 46 46 42 41 42 42 41 43 47 44 47 47 47 43 45 43 43 42 42 43 41 41 43 42 42 42 45 41 40 41 44 44 43 43 41 42 43 43 42,49 49 49 48 48 48 49 49 49 49 49 49 49 49 49 49 49 49 49 49 49 49 49 49 49 49 49 49 49 49 49 49 49 49 49 49
1,ec,wordcount,1548792209893,1548792214608,1548792282419,44236125280,55394128,2625851292,2011300019,4549634994,2018699449,160,36,0,0,158,2,0,1548792216899,1548792278194,1548792269218,1548792282364,55 56 57 55 55 57 55 58 59 61 59 57 57 55 53 55 57 56 56 55 55 55 53 58 57 59 59 55 57 60 57 61 53 52 55 53 53 55 55 56 55 54 56 56 55 54 52 61 54 56 55 52 55 58 58 57 55 52 54 52 56 54 53 54 53 53 53 54 51 54 51 55 58 58 58 58 61 59 53 56 61 57 58 60 58 56 55 58 60 57 57 55 56 58 56 56 57 51 57 60 54 57 57 56 59 53 57 60 59 57 59 59 60 58 63 59 58 59 57 59 60 58 59 57 58 61 55 58 58 56 59 58 58 59 56 58 62 59 59 63 59 60 58 60 61 60 61 58 60 60 60 60 58 59 63 58 62 60 60 57,67 67 68 67 67 67 67 67 67 67 67 67 67 68 67 67 68 67 67 67 67 67 67 67 68 67 67 67 67 67 67 67 67 67 67 67
1,ec,wordcount,1548792465953,1548792470660,1548792600729,88472250560,76995505,5250092177,4020316911,9094561043,4027716341,320,36,0,0,319,1,0,1548792472936,1548792593387,1548792531226,1548792600672,114 113 113 114 118 120 117 114 112 115 122 112 119 112 117 113 114 115 113 115 120 115 117 119 114 112 112 116 117 119 115 115 116 121 116 113 112 115 122 121 112 117 118 115 122 113 109 110 120 123 121 113 114 114 115 111 113 122 113 120 113 112 109 109 120 110 109 110 116 116 118 109 111 108 113 113 112 114 112 120 109 112 112 108 111 112 112 117 117 112 108 119 109 118 114 108 107 111 116 112 116 111 119 116 108 110 112 118 109 65 111 115 113 108 111 109 65 112 108 111 117 66 65 65 64 67 65 65 63 104 109 109 108 109 111 115 108 109 108 105 108 64 67 111 107 109 109 105 109 112 110 111 109 64 68 62 64 63 62 64 64 62 62 65 63 64 63 65 66 62 68 63 63 62 63 63 64 63 62 66 69 65 64 63 62 60 57 61 61 63 63 62 66 63 63 61 63 62 63 63 60 65 64 62 63 65 62 61 63 65 64 58 62 59 65 64 60 64 64 63 65 62 60 61 58 59 60 61 63 58 62 60 66 62 61 61 63 65 62 64 57 62 60 62 60 62 63 59 60 62 62 63 62 63 63 59 61 65 63 59 62 60 56 61 57 63 60 59 63 63 65 61 62 64 61 63 64 62 64 64 66 61 59 61 55 60 58 59 58 56 62 59 61 60 59 58 58 60 62 57 60 60 61 58 60 57 61 61 58 60 61 59 58 59 60 61 59 58 54 62,129 129 129 128 130 129 129 129 129 130 129 129 129 130 130 130 129 129 130 130 129 129 129 129 129 129 130 129 129 129 129 129 129 130 129 129
1,rep3,wordcount,1548793488399,1548793492703,1548793621529,87475108032,74149451,5248828119,4018343061,9090801648,4025742491,320,36,0,0,315,5,0,1548793494974,1548793614278,1548793553255,1548793621516,118 110 118 117 116 115 115 108 114 114 114 114 109 111 112 112 116 117 110 115 115 114 114 106 106 109 121 111 112 116 110 110 115 113 118 121 112 113 120 114 110 110 117 112 119 110 109 112 112 112 121 120 115 111 121 116 109 114 120 112 116 116 115 115 113 105 109 110 107 108 64 65 64 65 109 65 67 64 64 62 67 106 114 108 108 105 107 106 110 106 107 108 110 112 104 110 117 106 109 107 106 117 114 110 106 108 111 112 106 108 105 111 111 115 116 118 117 114 107 111 111 103 110 114 114 106 114 111 60 63 61 61 59 60 63 57 63 59 62 59 57 61 65 66 65 60 65 63 62 63 64 62 60 66 62 64 62 59 63 62 67 61 63 63 66 60 63 65 60 61 63 60 62 62 66 63 63 61 65 69 64 67 63 64 64 66 64 66 61 65 65 66 62 61 63 62 60 64 61 62 61 59 63 60 57 62 60 64 63 67 63 64 63 57 61 62 60 64 63 63 65 62 58 63 61 58 62 58 59 60 58 61 60 63 62 63 63 66 64 61 59 61 63 61 63 62 58 60 62 63 60 56 60 59 61 63 58 55 60 59 61 56 60 54 56 59 64 59 61 60 59 57 63 52 56 58 58 60 59 59 61 61 60 59 57 59 63 61 63 56 62 59 62 61 56 62 57 113 115 115 120 120 120 119 118 112 115 114 116 115 113 112 117 113 114 121 110 114 114 117,128 127 128 127 128 128 128 128 128 128 128 128 128 128 128 128 128 128 128 127 127 128 128 128 127 128 128 128 128 127 128 128 128 128 129 128
1,rep3,wordcount,1548793233069,1548793237520,1548793303864,43737748576,56089080,2626075682,2011961225,4550894725,2019360655,160,36,0,0,156,4,0,1548793239822,1548793299746,1548793293104,1548793303853,59 58 58 58 60 59 59 61 60 59 59 59 57 60 59 58 58 59 56 61 58 56 58 59 56 57 59 59 59 57 58 59 56 57 58 56 62 59 57 59 60 57 57 58 58 57 55 59 62 57 56 56 59 57 55 58 58 56 57 55 58 58 54 59 55 57 57 56 56 56 56 56 56 58 54 56 56 56 53 55 55 57 57 56 54 51 54 53 56 55 56 53 52 55 55 52 54 54 55 55 52 58 56 54 53 54 54 53 52 54 55 53 54 53 54 54 53 53 55 55 57 54 54 55 55 55 54 54 55 56 53 55 56 53 55 55 56 58 54 55 53 55 54 54 55 53 55 56 57 54 54 55 54 55 54 55 57 58 57 54,66 65 66 66 65 66 65 65 66 65 66 66 66 65 65 66 66 65 66 66 65 66 66 66 66 65 66 65 66 66 66 66 66 66 65 66
1,rep3,wordcount,1548792996741,1548793001461,1548793055541,21868640816,41111429,1311493479,1003355090,2270249148,1010754484,80,36,0,0,79,1,0,1548793003729,1548793052862,1548793047809,1548793055525,48 46 47 47 46 49 47 46 50 47 47 47 49 48 46 49 47 44 45 47 50 46 48 47 47 45 44 43 48 46 48 46 45 44 48 44 46 47 46 45 48 46 43 46 46 43 46 47 49 48 46 48 45 45 51 47 47 47 49 48 47 49 47 46 47 47 49 47 45 48 46 46 47 50 47 51 48 47 44 47,53 53 53 54 53 53 53 53 53 53 54 53 53 53 53 53 53 53 53 54 53 53 53 53 53 53 53 53 53 53 53 53 53 54 53 53
1,rep3,wordcount,1548792771670,1548792776721,1548792826488,10934476056,37618364,656596964,502993005,1137727404,510392399,40,36,0,0,37,3,0,1548792779010,1548792824686,1548792820029,1548792826474,48 43 44 43 42 45 44 41 43 41 43 44 45 46 45 42 44 42 43 41 45 41 42 43 42 41 43 44 41 42 42 41 43 43 43 42 42 41 44 43,49 49 49 49 50 49 50 49 49 49 49 49 49 49 49 50 49 49 50 49 49 49 49 49 49 50 49 49 49 49 49 49 49 49 49 50
4,ec,wordcount,1548803750501,1548803755128,1548803882798,88472250560,78198953,5250690621,4021562218,9097121897,4028961648,320,36,0,0,314,6,0,1548803757395,1548803874606,1548803815759,1548803882741,64 64 59 62 62 60 63 63 64 63 63 59 65 62 66 62 62 63 63 62 62 61 62 59 56 62 61 62 62 61 62 62 63 62 67 57 64 62 65 62 65 65 66 67 62 63 65 67 63 67 63 61 59 63 60 64 63 62 66 63 63 66 67 61 63 56 62 61 63 63 62 66 66 60 63 62 63 63 60 62 62 60 62 57 60 60 58 60 62 63 59 61 62 59 60 58 65 66 62 61 59 60 57 63 62 59 61 61 60 64 59 62 63 60 59 64 63 59 60 65 62 56 64 63 61 64 62 62 115 114 114 115 112 110 119 112 116 114 113 110 116 116 118 112 114 112 115 116 111 109 114 114 111 115 112 116 108 112 113 112 116 114 114 115 113 116 117 112 115 114 114 114 111 114 116 113 115 116 111 111 112 117 115 115 109 113 112 115 112 110 112 116 111 109 109 107 108 112 110 111 108 109 65 106 112 68 111 111 63 70 63 68 61 62 65 64 65 65 63 66 65 65 68 67 110 112 110 111 113 110 108 112 112 114 111 112 107 64 115 108 113 107 112 109 111 112 111 112 108 107 111 109 64 110 109 68 116 106 118 111 115 118 115 116 113 114 115 119 117 116 118 116 116 114 116 118 119 117 114 117 117 119 115 117 114 113 118 114 119 116 58 64 60 61 60 64 61 57 60 58 57 62 56 61 58 59 59 59 58 58 57 59 61 58 58 59 58 60 58 59,126 125 125 126 126 126 127 126 126 127 126 126 126 126 125 126 126 126 126 127 126 125 125 126 126 126 126 126 126 126 127 127 126 126 125 126
4,ec,wordcount,1548803261184,1548803265567,1548803319244,22118062640,43777054,1312974298,1005996464,2275479505,1013395858,80,36,0,0,78,2,0,1548803267837,1548803316247,1548803311895,1548803319196,47 43 48 49 48 50 48 49 50 48 47 44 46 49 48 45 50 49 51 50 50 47 48 48 47 50 49 48 49 49 49 50 45 44 49 47 48 48 48 47 46 46 45 43 47 46 43 48 46 47 46 48 50 46 47 45 47 48 44 50 47 44 45 45 46 46 48 44 45 47 47 48 48 46 47 47 49 49 48 47,53 53 53 53 53 53 53 52 53 53 53 53 53 53 53 53 53 54 53 53 53 53 54 53 53 53 53 53 53 53 53 53 53 53 53 53
4,ec,wordcount,1548803496000,1548803500723,1548803566431,44236125280,54402531,2625251398,2010461378,4548019552,2017860808,160,36,0,0,154,6,0,1548803502995,1548803562208,1548803557202,1548803566380,60 60 58 58 58 58 60 56 58 57 58 56 57 56 57 56 56 57 59 57 55 57 56 58 58 57 54 57 58 57 58 57 56 53 55 59 55 57 55 56 56 55 56 54 54 56 56 55 55 57 53 54 55 57 55 57 54 53 53 54 55 55 54 52 56 57 56 51 55 56 54 56 54 54 58 55 56 55 56 55 53 57 55 56 56 56 56 55 57 55 58 53 55 56 55 55 55 59 54 55 55 59 55 57 54 55 54 55 55 58 56 58 61 59 59 60 60 61 60 58 60 59 60 61 60 61 60 60 57 57 58 60 57 60 58 59 60 57 60 58 59 57 60 59 55 59 57 60 58 57 58 59 56 58 56 56 57 57 55 57,65 65 65 65 65 65 65 65 65 65 65 65 65 65 65 65 65 65 65 65 65 65 65 65 65 65 65 65 66 65 65 65 65 65 65 65
4,ec,wordcount,1548803031930,1548803036685,1548803086827,11059031320,36477381,655906266,501883490,1135569772,509282884,40,36,0,0,37,3,0,1548803038977,1548803084625,1548803079996,1548803086770,44 42 43 42 41 43 41 41 42 42 41 42 44 41 43 44 42 42 43 40 42 42 42 42 41 43 42 42 46 47 46 45 43 42 44 46 48 46 46 46,49 49 50 49 50 50 50 49 49 49 49 50 49 49 49 49 49 49 50 49 50 49 49 49 50 49 49 49 49 49 49 49 49 50 49 49
4,rep3,wordcount,1548804515727,1548804520437,1548804588413,43737826400,54813276,2625369099,2010679536,4548322851,2018078966,160,36,0,0,158,2,0,1548804522720,1548804583988,1548804574875,1548804588397,53 54 55 55 53 55 55 53 52 54 53 51 56 54 52 56 58 55 55 57 55 51 52 54 51 51 52 54 58 55 52 52 53 53 54 52 52 52 56 54 57 55 59 56 56 56 55 56 53 55 58 56 54 54 55 57 55 57 57 55 54 57 55 55 56 54 60 51 53 59 56 57 58 57 57 59 57 57 59 58 59 63 58 60 55 58 57 58 55 54 55 58 59 57 56 56 57 57 59 55 54 59 58 57 57 56 61 53 57 53 57 58 57 56 54 55 58 50 60 57 58 55 55 58 55 58 57 56 56 57 52 54 54 59 60 63 60 59 56 59 61 63 59 59 59 58 58 59 58 57 61 59 56 59 58 63 60 59 57 56,67 67 67 67 67 67 67 67 67 68 67 67 67 67 67 67 67 67 67 67 67 67 67 67 66 67 67 67 67 67 67 68 67 67 67 67
4,rep3,wordcount,1548804278587,1548804283344,1548804337145,21868952112,42685781,1312637378,1005252248,2274183394,1012651642,80,36,0,0,76,4,0,1548804285625,1548804334284,1548804329718,1548804337130,45 43 44 47 46 46 46 44 44 44 47 43 45 44 46 44 48 44 45 48 45 46 47 44 48 45 45 43 47 46 44 48 45 49 46 48 44 47 46 43 45 45 47 45 47 47 47 47 47 47 46 48 47 47 48 46 50 48 44 48 48 46 49 48 45 46 48 47 47 49 49 47 49 48 51 47 48 49 46 44,53 53 53 53 53 54 53 53 53 53 54 53 53 53 53 53 53 53 53 54 53 53 54 53 53 53 53 53 53 54 53 53 53 54 53 53
4,rep3,wordcount,1548804774991,1548804779433,1548804909739,87475886272,78410604,5251080231,4021933056,9097931677,4029332486,320,36,0,0,315,5,0,1548804781713,1548804902626,1548804839907,1548804909723,65 65 64 62 60 65 64 61 60 68 68 65 66 61 64 65 113 64 64 63 61 113 65 108 110 66 67 67 101 67 64 106 64 62 60 62 62 62 60 61 62 64 64 63 61 65 64 59 67 63 65 68 63 58 63 62 63 64 62 63 65 63 67 61 59 60 60 58 62 61 56 64 60 61 61 60 63 59 62 60 61 56 60 61 61 60 61 63 63 60 62 59 65 61 62 61 63 62 62 59 60 63 64 57 63 62 64 62 62 62 63 61 62 62 66 62 59 60 61 61 59 60 56 60 58 61 62 60 53 59 61 58 56 59 60 63 57 60 59 61 61 62 60 60 61 62 57 63 57 61 60 58 60 61 58 58 59 55 58 62 57 57 57 60 59 59 52 59 57 58 57 59 62 58 60 59 60 66 59 62 57 59 118 116 113 117 116 115 115 114 113 117 112 115 115 119 110 113 121 114 120 112 120 110 117 118 117 123 120 117 113 114 111 112 111 112 114 116 111 112 120 114 116 119 115 113 117 112 109 112 115 118 112 111 109 114 109 110 111 114 114 115 119 110 113 116 113 115 116 109 112 116 116 112 112 117 106 103 108 117 112 115 104 103 109 116 105 105 109 108 112 109 113 113 110 120 120 114 115 117 111 117 109 115 108 116 110 112 105 111 104 108 101 109 67 106 107 109 110 65 113 111 107 108 114 115 116 109 113 108 63 106 107 119 109 112 106 107 108 113,130 130 130 129 129 130 129 129 129 129 130 129 130 129 129 130 129 130 129 129 130 130 130 129 130 130 130 129 129 130 129 129 130 129 129 130
4,rep3,wordcount,1548804053220,1548804058066,1548804106542,10934320408,36819804,656081680,502190793,1136122032,509590187,40,36,0,0,36,4,0,1548804060367,1548804104179,1548804101409,1548804106526,44 44 44 46 45 45 44 40 42 41 42 41 40 42 41 46 42 44 43 43 44 42 43 40 42 43 42 41 44 42 43 43 42 42 41 43 44 42 42 41,47 47 48 47 47 47 48 47 48 48 48 47 48 47 48 47 47 48 47 47 48 47 47 47 48 47 48 48 47 47 48 47 48 47 48 48
3,ec,wordcount,1548799984200,1548799988658,1548800118065,88472250560,77995671,5250602460,4021516324,9097102111,4028915754,320,36,0,0,317,3,0,1548799990939,1548800110777,1548800049193,1548800118022,65 65 62 65 67 64 62 113 62 64 110 64 111 113 63 65 105 106 108 114 104 104 106 107 109 116 107 108 110 115 106 114 110 113 116 108 114 116 112 108 111 113 116 112 114 118 111 106 109 112 64 64 106 112 114 112 111 111 113 113 111 117 110 117 60 62 62 58 60 64 61 60 64 62 61 64 64 63 63 65 64 61 61 62 64 62 63 64 63 63 60 59 59 62 58 63 64 66 66 63 65 63 65 65 61 65 66 62 63 63 64 65 66 66 61 64 66 63 59 63 63 66 66 66 66 64 63 65 60 60 61 59 60 61 60 61 59 61 62 61 60 60 62 65 61 63 56 62 60 65 60 63 62 63 64 61 63 61 60 61 64 65 63 64 64 60 64 63 63 65 65 61 59 59 63 67 62 61 62 60 58 59 64 59 59 59 60 63 62 64 63 59 58 62 59 61 55 58 59 59 62 61 56 55 59 58 59 65 58 58 60 58 57 60 58 58 62 60 62 60 60 61 61 60 61 60 59 56 58 114 114 122 116 121 117 114 115 116 110 113 120 118 112 121 113 110 113 114 119 122 116 114 122 120 117 111 117 117 116 111 112 119 113 115 116 110 107 109 111 119 117 113 118 117 121 114 110 113 112 111 113 113 109 119 115 120 116 112 114 110 109 108 110 112 114 116 115 113 120 111 113 115 113 115 110 116 115 114 112 113 115 121 114 113 110 117 111 111 118 112,129 129 129 129 129 129 129 129 128 128 129 128 129 128 128 129 128 128 129 129 129 129 129 128 129 129 129 129 129 129 129 129 128 128 129 129
3,ec,wordcount,1548799494997,1548799499690,1548799553976,22118062640,43590320,1313020680,1005808758,2275101876,1013208152,80,36,0,0,78,2,0,1548799501958,1548799550991,1548799547054,1548799553921,47 46 46 46 45 47 48 46 47 45 48 46 46 45 46 47 43 46 48 46 46 45 47 46 49 48 48 49 49 45 48 48 50 49 45 47 48 47 47 43 44 48 46 47 47 47 49 45 50 50 51 51 47 49 49 49 46 49 48 48 47 49 48 47 49 49 50 47 49 46 46 49 47 48 44 47 47 48 48 51,54 53 54 53 53 53 53 53 54 53 53 53 53 53 53 54 53 54 53 54 53 53 53 53 53 53 53 53 53 54 53 53 53 53 53 53
3,ec,wordcount,1548799728850,1548799733454,1548799800521,44236125280,55435607,2625808278,2011305022,4549578257,2018704452,160,36,0,0,154,6,0,1548799735738,1548799796215,1548799788179,1548799800465,54 56 53 54 56 54 56 56 55 54 55 54 56 55 56 54 56 52 54 54 55 54 55 54 57 56 56 57 55 54 54 55 56 57 57 56 53 52 55 56 58 59 56 56 57 57 58 58 56 54 51 52 57 55 55 59 61 56 55 56 55 56 54 54 55 56 55 54 55 57 57 56 51 55 52 51 56 55 55 52 54 52 55 52 54 55 55 55 57 59 58 58 58 55 58 60 59 58 59 60 57 59 58 60 60 59 62 59 59 60 58 60 59 59 57 58 53 58 60 59 58 58 56 57 59 59 57 58 57 56 58 58 58 58 56 55 59 59 60 57 56 59 59 57 56 59 58 59 58 59 56 58 59 63 61 58 61 59 59 61,67 66 67 67 66 66 66 67 67 66 66 67 66 67 66 67 67 66 66 66 66 66 66 67 66 66 67 66 66 66 67 66 67 66 67 67
3,ec,wordcount,1548799266923,1548799271787,1548799321813,11059031320,37659917,656556153,503034828,1137815329,510434222,40,36,0,0,38,2,0,1548799274088,1548799319332,1548799316136,1548799321765,42 43 44 42 44 43 42 43 42 42 44 44 47 42 44 43 45 46 42 43 41 44 43 43 43 42 44 42 42 43 46 44 43 44 46 43 46 47 47 44,50 50 50 49 50 50 50 50 49 50 50 50 50 49 50 50 49 50 49 50 50 50 50 49 50 50 50 49 50 50 50 50 50 50 50 50
3,rep3,wordcount,1548800288486,1548800293727,1548800341525,10934398232,37410948,656380074,502784614,1137310711,510184008,40,36,0,0,33,7,0,1548800296017,1548800339306,1548800336025,1548800341510,42 46 45 44 43 43 44 44 45 45 42 42 43 42 40 43 43 41 40 42 42 43 43 43 42 41 43 42 40 42 43 43 40 40 42 41 42 41 43 40,47 47 47 47 47 47 47 47 47 47 47 47 47 47 48 47 47 47 47 47 47 47 48 47 47 48 47 47 47 47 47 47 47 47 47 47
3,rep3,wordcount,1548800514296,1548800518529,1548800572305,21868796464,43611102,1312958723,1005829632,2275145103,1013229026,80,36,0,0,78,2,0,1548800520816,1548800569656,1548800564882,1548800572288,49 51 49 47 47 49 48 48 45 48 48 51 46 49 50 49 47 50 49 45 47 48 47 47 48 47 47 47 44 44 44 47 48 46 47 49 46 43 46 50 47 47 46 46 45 45 45 47 46 46 43 46 45 45 44 47 45 45 45 44 46 44 48 46 48 46 45 45 44 47 49 45 49 46 47 46 48 46 47 46,53 54 53 53 53 53 53 53 53 53 53 53 53 53 53 53 53 53 53 53 53 53 53 53 53 54 53 53 53 53 53 53 53 53 53 54
3,rep3,wordcount,1548800748135,1548800752585,1548800818277,43737982048,56690644,2626444939,2012565720,4552106931,2019965150,160,36,0,0,156,4,0,1548800754870,1548800813824,1548800807046,1548800818262,55 59 57 56 57 57 58 58 56 56 57 59 56 60 57 57 58 58 57 57 58 57 61 58 58 57 57 57 57 60 56 57 60 60 58 59 60 56 59 58 59 58 59 59 59 55 59 57 58 60 55 56 55 55 54 55 55 52 51 55 55 55 57 52 55 54 55 52 53 55 54 59 53 54 56 53 53 55 55 55 55 54 53 55 55 56 57 58 52 51 56 53 51 51 53 51 53 53 53 52 53 51 57 53 56 55 56 51 52 52 55 53 54 54 54 52 56 55 56 55 56 57 55 54 55 54 58 57 54 54 57 55 57 57 57 57 54 55 54 54 53 55 55 55 57 57 57 55 58 59 58 57 60 55 58 56 58 59 55 57,65 65 65 65 66 64 65 65 65 64 65 65 65 65 65 65 64 65 65 65 65 64 65 65 65 64 64 65 65 65 65 65 64 65 65 64
3,rep3,wordcount,1548801004152,1548801008636,1548801136310,87475497152,77725985,5250731121,4021245107,9096553556,4028644537,320,36,0,0,315,5,0,1548801010920,1548801129209,1548801068077,1548801136297,112 108 110 112 110 112 115 117 111 109 108 115 115 113 111 114 115 109 116 115 111 112 109 113 109 112 114 115 112 114 113 113 115 114 111 113 111 117 115 111 113 110 119 116 114 114 114 114 110 111 113 114 114 116 116 117 115 114 115 115 114 114 116 115 110 106 114 102 104 105 104 109 109 109 66 105 106 66 105 109 110 109 116 114 105 117 114 110 103 106 109 111 108 110 108 105 114 106 109 110 114 114 114 110 111 104 112 108 109 110 111 112 112 111 110 112 110 112 109 111 113 112 112 111 110 111 111 120 65 60 62 64 60 63 64 63 62 62 59 64 62 60 60 63 63 61 65 65 64 65 63 63 63 64 62 64 63 59 62 62 63 72 64 61 64 66 64 65 63 65 57 64 65 63 62 61 65 65 67 62 64 62 64 65 103 65 68 66 66 65 64 66 64 59 66 59 58 61 61 61 59 56 62 60 61 62 60 57 59 60 61 63 59 61 66 60 63 65 61 63 65 62 66 61 58 61 58 59 63 60 56 57 61 58 63 61 57 61 58 59 58 60 63 62 66 64 62 61 57 62 61 60 57 61 63 55 61 56 57 59 57 59 63 59 54 60 58 60 60 59 58 56 60 57 60 57 59 63 57 61 58 62 60 53 57 59 58 57 59 57 61 59 62 59 61 63 59 63 61 59 58 58 62 64 61 62 115 113 116 116 118 117 119 116 113 112 120 114 110 118,127 126 127 127 126 127 127 127 127 127 127 127 127 127 126 126 127 127 127 127 127 127 127 127 127 127 127 127 127 127 126 126 126 127 127 127
2,ec,wordcount,1548795508087,1548795512663,1548795562686,11059031320,37473192,656536316,502847176,1137437245,510246570,40,36,0,0,37,3,0,1548795514961,1548795560418,1548795556985,1548795562633,44 42 44 45 46 47 46 43 44 43 43 45 42 43 42 44 45 45 46 46 46 48 47 46 42 43 43 42 43 45 42 41 46 44 45 42 42 43 43 47,50 50 50 50 49 50 50 49 50 49 50 50 50 50 50 50 50 50 50 50 50 50 50 50 49 50 49 50 50 49 50 50 50 50 50 50
2,ec,wordcount,1548796223784,1548796228574,1548796359194,88472250560,77889703,5251047295,4021724625,9097641244,4029124055,320,36,0,0,316,4,0,1548796230854,1548796351833,1548796289104,1548796359139,60 56 60 61 58 58 60 55 58 57 57 60 59 60 59 58 59 63 63 63 62 63 64 65 64 64 63 64 64 67 64 62 64 64 66 63 60 60 61 59 60 59 57 61 61 61 63 59 61 57 60 60 61 64 64 61 59 59 60 60 60 61 60 59 58 61 59 59 62 54 60 61 61 59 58 61 59 60 62 59 61 62 67 66 61 62 64 65 61 65 57 65 63 64 63 65 67 63 61 63 65 60 62 61 63 63 62 62 61 61 62 62 59 58 63 60 58 62 63 64 59 61 63 62 62 62 60 61 66 62 64 61 64 62 61 60 61 56 59 61 61 55 63 63 104 61 105 107 110 109 107 64 112 112 114 109 112 114 109 115 104 107 108 108 112 110 62 114 105 63 111 103 114 104 103 106 66 67 63 64 67 107 68 64 65 63 66 64 66 66 64 69 67 65 65 62 60 64 63 62 65 62 61 62 70 62 64 58 116 116 114 112 116 112 119 121 112 111 113 113 112 106 111 111 120 115 120 119 110 116 119 120 116 115 114 113 114 113 113 109 113 110 111 119 116 111 112 117 111 111 110 107 109 112 115 115 113 121 111 114 114 112 118 109 106 108 109 108 108 109 117 112 123 116 119 113 113 118 118 114 113 114 115 118 118 122 115 118 121 120 113 116 113 117 110 109 115 113 110 110 116 116 111 121 112 113 112 117 112 117 116 111 117 114 115 115 120 116 110 113,130 129 130 130 129 129 130 129 130 129 129 130 129 130 129 130 129 129 130 130 130 129 130 129 130 129 130 130 130 130 130 130 129 129 130 129
2,ec,wordcount,1548795735797,1548795740225,1548795795037,22118062640,43331033,1312962964,1005585149,2274718570,1012984543,80,36,0,0,78,2,0,1548795742516,1548795791955,1548795787553,1548795794983,48 47 49 49 48 47 48 48 49 47 47 46 49 49 46 50 50 50 46 49 47 46 45 46 45 45 48 45 47 45 44 45 47 44 47 45 44 49 48 46 46 50 46 48 48 47 48 48 46 48 48 45 47 48 44 50 48 48 49 46 49 50 47 46 48 43 46 48 49 50 51 46 48 48 50 46 49 52 48 48,54 54 54 54 54 55 55 55 54 54 54 54 54 55 55 54 54 54 54 54 54 54 54 54 54 54 54 54 54 54 54 54 54 54 54 54
2,ec,wordcount,1548795971163,1548795975857,1548796041352,44236125280,56607582,2626447984,2012482022,4551936224,2019881452,160,36,0,0,156,4,0,1548795978126,1548796036991,1548796031341,1548796041293,61 58 59 60 59 59 61 58 59 59 60 59 60 58 58 59 59 59 57 57 57 61 60 60 59 60 59 60 58 55 56 55 58 57 57 57 57 57 56 56 57 59 58 57 57 55 56 57 55 57 57 57 57 53 55 55 57 57 57 56 52 55 55 53 59 60 55 55 59 58 60 58 60 57 57 58 61 59 58 58 59 59 60 56 59 56 58 56 56 59 57 57 55 57 58 58 56 55 55 55 58 58 54 56 57 57 56 55 55 54 55 55 55 54 56 55 57 52 51 53 55 56 51 56 57 55 56 56 56 51 56 54 54 55 52 56 54 54 54 57 54 53 53 54 55 56 53 53 55 56 54 56 52 55 54 53 55 55 53 53,65 65 65 65 64 65 65 65 64 65 65 65 65 65 65 64 65 65 65 65 65 65 65 65 64 65 65 65 65 65 65 65 64 64 65 65
2,rep3,wordcount,1548796753585,1548796758262,1548796811610,21868874288,43258415,1312849869,1005475342,2274433979,1012874736,80,36,0,0,77,3,0,1548796760540,1548796808096,1548796804592,1548796811593,42 49 47 45 44 43 50 45 45 47 44 46 43 47 46 48 48 48 47 47 48 49 44 47 48 47 47 50 47 46 48 47 46 46 49 46 48 47 47 49 48 50 46 46 44 44 48 45 45 45 47 46 44 45 46 46 43 44 44 47 45 47 46 47 45 44 48 48 49 49 47 48 47 49 49 47 47 49 48 48,52 52 53 52 53 52 52 52 52 52 52 52 53 52 52 52 52 52 52 53 52 52 52 53 52 52 52 52 52 52 52 53 52 52 52 52
2,rep3,wordcount,1548796529440,1548796533861,1548796582052,10934476056,37659832,656567532,503034664,1137811239,510434058,40,36,0,0,37,3,0,1548796536156,1548796579557,1548796577176,1548796582040,41 43 42 41 43 42 45 42 44 42 45 43 45 42 42 43 44 43 42 43 42 42 41 41 40 44 42 46 42 42 42 45 42 44 44 44 44 43 44 43,48 48 47 48 48 48 48 48 48 48 48 47 47 47 48 48 48 48 48 48 48 48 47 47 48 47 47 48 47 47 48 47 48 48 48 48
2,rep3,wordcount,1548796987551,1548796991827,1548797058201,43737748576,54616204,2625333213,2010481768,4547931864,2017881198,160,36,0,0,155,5,0,1548796994106,1548797053793,1548797046304,1548797058186,58 62 61 59 59 59 58 60 58 57 61 61 61 59 60 58 58 60 58 60 59 55 58 58 59 57 58 57 53 54 52 54 56 58 56 59 59 58 56 57 56 57 56 56 54 56 56 55 52 58 56 56 53 56 54 58 57 55 53 53 55 53 51 57 57 59 60 57 59 59 57 54 59 56 58 57 57 59 59 57 57 56 57 58 56 59 57 58 57 56 58 54 57 54 55 59 55 57 53 54 57 58 59 59 54 56 57 55 56 55 56 57 58 53 55 53 55 52 55 55 55 56 54 54 56 54 54 55 55 56 54 54 53 55 57 54 55 55 52 53 55 57 52 53 53 52 51 55 55 53 53 52 50 55 53 53 56 57 58 58,65 66 66 66 65 65 65 65 66 65 66 65 65 65 65 66 65 65 66 65 65 66 65 65 65 65 65 65 65 65 65 66 65 66 65 66
2,rep3,wordcount,1548797242770,1548797247006,1548797375562,87475652800,77812933,5250678583,4021578469,9097224448,4028977899,320,36,0,0,316,4,0,1548797249275,1548797368212,1548797307486,1548797375546,118 115 121 119 113 114 115 115 118 115 113 120 115 119 109 110 113 108 109 119 117 114 113 111 112 114 111 118 116 120 118 117 112 110 110 115 113 119 118 114 113 112 120 58 56 60 58 55 58 60 61 59 61 58 64 59 55 56 56 62 60 62 56 57 60 62 60 65 64 64 59 61 65 61 64 62 59 64 58 64 64 60 64 62 65 64 64 67 65 65 64 65 62 65 62 67 60 58 61 62 62 59 61 61 61 58 64 59 58 63 65 62 57 64 65 61 63 59 57 59 62 65 63 58 57 61 61 61 61 59 65 54 58 62 64 62 61 63 59 62 65 58 63 60 60 61 61 60 65 64 60 58 61 64 66 60 62 60 61 60 58 60 56 58 63 61 58 62 59 62 57 60 60 57 57 59 57 62 60 65 61 59 61 64 58 58 60 60 62 62 64 60 111 116 112 109 110 107 113 112 116 119 119 107 113 115 115 110 120 110 118 115 114 116 115 117 112 117 116 120 118 115 114 118 115 107 105 111 110 109 106 105 111 110 108 117 113 112 111 110 114 117 117 115 116 118 114 107 108 113 120 110 110 114 114 118 106 64 111 111 62 110 107 107 106 107 105 106 105 106 107 67 114 111 114 107 110 108 109 114 104 111 111 109 107 108 110 116 64 63 64 70 67 66 62 66 65 66 63 69 64 58 65 61 63 64 64 66 68 64 67 63 64 109 65 69 113 105 105 103,127 128 127 128 127 128 128 127 127 128 128 128 127 127 128 128 128 128 128 127 128 128 127 127 127 128 128 128 128 127 128 127 128 128 127 128
0,ec,sorter,1548786503156,1548786507747,1548786524974,22140720560,21511554976,21539487160,21502774496,43022178630,21510186922,80,36,0,0,79,1,0,1548786510033,1548786517965,1548786517145,1548786524913,9 9 10 10 8 9 8 9 10 10 10 10 8 10 10 9 9 10 10 10 10 7 8 9 10 10 10 10 10 8 8 8 7 8 8 8 8 8 8 8 8 7 8 7 8 9 9 9 8 8 8 7 9 8 9 9 7 9 9 9 9 7 7 7 7 7 7 7 7 7 7 7 7 7 7 7 7 7 7 7,17 16 16 16 17 16 16 16 16 17 17 16 16 16 15 17 17 17 16 16 17 16 16 16 16 17 16 16 17 16 15 16 17 16 16 16
0,ec,sorter,1548786307209,1548786312701,1548786328538,11070360280,10755779236,10769743580,10751387356,21511089310,10758799782,40,36,0,0,38,2,0,1548786314981,1548786320602,1548786321927,1548786328482,6 6 8 8 6 6 7 6 7 6 7 7 7 8 8 8 8 7 8 7 7 7 8 8 7 7 7 7 7 7 7 7 8 8 8 8 8 8 6 8,14 15 15 14 14 15 14 15 14 14 14 14 14 14 14 14 15 15 14 14 16 15 15 16 16 16 16 15 14 15 15 14 15 14 15 14
0,ec,sorter,1548786701937,1548786706643,1548786731849,44281441120,43023106976,43078974320,43005548992,86044357490,43012961454,160,36,0,0,152,8,0,1548786708949,1548786724001,1548786716022,1548786731791,7 7 7 7 12 11 12 12 10 12 13 12 13 11 11 11 11 12 10 10 14 13 14 15 13 12 11 12 12 13 14 11 13 12 12 12 14 13 14 13 14 13 14 14 14 14 14 13 11 12 14 14 14 16 16 15 14 14 16 16 16 10 12 13 14 15 13 16 8 6 7 8 7 7 7 7 7 7 7 7 7 7 7 7 8 8 8 8 8 8 8 8 8 8 8 7 8 8 8 7 9 9 10 10 9 9 9 9 9 9 9 7 8 9 7 9 10 11 11 11 11 9 9 12 11 11 9 11 9 9 9 9 15 15 15 16 15 15 15 15 14 16 14 16 15 15 15 15 16 15 16 17 14 15 14 14 15 15 15 16,25 25 23 23 23 23 23 23 22 22 23 23 23 24 25 23 24 23 24 24 22 24 24 24 23 24 24 23 24 24 24 25 23 24 23 23
0,ec,sorter,1548786919141,1548786923491,1548786970315,88562882240,86046210336,86157948640,86011097984,172088715090,86018510446,320,36,0,0,316,4,0,1548786925772,1548786951547,1548786932852,1548786970260,10 11 11 11 11 11 11 11 11 13 13 12 13 11 13 13 13 12 13 12 11 12 13 11 14 12 16 14 12 12 12 12 15 15 15 13 15 13 13 16 16 14 13 14 14 13 13 13 12 16 15 14 17 14 16 15 17 18 16 15 14 12 16 16 7 7 7 7 7 7 7 6 7 7 7 8 7 7 7 7 8 8 7 8 8 8 8 8 8 8 8 8 8 8 8 8 9 8 9 9 8 7 9 8 9 10 9 9 9 9 9 9 9 9 9 9 11 9 9 9 11 11 11 10 11 9 11 10 7 7 24 25 26 25 25 24 25 23 26 26 25 26 25 23 26 26 25 25 25 25 25 26 25 27 26 27 27 26 24 26 27 25 26 26 26 26 26 26 26 27 26 27 26 28 26 27 27 26 27 27 27 28 27 27 27 26 28 27 27 27 28 27 23 22 23 23 22 21 22 22 23 23 23 24 21 23 23 23 23 24 23 23 24 23 23 23 24 22 24 23 23 21 23 24 23 23 24 24 24 25 23 23 17 24 23 22 25 24 24 23 25 24 24 25 22 21 24 23 25 24 23 25 24 24 24 24 17 14 16 16 16 17 18 15 16 15 17 18 18 16 16 17 18 17 19 17 16 17 15 19 15 17 17 19 18 18 18 17 17 20 21 19 19 17 19 20 19 20 20 20 21 19 18 22 17 15 20 20 16 22 16 15 21 21 22 22 21 22 22 20,42 37 37 38 37 38 43 46 39 37 37 46 46 38 45 37 39 38 36 36 38 41 41 45 39 40 45 36 47 37 41 45 44 36 38 39
0,rep3,sorter,1548787344180,1548787348912,1548787366388,21516474760,21511554976,21539487160,21502774496,43022178630,21510186922,80,36,0,0,75,5,0,1548787351196,1548787359220,1548787358166,1548787366370,9 9 10 8 9 8 8 8 8 9 9 9 9 9 9 9 9 9 9 9 8 9 9 9 10 9 7 7 7 7 7 7 7 7 7 7 7 7 7 7 7 7 7 6 6 7 7 7 7 7 7 7 7 7 7 7 7 8 8 7 7 7 8 7 8 8 8 8 7 8 8 8 8 8 8 9 6 7 8 7,16 16 16 17 17 17 17 16 17 17 17 17 17 16 17 16 17 17 17 16 17 17 16 16 16 16 17 17 17 17 16 16 16 17 16 16
0,rep3,sorter,1548787770520,1548787774841,1548787815217,86065899040,86046210336,86157948640,86011097984,172088715090,86018510446,320,36,0,0,315,5,0,1548787777120,1548787800697,1548787785174,1548787815202,17 21 22 23 15 22 22 21 21 20 17 17 21 21 20 19 21 20 20 21 23 21 20 22 21 22 18 20 21 21 20 20 14 15 16 17 17 17 16 17 15 14 17 15 17 15 15 15 17 20 21 15 16 19 16 15 16 14 16 18 18 18 16 18 23 24 24 24 24 23 23 23 23 22 24 23 22 24 22 23 23 23 23 24 23 24 24 24 23 24 24 25 23 24 23 23 23 23 22 22 23 22 22 23 22 23 23 21 23 23 21 22 23 22 23 21 23 23 23 23 23 22 22 23 22 22 22 22 10 10 10 10 10 10 11 10 10 10 10 10 9 9 10 10 11 12 12 10 12 11 11 11 11 10 10 10 10 12 11 11 7 8 7 8 9 9 8 8 7 7 7 7 7 7 7 8 9 9 9 9 10 9 9 9 8 9 8 9 8 9 9 9 14 14 14 13 15 16 16 14 15 14 14 15 14 15 17 17 14 15 14 14 14 15 15 14 15 15 16 15 17 15 16 14 13 11 12 12 11 13 13 12 12 11 11 12 13 12 13 13 12 13 13 13 13 14 13 13 12 13 13 13 14 13 12 15 7 7 7 7 7 7 7 7 7 7 8 7 7 8 8 7 6 7 7 7 7 7 7 25 26 24 25 25 24 25 25 25 24 24 24 24 23 24 24 24 24 24 24 24 24 24 23 23 24 24 24 24 25 24 25 26 24 24 24 25 26 25 23 25,38 37 38 38 39 38 36 39 38 38 39 38 36 38 40 37 39 37 39 37 38 35 38 37 39 38 38 39 38 39 40 40 40 40 39 36
0,rep3,sorter,1548787149501,1548787154131,1548787169323,10758237380,10755779236,10769743580,10751387356,21511089310,10758799782,40,36,0,0,35,5,0,1548787156394,1548787162192,1548787163347,1548787169309,7 7 7 7 8 8 7 7 8 7 7 7 7 7 7 7 7 7 7 7 7 7 7 7 6 6 8 7 7 7 7 6 6 6 6 6 7 6 6 7,15 15 15 15 14 15 15 15 15 15 14 14 14 14 14 15 14 14 15 14 14 14 14 13 14 15 14 14 14 14 14 15 14 14 14 15
0,rep3,sorter,1548787547267,1548787551761,1548787576332,43032949520,43023106976,43078974320,43005548992,86044357490,43012961454,160,36,0,0,158,2,0,1548787554055,1548787567225,1548787561137,1548787576317,10 11 10 11 12 10 10 10 8 10 10 12 10 10 10 9 10 9 9 10 9 9 9 10 9 9 9 9 9 7 9 9 9 7 7 9 7 9 9 7 7 7 7 7 7 7 7 9 7 7 7 7 7 9 7 7 7 6 7 7 7 8 7 7 13 14 15 14 15 14 14 13 14 15 14 15 12 13 15 12 13 13 15 15 13 13 13 12 13 13 13 13 9 11 13 12 12 13 12 13 11 11 11 13 11 12 12 13 13 12 13 13 11 10 10 12 11 12 12 10 12 10 11 11 12 12 10 10 7 7 7 7 7 7 7 8 7 7 15 14 15 15 15 14 15 14 14 14 14 15 15 14 13 15 13 14 14 14 14 14,24 24 22 23 23 24 21 23 22 24 24 22 23 21 24 23 24 21 23 24 24 22 23 21 22 23 23 23 24 23 23 23 23 22 24 21
1,ec,sorter,1548790234680,1548790239262,1548790256358,22140720560,21511554976,21539487160,21502774496,43022178630,21510186922,80,36,0,0,79,1,0,1548790241543,1548790249162,1548790248511,1548790256300,7 7 7 7 7 7 7 7 7 7 7 7 7 10 10 10 9 10 9 9 8 9 9 9 8 9 9 9 8 9 7 7 10 10 10 10 9 10 8 9 10 10 10 9 10 9 10 10 8 8 8 8 8 8 7 8 7 6 7 7 7 7 7 7 9 9 9 9 9 7 8 8 8 8 7 9 8 8 7 7,16 16 16 15 16 16 16 16 15 16 15 16 15 16 15 17 17 17 16 16 16 16 16 16 16 15 16 17 15 17 17 16 17 17 16 16
1,ec,sorter,1548790656671,1548790661246,1548790709390,88562882240,86046210336,86157948640,86011097984,172088715090,86018510446,320,36,0,0,317,3,0,1548790663535,1548790689620,1548790670613,1548790709328,15 17 17 15 16 17 12 16 17 14 16 16 15 17 16 17 14 15 14 13 17 16 16 16 14 14 14 13 13 15 13 14 19 17 17 16 16 18 18 18 17 15 18 20 16 17 16 16 17 15 16 16 15 16 17 15 16 15 17 16 12 16 18 14 11 11 11 11 11 11 11 11 11 9 9 10 9 11 11 11 9 9 9 9 9 9 9 9 7 9 9 9 9 9 9 10 14 12 13 14 15 14 15 14 12 13 12 11 12 13 13 12 12 13 13 12 12 13 12 13 11 11 11 11 11 11 11 12 25 23 25 25 21 25 24 23 25 25 24 25 25 24 21 25 24 23 24 23 25 25 25 24 24 24 24 26 25 24 24 25 27 27 25 28 27 27 27 26 26 25 26 26 26 25 25 27 24 26 26 27 26 26 26 26 26 25 25 24 26 25 25 25 23 21 17 23 19 17 23 22 22 24 23 22 22 21 21 22 18 21 21 20 23 20 22 22 19 18 19 19 19 19 21 18 23 25 24 23 23 23 24 23 24 22 22 23 23 25 24 24 21 23 22 23 23 23 24 23 17 23 19 18 23 20 22 23 28 27 24 27 27 27 28 27 27 27 26 27 26 27 26 26 26 26 26 26 27 26 25 27 26 7 7 7 7 7 7 7 7 7 8 8 9 9 8 9 8 8 8 8 7 7 7 8 7 9 7 8 7 8 8 7 7 7 6 7 7 7 7 9,37 46 37 41 42 42 42 48 38 41 40 38 42 39 37 37 38 40 42 41 38 43 43 38 47 38 36 38 40 37 43 46 37 38 47 44
1,ec,sorter,1548790035596,1548790041230,1548790057100,11070360280,10755779236,10769743580,10751387356,21511089310,10758799782,40,36,0,0,38,2,0,1548790043505,1548790049691,1548790050449,1548790057042,8 6 8 8 6 8 6 7 6 6 7 7 8 6 8 8 6 6 8 8 7 7 8 8 7 7 7 8 7 7 7 7 7 8 7 8 8 8 7 7,15 14 15 14 14 15 15 14 15 14 14 14 14 14 14 15 14 14 15 15 15 14 15 14 14 14 14 14 16 15 15 15 15 14 16 15
1,ec,sorter,1548790436866,1548790441473,1548790466935,44281441120,43023106976,43078974320,43005548992,86044357490,43012961454,160,36,0,0,153,7,0,1548790443762,1548790459549,1548790450826,1548790466878,8 8 8 8 8 8 8 8 7 8 7 8 8 7 8 8 9 10 9 9 9 8 9 9 7 8 8 8 9 9 8 9 7 7 7 7 6 7 7 7 7 7 7 7 7 7 7 7 7 7 12 12 12 12 14 12 11 14 12 13 11 12 9 11 12 13 15 13 12 14 13 13 13 13 12 12 15 13 13 13 14 13 11 11 11 11 9 9 11 11 9 9 9 9 9 11 9 9 10 13 11 11 12 12 13 13 10 11 11 10 11 10 11 11 16 14 16 15 18 17 14 16 15 15 16 15 16 14 14 15 16 15 16 16 16 15 13 15 15 13 16 13 13 14 15 15 14 15 16 16 15 14 14 14 14 15 14 14 14 15,24 24 24 24 24 24 24 24 24 23 24 23 23 24 24 24 25 23 24 23 24 24 24 24 24 24 24 23 25 24 24 24 25 24 24 24
1,rep3,sorter,1548790891347,1548790895566,1548790911532,10758237380,10755779236,10769743580,10751387356,21511089310,10758799782,40,36,0,0,38,2,0,1548790897841,1548790903714,1548790904777,1548790911514,7 8 7 8 7 8 6 7 6 7 7 6 7 6 7 6 8 7 7 6 7 8 7 6 7 7 7 8 7 7 7 7 7 8 7 7 7 7 7 7,14 14 14 14 14 14 14 14 15 16 14 14 14 14 13 14 14 13 15 14 14 15 15 14 15 15 14 14 14 16 15 14 15 15 14 16
1,rep3,sorter,1548791520921,1548791525510,1548791566944,86065899040,86046210336,86157948640,86011097984,172088715090,86018510446,320,36,0,0,314,6,0,1548791527802,1548791551232,1548791534856,1548791566930,10 8 9 10 9 9 7 8 10 10 10 10 9 9 9 8 10 10 10 9 8 10 8 8 12 10 10 10 12 9 10 10 10 11 11 11 10 10 11 10 11 11 12 10 11 11 12 11 14 11 12 11 12 11 11 11 13 13 13 12 13 13 11 13 16 13 13 14 13 12 15 11 15 12 15 12 14 16 16 14 20 15 14 14 15 15 14 12 14 14 15 15 14 15 13 15 15 15 15 15 13 16 16 15 15 16 15 14 16 15 15 15 17 16 16 14 16 14 17 17 19 17 20 17 15 20 16 18 7 7 7 7 7 7 7 7 7 7 6 7 7 7 7 7 7 7 7 7 7 7 7 7 7 7 7 7 7 8 7 7 7 7 7 7 7 9 7 9 8 9 9 7 25 24 25 25 25 25 24 24 25 24 25 24 24 25 24 25 25 25 25 26 15 17 16 20 16 18 21 17 20 20 20 20 21 21 17 17 20 21 22 20 21 21 20 18 21 22 21 20 21 22 20 21 21 21 21 20 20 21 21 21 21 22 20 21 19 21 20 17 21 21 21 21 23 20 22 21 22 21 21 21 21 22 22 21 22 22 22 22 21 24 22 21 22 23 23 23 22 22 22 22 23 23 21 23 23 23 22 22 24 23 24 23 23 22 24 23 23 23 23 23 24 23 24 24 23 25 24 23 24 25 24 24 23 24 25 24 24 23 23 24 24 25 24 23 24 24 23 24,37 39 40 37 39 39 38 39 38 37 39 37 37 37 39 38 39 34 39 35 39 37 38 39 39 37 41 40 38 36 40 41 39 40 37 36
1,rep3,sorter,1548791088023,1548791092755,1548791109986,21516474760,21511554976,21539487160,21502774496,43022178630,21510186922,80,36,0,0,77,3,0,1548791095031,1548791103180,1548791102030,1548791109973,9 9 9 9 10 9 9 9 8 9 8 9 9 8 9 9 10 9 10 10 9 8 8 7 7 8 7 8 7 8 8 7 7 7 8 7 7 8 8 10 9 9 9 9 8 8 9 8 8 8 8 8 7 7 7 7 7 7 7 7 6 7 7 6 8 7 7 7 7 7 7 6 7 7 7 7 7 7 7 8,17 16 17 16 17 17 17 17 17 17 16 16 17 16 15 15 16 17 17 17 17 17 17 17 16 17 17 16 17 17 17 16 16 17 17 17
1,rep3,sorter,1548791294859,1548791299581,1548791324592,43032949520,43023106976,43078974320,43005548992,86044357490,43012961454,160,36,0,0,156,4,0,1548791301859,1548791315727,1548791308959,1548791324576,15 15 15 14 13 14 14 13 15 13 15 16 14 14 14 13 15 16 13 15 14 7 7 8 7 7 7 7 7 7 7 8 7 7 7 7 7 6 7 7 7 7 7 7 8 8 7 8 7 9 9 7 7 8 7 7 7 8 8 9 6 7 9 7 8 9 8 10 9 8 8 8 9 9 8 10 9 9 9 9 9 10 10 11 8 10 10 10 12 11 11 12 10 12 11 10 11 10 11 10 8 12 11 10 10 11 11 10 12 11 10 9 12 12 13 10 11 11 11 12 13 11 12 14 10 13 14 12 12 12 13 13 13 13 12 12 15 13 15 13 12 14 14 13 13 13 14 12 11 15 13 12 15 14 15 15 16 16 13 14,24 24 23 25 22 22 23 24 24 22 22 23 23 24 23 23 23 24 23 24 22 23 24 25 23 24 22 23 23 24 25 23 24 24 23 24
4,ec,sorter,1548801512261,1548801516985,1548801538274,22140720560,21511554976,21539487160,21502774496,43022178630,21510186922,80,36,0,0,79,1,0,1548801519261,1548801527848,1548801526241,1548801538217,9 8 9 9 7 8 8 9 9 9 10 10 9 9 9 8 8 8 8 7 8 8 7 8 8 8 8 7 8 7 7 9 7 7 7 7 7 7 7 7 8 7 7 8 7 8 8 8 7 7 7 7 7 10 9 10 10 9 10 9 7 11 11 11 10 9 10 9 9 9 8 10 9 10 9 10 10 10 10 9,16 16 15 15 16 16 16 15 16 17 16 17 15 16 21 16 16 16 15 16 16 19 18 17 16 16 16 16 16 15 18 18 15 18 15 16
4,ec,sorter,1548801720520,1548801724904,1548801750444,44281441120,43023106976,43078974320,43005548992,86044357490,43012961454,160,36,0,0,150,10,0,1548801727179,1548801742387,1548801734290,1548801750388,17 16 15 16 16 15 15 15 14 15 16 14 14 15 15 15 14 14 15 15 14 15 14 15 14 16 16 14 15 15 16 14 15 16 14 15 15 13 14 15 14 15 14 14 14 12 10 9 14 14 12 14 14 14 13 14 14 13 13 13 14 14 13 14 14 12 13 12 13 13 11 9 13 12 12 13 12 12 12 11 11 13 12 11 13 12 11 12 11 11 11 11 11 10 11 11 11 11 11 11 11 11 11 9 9 10 9 8 11 10 9 9 9 7 10 10 9 9 9 9 9 9 10 7 8 9 9 9 7 8 8 8 8 8 8 7 8 7 8 8 8 9 8 7 7 8 7 7 9 9 8 7 7 7 7 7 7 7 7 7,23 25 24 24 25 24 22 25 24 24 24 25 23 24 24 24 24 23 25 23 24 23 25 24 23 23 25 23 24 23 23 24 23 23 22 24
4,ec,sorter,1548801941523,1548801945910,1548801989168,88562882240,86046210336,86157948640,86011097984,172088715090,86018510446,320,36,0,0,318,2,0,1548801948181,1548801974786,1548801955330,1548801989114,16 18 16 15 18 17 18 19 18 17 19 20 19 18 20 20 17 14 17 17 16 18 16 17 17 15 18 17 17 18 15 17 12 16 16 15 16 15 15 16 18 18 14 17 16 15 14 15 14 15 13 13 13 15 13 13 15 13 17 17 15 16 17 16 23 23 23 24 23 23 24 21 24 23 22 23 24 24 24 22 20 23 23 23 23 21 22 24 23 23 21 24 22 23 22 23 22 21 22 22 16 22 21 18 21 22 22 23 23 23 22 22 21 19 22 21 21 22 20 21 23 21 22 19 17 17 21 17 27 26 26 25 25 27 26 26 26 26 27 26 27 26 27 26 26 27 27 26 24 25 26 25 26 27 27 26 26 25 26 26 26 24 25 23 24 24 24 25 24 24 25 27 23 26 25 23 21 18 24 23 24 24 25 25 22 26 24 23 24 25 23 23 27 27 27 27 27 27 28 26 25 26 26 26 27 26 27 26 27 27 26 29 27 8 8 7 7 8 7 8 8 9 8 9 9 7 8 8 9 7 7 7 7 8 7 7 7 8 8 8 8 8 7 8 8 7 7 7 7 7 6 7 7 7 7 7 14 12 12 14 12 12 12 13 13 14 13 15 15 13 16 14 11 13 12 12 13 12 11 11 12 12 12 12 13 11 12 13 11 11 11 11 11 9 11 11 11 11 12 10 11 11 10 11 9 9 10 9 9 10 9 9 9 9 11 9 9 10 9 9,38 38 40 40 42 38 40 39 39 39 38 39 39 39 42 40 38 40 38 39 38 39 37 37 39 37 39 39 40 40 40 39 43 42 39 38
4,ec,sorter,1548801313382,1548801317955,1548801333770,11070360280,10755779236,10769743580,10751387356,21511089310,10758799782,40,36,0,0,35,5,0,1548801320226,1548801326269,1548801327176,1548801333718,7 7 6 8 7 8 8 8 7 7 7 7 8 8 7 7 6 6 7 7 8 8 8 8 8 8 8 8 7 8 7 8 8 8 8 7 8 8 8 7,15 15 15 14 14 14 14 15 14 14 14 14 14 14 13 14 14 14 14 14 15 15 14 15 15 14 14 14 14 16 16 16 14 16 16 16
4,rep3,sorter,1548802574419,1548802578872,1548802603646,43032949520,43023106976,43078974320,43005548992,86044357490,43012961454,160,36,0,0,157,3,0,1548802581163,1548802594633,1548802588268,1548802603628,7 7 7 7 7 8 8 9 9 9 7 7 9 8 9 8 6 7 7 7 8 7 7 7 6 7 7 7 7 7 7 7 10 10 9 9 10 10 10 10 10 12 12 10 10 10 8 10 10 8 7 10 8 9 7 9 9 7 10 8 8 9 10 10 7 6 7 7 7 7 7 7 7 7 7 7 7 14 14 14 13 14 14 14 14 14 13 15 14 15 14 14 16 14 14 14 11 11 13 11 12 13 12 11 13 13 12 13 13 13 13 13 12 10 10 10 12 11 11 11 11 11 10 12 13 11 12 11 14 15 14 14 14 11 14 13 14 13 14 14 14 14 13 13 13 12 13 12 13 13 13 12 13 13 13 13 13 13 16 13,25 23 24 22 23 24 24 23 24 21 24 24 24 24 23 22 23 23 23 22 24 22 24 23 22 23 22 22 24 21 24 24 24 22 25 23
4,rep3,sorter,1548802170546,1548802176117,1548802191033,10758237380,10755779236,10769743580,10751387356,21511089310,10758799782,40,36,0,0,37,3,0,1548802178413,1548802183647,1548802185330,1548802191018,6 6 6 6 6 6 6 6 6 6 7 6 7 6 7 7 7 7 7 7 7 7 7 7 7 7 7 7 7 7 7 7 7 7 7 7 7 7 7 7,14 14 13 14 14 14 14 14 14 14 14 14 14 14 14 14 14 14 15 14 13 14 15 15 15 14 15 15 14 15 15 15 15 15 14 14
4,rep3,sorter,1548802801711,1548802806320,1548802847321,86065899040,86046210336,86157948640,86011097984,172088715090,86018510446,320,36,0,0,315,5,0,1548802808629,1548802832570,1548802815647,1548802847305,7 7 7 7 6 7 7 7 7 7 7 7 7 7 7 7 8 7 7 7 7 7 7 7 8 7 7 9 7 9 7 7 7 7 7 7 7 7 7 7 12 10 10 12 10 11 12 10 11 12 11 13 10 11 10 12 13 11 12 13 12 13 11 10 13 12 11 15 14 11 11 13 9 9 8 7 9 7 9 9 9 8 10 9 8 9 9 9 10 9 11 10 9 10 10 10 10 8 11 10 12 10 10 10 15 16 16 16 14 16 17 15 15 16 17 15 15 16 15 15 16 16 16 14 15 16 16 14 14 18 21 14 17 15 17 16 13 13 13 14 11 13 11 11 15 15 13 12 13 12 14 12 16 14 16 17 14 15 16 13 15 15 14 14 15 15 14 14 21 22 21 20 20 22 21 20 22 22 23 20 17 20 21 22 21 22 22 22 21 22 21 22 21 22 21 22 20 22 22 22 16 14 16 18 20 18 15 15 16 20 20 21 17 16 21 16 20 19 19 20 18 15 21 21 21 20 20 21 17 19 20 20 24 24 24 23 24 23 25 24 24 24 23 23 23 23 25 23 24 24 24 24 24 23 24 24 23 24 24 25 24 24 23 24 22 22 23 22 22 23 21 22 22 23 24 23 22 23 22 22 23 23 23 23 20 22 23 22 22 26 24 24 23 22 22 23 24 25 24 24 25 25 24 25 25 25 25 25 24 24 24 25 25 25 25 24 24 25 25 25,37 41 39 38 40 39 38 40 36 39 39 38 39 39 38 39 40 39 40 39 39 38 40 38 40 39 39 38 39 40 39 38 37 37 39 39
4,rep3,sorter,1548802369323,1548802373988,1548802391231,21516474760,21511554976,21539487160,21502774496,43022178630,21510186922,80,36,0,0,79,1,0,1548802376279,1548802384452,1548802383245,1548802391213,9 9 10 10 9 9 9 9 9 9 9 10 8 8 8 8 8 8 9 7 9 9 9 9 9 9 9 8 7 8 8 8 7 8 8 7 9 7 8 8 8 9 9 8 8 7 7 8 8 7 7 7 7 8 8 7 7 7 7 7 6 7 7 7 7 7 7 7 7 7 6 7 7 7 7 7 7 7 7 7,16 16 16 16 17 17 16 17 16 17 16 17 17 16 17 16 17 16 16 17 16 16 17 17 16 16 16 17 17 17 15 17 16 16 17 15
3,ec,sorter,1548798179227,1548798183949,1548798224052,88562882240,86046210336,86157948640,86011097984,172088715090,86018510446,320,36,0,0,319,1,0,1548798186223,1548798211475,1548798194262,1548798223993,26 27 27 27 27 27 26 26 27 27 25 25 25 26 26 25 26 27 25 26 25 26 26 26 26 26 27 26 27 26 27 27 26 26 26 26 26 25 27 26 27 27 25 24 24 23 25 24 25 25 22 27 25 24 24 23 25 23 25 26 24 25 23 25 25 25 26 25 25 24 27 25 25 25 24 24 24 23 24 23 24 23 24 23 25 24 23 23 22 23 24 24 24 24 24 25 24 23 24 25 23 25 23 26 25 24 22 18 19 19 21 21 21 22 23 23 21 21 15 23 23 22 23 21 21 18 23 23 23 23 23 24 24 23 22 16 23 23 18 17 17 18 16 15 14 18 17 17 17 18 18 17 19 17 19 16 14 20 18 18 18 17 17 16 18 20 19 18 20 20 16 15 16 15 14 15 16 16 16 18 15 15 16 17 16 16 12 15 16 15 16 15 16 14 18 17 17 16 15 17 18 17 12 13 12 12 14 12 13 11 14 15 13 16 15 14 13 12 15 13 14 13 15 14 14 16 14 17 14 13 13 13 14 14 11 11 9 10 10 9 9 11 12 11 9 11 11 10 11 11 10 11 11 11 13 11 11 11 13 11 12 11 12 12 12 14 7 8 8 8 7 8 8 8 8 8 8 8 9 9 9 10 9 9 8 9 9 7 9 9 8 9 9 9 10 9 10 9 7 7 6 7 7 7 7 7 7 7 8 7 8 7 8 8 8 8 8 8 7 8,40 40 37 36 38 36 37 37 37 37 37 38 36 39 38 37 37 37 38 39 36 37 37 37 38 40 38 37 38 38 37 36 37 37 37 38
3,ec,sorter,1548797956913,1548797961373,1548797986817,44281441120,43023106976,43078974320,43005548992,86044357490,43012961454,160,36,0,0,154,6,0,1548797963673,1548797978268,1548797970706,1548797986763,7 7 7 7 7 6 7 7 7 7 7 7 7 7 7 8 7 9 11 12 12 11 12 10 10 11 13 11 11 11 13 12 12 9 9 9 9 8 10 9 9 11 11 11 11 11 10 9 11 8 10 8 8 9 8 9 7 8 9 9 9 9 9 9 9 8 8 7 7 8 8 8 7 8 8 8 8 8 8 8 8 15 15 15 15 15 16 15 15 15 15 15 16 15 15 16 16 12 15 15 15 15 14 14 13 13 16 12 14 12 13 15 15 14 12 14 14 14 14 12 15 14 13 14 14 14 13 13 13 12 13 12 11 12 12 13 12 13 12 12 12 11 13 14 9 14 15 13 16 15 15 16 15 16 16 15 15 17 16 16,24 23 22 23 24 23 23 23 23 23 23 23 22 23 23 22 22 22 24 25 23 24 22 22 23 25 22 24 22 23 25 24 23 25 24 23
3,ec,sorter,1548797552815,1548797558180,1548797573836,11070360280,10755779236,10769743580,10751387356,21511089310,10758799782,40,36,0,0,38,2,0,1548797560459,1548797566451,1548797567390,1548797573780,7 7 6 7 6 8 8 8 8 8 7 8 8 7 7 7 6 7 7 7 8 8 6 7 7 7 7 8 8 8 8 8 7 8 8 8 8 7 7 8,14 14 14 14 14 15 14 14 15 14 14 14 15 14 14 14 14 14 14 14 14 14 14 13 14 14 15 15 15 16 15 15 15 15 15 15
3,ec,sorter,1548797752857,1548797757620,1548797775610,22140720560,21511554976,21539487160,21502774496,43022178630,21510186922,80,36,0,0,77,3,0,1548797759906,1548797768371,1548797766919,1548797775554,7 6 7 7 7 7 7 7 7 7 7 7 7 7 7 7 7 8 10 9 8 9 8 8 9 10 10 8 10 10 10 9 9 9 10 10 10 10 10 10 8 11 10 10 10 9 10 10 8 8 7 8 8 8 8 8 7 7 7 7 8 8 7 7 9 9 9 8 8 8 8 8 9 9 9 9 7 8 9 7,16 16 16 16 16 16 16 16 16 15 17 16 16 15 15 17 16 16 15 16 17 17 16 16 16 17 18 17 17 16 16 15 17 18 17 17
3,rep3,sorter,1548798405044,1548798409773,1548798425702,10758237380,10755779236,10769743580,10751387356,21511089310,10758799782,40,36,0,0,38,2,0,1548798412049,1548798417966,1548798419009,1548798425687,7 6 7 7 7 6 7 7 6 7 6 7 7 7 7 7 7 7 7 7 7 7 7 7 7 6 7 8 7 7 7 8 7 7 7 7 7 8 8 7,14 14 14 15 14 14 14 14 15 14 15 13 14 14 14 15 14 15 15 15 14 14 16 14 14 14 14 14 14 15 14 15 15 15 15 15
3,rep3,sorter,1548799036649,1548799041110,1548799081361,86065899040,86046210336,86157948640,86011097984,172088715090,86018510446,320,36,0,0,317,3,0,1548799043399,1548799066749,1548799050441,1548799081344,25 25 25 24 24 24 25 23 25 23 25 25 25 24 25 23 24 24 24 23 24 25 23 24 24 25 24 23 24 25 24 24 25 25 25 24 25 25 25 25 25 25 25 25 25 22 21 22 22 22 23 23 21 22 23 23 22 22 20 23 22 21 22 21 21 21 21 21 22 21 21 20 20 22 20 22 20 23 23 24 24 23 22 24 24 23 23 23 23 24 24 23 23 23 22 22 22 22 23 22 22 23 24 22 22 24 22 22 22 18 16 17 17 18 17 15 16 17 17 21 16 20 17 18 17 15 15 14 15 16 15 16 15 18 15 15 17 15 17 16 15 21 21 21 20 21 21 22 22 21 21 21 16 22 21 19 21 15 14 16 16 21 19 21 20 20 17 20 20 21 21 21 20 14 14 11 11 11 13 13 11 13 13 13 15 13 12 13 16 12 11 13 12 12 10 12 11 12 12 13 11 10 13 11 13 15 14 13 16 15 14 16 15 15 15 15 15 16 16 15 16 14 15 14 14 14 12 13 13 14 16 15 15 15 15 13 15 7 7 7 9 7 7 9 8 9 9 8 9 8 8 8 7 7 7 7 7 7 7 7 7 7 7 7 7 7 9 7 7 9 9 10 10 10 10 10 10 11 10 10 11 11 11 10 11 9 9 8 10 10 8 10 10 9 9 9 10 10 10 10 10 7 7 7 7 7 7 7 7 7 7 6 7 7 7 7 7 7 7 7,39 39 39 36 38 39 37 35 38 37 38 39 39 38 38 38 38 39 39 39 39 39 39 40 38 38 39 38 40 36 38 36 37 36 38 40
3,rep3,sorter,1548798811287,1548798815757,1548798840349,43032949520,43023106976,43078974320,43005548992,86044357490,43012961454,160,36,0,0,156,4,0,1548798818030,1548798831979,1548798825140,1548798840335,7 8 7 7 6 7 8 7 6 7 7 7 7 7 7 7 11 10 10 12 10 12 9 9 10 10 10 12 10 10 10 12 10 9 9 9 10 11 11 10 9 9 10 10 10 9 9 11 9 9 9 9 9 9 9 7 7 9 9 7 7 7 9 7 7 7 8 8 7 8 7 8 7 7 7 7 7 8 7 7 14 15 14 14 14 15 14 14 14 14 14 14 14 16 14 13 13 14 13 13 14 13 14 13 12 13 13 13 13 14 13 13 13 12 13 12 13 13 13 15 13 12 12 11 13 14 11 12 11 12 12 12 11 11 10 12 11 12 10 10 11 12 10 10 16 16 14 14 13 14 15 14 15 14 14 13 15 14 14 14,23 24 24 24 24 23 21 21 23 24 24 23 24 23 22 22 23 24 23 24 23 23 23 23 23 23 24 22 23 23 24 23 22 23 24 22
3,rep3,sorter,1548798604053,1548798608623,1548798626258,21516474760,21511554976,21539487160,21502774496,43022178630,21510186922,80,36,0,0,74,6,0,1548798610906,1548798618267,1548798617894,1548798626243,8 8 8 9 8 9 9 9 9 8 8 8 8 8 9 9 9 9 9 8 9 9 9 9 8 9 9 9 9 9 9 10 7 7 7 7 6 8 7 7 7 7 6 7 6 6 7 7 7 7 8 8 8 8 8 7 7 7 8 7 8 8 8 8 7 7 7 7 8 7 7 7 7 7 7 7 7 6 7 7,16 17 17 16 15 16 16 17 16 16 16 15 17 16 15 16 17 18 17 17 16 16 17 17 16 16 16 16 18 17 16 17 17 17 16 16
2,ec,sorter,1548793995724,1548794000200,1548794017105,22140720560,21511554976,21539487160,21502774496,43022178630,21510186922,80,36,0,0,77,3,0,1548794002489,1548794011153,1548794009489,1548794017049,7 7 7 11 10 9 8 11 9 10 10 10 7 10 10 9 10 10 10 10 10 10 10 10 10 8 8 9 10 10 10 10 9 9 8 8 9 9 9 9 8 9 9 7 7 8 9 9 8 7 8 7 9 8 7 9 7 7 7 8 7 8 7 7 8 7 6 7 7 8 8 8 7 7 7 7 7 7 7 7,16 16 17 16 16 17 16 16 16 17 16 17 16 16 16 16 16 16 17 17 16 16 16 16 16 16 16 16 16 16 16 16 16 16 16 17
2,ec,sorter,1548794421268,1548794425887,1548794466756,88562882240,86046210336,86157948640,86011097984,172088715090,86018510446,320,36,0,0,317,3,0,1548794428162,1548794454108,1548794435287,1548794466704,14 12 12 12 14 13 14 12 12 14 15 15 13 14 13 13 12 11 12 10 13 10 12 11 13 12 13 12 13 12 12 12 11 9 9 12 12 9 10 11 12 10 11 11 11 11 11 10 9 9 9 9 9 9 9 10 8 9 9 10 9 9 11 9 8 7 7 8 8 8 8 8 7 9 9 8 9 8 8 9 7 7 7 7 7 7 6 7 8 8 8 8 8 8 8 8 7 7 7 7 7 7 7 7 7 23 22 23 24 23 23 23 24 23 24 25 24 17 23 20 18 23 21 23 22 22 23 23 22 23 24 22 23 23 23 23 23 18 16 22 19 21 22 23 21 22 21 22 22 21 22 19 23 20 21 21 20 21 18 24 20 21 22 22 21 15 23 19 16 19 19 19 18 17 20 21 20 17 14 18 16 18 20 19 18 16 16 15 17 17 17 16 15 15 15 17 17 18 18 16 18 12 14 16 14 17 14 15 17 17 17 17 17 17 17 18 17 14 15 15 13 13 13 15 13 14 15 12 18 13 14 16 17 27 26 28 27 26 25 27 28 27 27 24 27 27 26 27 27 27 27 27 26 26 26 27 26 26 26 26 26 27 26 26 26 27 26 26 28 26 26 27 24 24 25 25 24 25 26 27 27 26 25 24 27 25 26 26 24 24 23 24 24 24 25 24 24 25 21 24 23 22 25 23 25 24 22 24 25 24 25 23 21 25 24 23 23 21 24 22,36 37 36 38 39 40 38 40 38 40 38 38 38 38 37 39 39 41 39 36 38 39 39 36 39 40 40 38 37 37 37 38 39 37 39 40
2,ec,sorter,1548794198980,1548794203797,1548794229775,44281441120,43023106976,43078974320,43005548992,86044357490,43012961454,160,36,0,0,152,8,0,1548794206082,1548794222356,1548794213125,1548794229719,8 9 7 8 8 8 8 8 8 8 8 8 8 7 8 8 8 7 8 8 8 9 8 9 9 9 9 9 9 9 9 9 7 7 7 7 7 7 7 7 7 6 7 7 7 7 7 7 12 12 13 12 10 11 9 13 12 12 11 12 14 13 13 12 14 11 12 14 13 13 14 14 13 14 15 13 13 13 12 13 9 9 9 9 11 10 9 9 9 7 11 11 11 11 10 11 7 11 10 11 10 11 10 9 11 11 10 11 12 12 13 11 16 15 15 15 15 16 15 15 17 17 17 17 17 17 18 17 13 15 15 13 13 12 14 14 16 15 15 14 14 15 15 15 13 12 14 14 13 15 15 15 13 15 15 14 14 12 16 15,25 24 24 25 24 25 25 25 24 23 25 25 24 24 24 24 24 24 26 24 25 26 24 24 25 24 24 25 24 25 24 25 24 25 24 24
2,ec,sorter,1548793797153,1548793801626,1548793817681,11070360280,10755779236,10769743580,10751387356,21511089310,10758799782,40,36,0,0,36,4,0,1548793803925,1548793810046,1548793810867,1548793817620,8 8 8 7 8 7 7 8 7 8 8 7 8 8 8 7 6 6 8 6 6 7 7 6 7 7 7 7 8 8 7 8 8 8 8 7 7 7 7 8,16 15 15 15 15 15 16 16 15 14 15 14 15 15 15 14 15 14 14 14 14 14 14 14 14 14 14 14 14 14 14 14 14 14 14 14
2,rep3,sorter,1548795278603,1548795283027,1548795323241,86065899040,86046210336,86157948640,86011097984,172088715090,86018510446,320,36,0,0,319,1,0,1548795285298,1548795309180,1548795293370,1548795323226,13 13 15 13 13 13 14 13 13 14 13 13 13 12 15 13 15 14 15 14 16 15 15 15 15 14 14 14 15 14 14 15 11 11 12 11 11 10 12 12 10 11 12 10 12 11 11 11 12 11 11 13 13 13 13 11 13 11 11 12 13 12 11 11 10 8 10 9 8 9 10 9 9 8 8 7 9 9 9 9 10 9 10 10 10 10 10 11 10 10 9 10 10 8 10 11 7 7 7 7 7 8 7 7 7 7 7 8 7 7 7 7 7 8 7 8 8 7 9 7 7 7 7 7 8 8 7 8 22 21 22 22 22 22 22 23 22 23 23 23 22 21 24 22 24 23 23 23 23 24 23 24 24 23 22 22 24 23 22 24 23 21 21 21 18 24 21 21 20 21 20 20 21 17 21 22 23 22 22 23 21 23 22 23 22 20 22 22 23 23 23 22 17 17 17 17 17 16 18 20 16 16 16 17 17 16 17 17 21 20 22 17 17 21 23 22 16 21 20 17 21 18 21 20 13 14 15 15 16 14 16 15 15 16 15 14 15 14 15 14 16 15 17 15 15 16 17 17 16 16 17 15 17 14 15 16 25 24 24 24 26 25 26 25 24 23 24 25 23 23 25 24 25 26 25 23 25 24 24 25 25 24 24 25 23 25 23 24 24 24 24 22 23 24 24 25 23 24 24 24 24 23 25 26 25 24 24 24 23 24 25 25 24 7 7 7 7 6 7 7,39 39 36 38 39 39 38 36 40 38 39 40 37 37 38 37 38 38 37 39 38 40 38 38 38 39 39 40 37 39 39 39 37 37 38 39
2,rep3,sorter,1548794648110,1548794652660,1548794668086,10758237380,10755779236,10769743580,10751387356,21511089310,10758799782,40,36,0,0,36,4,0,1548794654945,1548794660532,1548794661882,1548794668070,7 8 7 7 7 7 6 7 6 7 7 7 7 7 7 7 7 7 7 6 7 7 6 7 7 6 7 7 7 7 7 6 6 6 7 6 7 7 7 7,15 15 14 15 15 15 15 15 14 14 15 15 15 15 14 14 14 14 15 14 14 14 15 15 14 13 14 14 14 14 14 14 14 14 14 14
2,rep3,sorter,1548795054244,1548795058671,1548795083121,43032949520,43023106976,43078974320,43005548992,86044357490,43012961454,160,36,0,0,158,2,0,1548795060979,1548795074085,1548795067953,1548795083105,15 13 14 13 13 14 15 14 13 15 15 15 14 14 14 14 15 14 14 15 15 13 13 14 14 13 13 13 14 13 12 13 11 13 13 11 13 13 14 13 12 13 15 14 13 13 14 13 14 12 13 14 15 13 12 13 13 10 10 11 12 11 11 10 11 10 8 10 12 8 11 11 11 11 13 11 11 13 12 11 13 11 10 10 12 12 11 13 11 9 10 9 9 11 8 8 9 9 9 8 9 7 9 7 9 10 10 10 10 10 9 10 10 10 10 9 9 10 8 10 8 7 7 7 7 7 7 7 7 7 7 7 7 7 7 7 7 7 7 7 7 9 7 7 7 7 7 6 7 7 7 7 7 6 7 7 7 7 6 7,24 24 23 23 23 21 24 23 22 23 24 23 22 24 24 22 24 24 23 22 23 22 23 22 23 23 22 22 22 24 23 24 22 22 24 22
2,rep3,sorter,1548794845776,1548794850562,1548794870051,21516474760,21511554976,21539487160,21502774496,43022178630,21510186922,80,36,0,0,77,3,0,1548794852848,1548794860472,1548794859819,1548794870034,6 7 6 7 7 7 7 7 7 7 6 7 7 7 7 8 7 7 7 7 7 7 7 7 7 7 7 7 7 7 8 9 8 8 7 7 8 7 7 7 7 8 9 7 7 7 9 9 9 9 9 8 8 8 8 8 8 8 7 8 8 8 9 10 9 9 9 8 7 9 10 10 10 9 8 9 9 9 9 9,19 16 15 17 16 16 17 16 17 16 17 17 16 16 16 17 16 16 16 16 16 16 16 16 16 16 17 16 16 16 17 17 16 17 16 16
