run_id,job_name,policy,datasize,tx,rx,nb_failures,failure_stage,lb_before_1,lb_before_2,lb_after_1,lb_after_2
0,sorter,ec,10,37589028038,37588034689,0,0,882184-529524-176748-1411980-1058404-882432-177040-882432-1235420-882388-705736-882132-706000-705964-1236028-705964-1235392-353012-529516-705840,882260-529516-176716-1411776-1058656-882416-176696-882512-1235460-882488-705740-881956-706036-705996-1235804-705992-1235384-353048-529484-705772,1822716-773996-1157956-1658800-1952384-1769560-1261764-1718072-2068828-1959228-1488616-1915548-1347676-1051424-1916100-1539300-2070780-1337612-1366880-1643568,1822704-775000-1157852-1657676-1952264-1769772-1261764-1718072-2068828-1959228-1488616-1915548-1347676-1051424-1916100-1539300-2070780-1337612-1366704-1643568
0,sorter,ec,20,75170599342,75163645741,0,0,1588552-1411776-1411368-2117300-2470480-1764836-1587580-176908-1235176-1235308-1588128-1764860-1412040-1764800-2293732-1588340-1764984-353136-1764860-2470756,1588484-1412128-1411408-2117392-2470580-1764780-1587680-176600-1235204-1235628-1588244-1764928-1411980-1764672-2293808-1588448-1764872-353032-1764940-2470792,3166124-2789412-2788372-3873144-4230972-3244996-3451336-2627812-2013372-3000292-3059832-3137408-2588104-3047332-4258632-3077064-3622352-1830704-3746388-4035132,3166880-2790464-2789624-3873176-4231728-3245044-3451596-2628216-2014112-3000140-3060184-3139676-2588456-3047332-4259712-3076748-3622352-1830372-3746388-4035116
0,sorter,ec,40,148794055024,148778974268,0,0,2470760-3529376-706148-706196-2999688-4059064-3352088-3705556-4058036-3882064-2647220-2647300-3176048-4235020-4235008-4588720-2470228-2823444-3176312-4058240,2470916-3529500-706096-706096-2999784-4059420-3352288-3705800-4058128-3882392-2647264-2647144-3176508-4235100-4235104-4588736-2470280-2823872-3176316-4058304,6378916-6844944-3860456-4018328-7141148-7399436-6460428-7398680-6217888-6851076-6388628-5407992-5538048-6785300-7387184-7721584-5829908-6378280-6312944-6818524,6376852-6846256-3860928-4017940-7141516-7399436-6460428-7398680-6217888-6851076-6388628-5407992-5538048-6783832-7387188-7721584-5829908-6378292-6312948-6818528
0,sorter,ec,80,302005787886,301969973357,0,0,5646080-5647044-6528712-2470932-6176032-7586800-6352440-6882008-6352920-7234596-6175700-6352332-7235180-5646836-6706784-4940668-6881336-7411612-7234524-7587212,5646508-5647168-6528788-2470868-6176044-7587112-6352692-6881780-6353264-7234928-6175856-6352940-7235420-5648060-6707112-4940756-6881468-7412200-7234688-7588064,13914376-11256740-12646184-10321868-12191016-14431252-12285944-12848116-12140312-14420336-13503956-11834388-13448564-10897640-12849316-9781728-13521996-13246676-13667696-15009212,13914604-11256740-12646136-10319240-12195212-14431252-12285944-12848116-12139820-14420336-13503956-11834388-13448564-10897640-12849316-9781364-13521996-13246676-13667696-15009212
0,sorter,rep3,10,34123319372,34127824123,0,0,1328280-2379664-1856768-2908212-1589060-2379636-1060680-3172456-2119100-1590716-267916-1851860-1057052-1585476-1321080-1058648-1322888-794560-1058872-1058832,1328504-2379672-1856852-2908164-1589100-2379856-1060504-3172504-2119100-1590708-267908-1851696-1056912-1585344-1321044-1058648-1322844-794528-1058764-1058732,3122116-3869424-4135076-4107208-3090816-3914920-2264436-5113380-3834572-3428896-2294208-3889224-1879604-3095740-2753804-2106364-2283108-2492532-3315868-2544060,3121592-3869088-4136124-4107528-3090704-3915328-2264440-5113384-3834720-3427792-2294212-3889220-1879608-3095740-2753808-2106364-2283108-2492556-3315876-2544064
0,sorter,rep3,20,68474212213,68476427328,0,0,2911696-4232796-3706048-2643860-2915316-1592660-3172432-3176032-4231060-3969196-3177660-2651116-3176640-3440252-3702464-3440040-1853048-3176072-3177660-3174072,2911692-4232844-3706136-2643864-2915604-1592808-3172500-3175992-4231008-3969224-3177804-2651148-3176088-3440288-3702540-3440224-1853156-3175968-3177836-3174140,6209600-6873300-6710020-5379348-7155340-4604116-6449756-5385556-7626888-6408204-7392584-5419248-6476364-5185116-7168884-7850748-5474052-5906436-6934092-6452580,6209288-6874548-6710024-5379604-7155684-4604100-6449220-5385556-7626896-6408012-7392272-5419248-6476348-5185116-7168884-7850752-5473532-5906120-6934100-6452580
0,sorter,rep3,40,135008105009,135002740105,0,0,4240704-5293060-7140680-5821468-7146048-7938684-7144268-6091120-5559256-6088004-7941492-6346232-5821624-3972756-6619472-6351648-6351684-7406640-7403036-6359124,4240336-5293240-7140772-5821624-7146180-7938772-7144560-6091332-5559876-6088064-7941596-6346392-5821636-3972560-6619656-6351844-6351832-7406904-7403120-6359220,10784820-11990604-12115320-11445256-14164340-12187892-12773568-12163684-15891208-14151192-16204804-15186980-10745680-9159916-11185572-12271384-11610648-13699720-13722968-12653596,10786032-11992372-12116248-11446188-14164340-12190444-12774500-12163164-15892784-14150848-16204804-15190240-10743924-9159916-11185228-12269720-11610648-13699692-13722624-12651588
0,sorter,rep3,80,272894112061,272880960915,0,0,14547224-13226008-11385900-11909264-10070976-14024876-10854036-11645060-12701444-11378664-12169440-13763888-14289024-13756688-11648900-12967500-14558056-12699692-12444492-14029688,14547320-13226776-11386132-11909436-10071056-14024600-10853984-11644960-12701928-11379116-12169792-13763936-14290000-13756876-11649712-12967568-14558292-12700016-12444724-14030776,22342096-22688856-23063988-21129552-23383648-27518664-28866580-19256844-23975104-22364840-27741824-21483288-27528228-24231248-27996612-32902952-32973216-18960076-24973048-34839160,22343044-22689284-23062132-21129932-23384636-27518664-28866216-19260676-23975056-22364800-27741824-21483288-27528180-24230932-27996564-32902964-32973216-18960076-24972732-34838992
0,word-count,ec,10,11741722936,11745209280,0,0,717268-359584-1257100-1256208-1077144-898152-359520-536712-1076496-538908-718644-1076508-896896-896976-718376-718008-718340-896752-716672-717352,717100-359472-1257096-1256100-1077216-898188-359420-536704-1076528-538944-718524-1076500-897008-896884-718552-718036-718412-896548-716632-717308,727932-366700-1261324-1266144-1080444-903460-366668-544576-1084576-548800-726368-1083692-902052-907164-724096-728668-724080-901844-726460-729156,728040-367072-1261556-1267008-1081308-904108-367212-545104-1085276-549440-727404-1084124-902268-907380-724916-728668-724080-901844-726460-729156
0,word-count,ec,20,23254185077,23253593807,0,0,1794752-2333000-1973156-1435600-1436504-1794956-1076704-1793076-1075128-1974144-2511876-1615384-1794412-2154276-1614184-1974528-1793032-180596-1615192-359380,1794984-2333032-1973016-1435900-1436568-1794900-1076852-1793068-1075204-1974388-2511748-1615384-1794488-2154420-1614288-1974436-1793104-180212-1615332-359232,1807296-2338932-1984404-1442528-1445168-1806332-1085984-1799084-1081316-1986084-2526776-1625312-1801664-2163464-1623432-1978988-1802532-188836-1622296-369120,1809276-2339608-1984720-1442528-1446428-1806332-1085984-1797992-1081316-1986084-2526776-1625312-1801664-2163464-1623432-1977908-1802532-188252-1622296-369120
0,word-count,ec,40,47214986802,47204404518,0,0,3409640-3591868-4308112-4303828-3767344-3408200-4127496-3228612-3405056-3767308-3947608-3409500-4488304-3949500-538948-2868752-359432-359204-3410604-3946916,3409644-3591944-4308208-4303984-3767488-3408280-4127612-3228796-3405224-3767920-3947728-3409568-4488436-3948996-538964-2868828-359796-359524-3410828-3947064,3419248-3604140-4317104-4312216-3778068-3419040-4138912-3237508-3414912-3774580-3959208-3420172-4498884-3967052-551628-2876444-378584-373640-3418232-3956420,3420056-3603924-4317376-4314924-3776352-3419040-4138912-3237508-3414912-3774580-3958992-3420172-4498668-3966848-551628-2876444-378192-373640-3416544-3956420
0,word-count,ec,80,93182657829,93146039983,0,0,7537676-7714856-7538736-7351088-6278436-7534592-7353992-7355008-8432344-7719280-2695172-5385848-6640544-7356692-6283180-7536196-2872416-3049636-6093844-6460124,7537888-7715432-7539948-7351560-6278680-7534900-7354300-7355608-8432096-7719516-2694920-5386828-6641100-7356932-6282724-7536320-2872428-3050024-6093964-6460296,7551792-7734152-7552220-7358872-6283848-7549644-7363180-7362988-8441664-7729212-2708260-5402272-6659392-7373784-6290556-7549752-2881120-3066740-6109500-6462640,7554348-7737384-7553032-7359684-6292752-7553416-7370816-7362752-8441252-7731968-2715352-5405720-6659344-7376100-6291296-7549752-2881120-3066552-6109500-6462640
0,word-count,rep3,10,1874720216,1879607977,0,0,1095512-2397124-1868748-2171488-2171480-2416396-811920-1359588-1359788-2945140-2661904-1585360-1888012-302996-1359624-2113628-528444-1095600-792916-1359892,1095516-2397168-1868844-2171480-2171520-2416436-811948-1359688-1359852-2945000-2661788-1585364-1887980-302828-1359588-2113628-528444-1095620-792868-1359616,1098768-2399876-1874796-2174800-2179408-2420700-819456-1369416-1363740-2955340-2671824-1589664-1897432-306144-1367680-2120660-533192-1102408-803404-1365932,1098984-2400152-1874796-2174800-2179396-2420700-819444-1369416-1363740-2955124-2671824-1589664-1897432-306124-1367288-2120464-533192-1102408-803404-1365932
0,word-count,rep3,20,1655105336,1659805050,0,0,2435852-3756656-4059356-3775888-2661672-3209168-4549244-3776152-2964064-4285044-2719348-2680568-2925532-2964032-3267280-2416408-3473908-3531136-2133124-2983300,2435708-3756768-4059432-3776036-2661792-3209232-4549432-3776204-2964068-4285084-2719180-2680704-2925596-2964172-3267044-2416700-3473744-3531084-2132972-2983480,2438660-3765384-4063312-3788880-2667012-3215228-4555872-3784700-2969252-4297044-2729196-2691748-2930932-2968288-3274768-2428824-3481168-3542192-2139500-2989260,2439752-3765780-4062776-3788676-2667012-3215024-4555872-3784700-2969064-4297044-2729196-2691748-2930932-2968288-3274768-2428824-3481168-3542192-2139500-2989260
0,word-count,rep3,40,4283646483,4286125839,0,0,5683128-5928224-5418928-8550744-4323592-5135588-8550748-7513192-8060880-7739152-5341808-6475676-7268620-5155216-5664876-3512120-7532692-7229948-8344320-5702708,5683748-5928140-5419216-8550888-4323748-5135540-8550916-7513248-8061044-7739352-5342340-6475728-7268900-5154816-5664868-3511960-7532980-7230068-8344452-5702616,5692716-5929824-5430504-8562892-4334800-5140724-8557772-7518832-8071212-7744632-5356512-6489996-7276048-5171488-5679240-3524432-7542092-7236644-8355512-5714568,5693220-5930132-5433104-8565176-4336516-5143264-8557536-7519832-8071024-7745908-5356512-6490640-7277100-5171488-5679240-3522932-7542092-7236644-8355512-5714568
0,word-count,rep3,80,7687721837,7681043607,0,0,12590752-9838980-13783084-14987820-12894292-10799224-14858532-11269776-14910736-13989448-10779956-12404008-12893704-14233776-13157900-12650216-11895136-12403676-15007308-12912768,12591840-9838996-13782684-14988996-12894724-10799428-14858732-11270252-14911076-13989328-10780636-12403996-12894112-14233864-13158252-12650228-11895612-12404032-15007624-12912876,12609116-9858244-13801672-15006848-12921560-10820572-14875148-11287144-14926924-14006156-10805596-12416808-12900160-14252440-13167548-12662564-11911096-12418276-15016432-12924160,12609116-9858244-13805468-15006848-12921512-10820572-14875148-11286872-14926924-14006156-10805596-12416808-12900160-14252440-13167360-12659896-11911048-12418276-15016432-12923972
1,sorter,ec,10,37201788402,37201176343,0,0,1235420-176748-529924-706000-353100-1058660-1058916-1235496-1235172-882476-530092-706000-353196-1235516-1058176-882388-705452-176776-881928-882704,1235428-176600-529756-706032-353080-1058688-1059144-1235592-1235256-882516-529948-706000-353084-1235508-1058180-882220-705488-176732-881960-882564,2363312-1012572-1367600-1642156-995976-2139096-1358468-1976168-1776508-1570072-1368684-1439008-995136-2120620-1985996-1571336-1488808-1017804-1820344-1811132,2363340-1012868-1367932-1642052-995860-2138928-1359340-1976152-1776192-1569856-1368684-1438996-994588-2120620-1985996-1571336-1488808-1017804-1820344-1810944
1,sorter,ec,20,74739118413,74733025784,0,0,176740-1412280-1235140-1941044-1941072-1764860-1588128-353188-1411792-706004-2294464-1236140-1763996-1588548-1940576-1588340-2646464-1941044-2118096-2117000,176636-1411972-1235288-1941224-1941112-1764980-1588192-353048-1411896-706036-2294640-1236024-1763868-1588576-1940600-1588556-2646780-1941204-2117924-2117072,1944408-3376508-3097804-3314688-4196344-3825196-2960320-2228572-2977724-0-3267696-2925376-3140376-3071456-3809440-2862896-4119752-3401772-3489212-3400628,1946336-3377788-3098476-3315108-4196944-3825320-2961556-2229564-2976848-2181740-3267696-2925376-3140376-3071456-3808044-2862880-4119752-3401772-3489212-3400628
1,sorter,ec,40,150857876132,150845791213,0,0,3352116-3175148-2470480-4412480-706136-3528584-2646692-3705800-1764872-4059076-4236012-3529896-2823428-3529032-3352336-4234996-3352644-3882592-4411040-353224,3352336-3175492-2470604-4412432-706092-3528756-2646692-3705932-1764888-4059332-4236104-3529652-2823752-3529088-3352416-4235052-3352788-3883156-4410932-353544,6693712-6325492-5425900-7383208-4028596-7469268-5577812-6265168-6086924-7772348-7187692-7245492-5390240-6665072-7288544-6217124-5676208-6802624-7946296-3684220,6693116-6325936-5427008-7384468-4030592-7470664-5576000-6264856-6087708-7773064-7190776-7245492-5390240-6665072-7286876-6217124-5676208-6802628-7946296-3683876
1,sorter,ec,80,300596633694,300575719439,0,0,6177168-6881868-7764184-7234856-6880844-6352252-6527612-5999008-6705684-6528936-5470956-5294672-4587732-5116596-4059588-6883500-7233328-7763452-6882104-6705412,6177272-6882176-7764416-7235308-6881088-6353272-6527960-5999352-6705900-6530084-5470568-5294932-4588160-5117340-4059128-6883708-7233644-7763756-6882236-6705520,13502656-13560120-13550244-14288328-11639292-14213688-13458768-12939744-11464392-11373608-12562440-11866580-12438396-11205844-9822144-13397152-13187508-14258708-13653192-11824552,13508736-13564332-13551540-14288328-11638928-14213688-13458768-12939744-11464392-11373608-12562440-11866264-12438396-11205844-9822144-13397152-13187508-14258708-13653192-11824328
1,sorter,rep3,10,33541052599,33545471035,0,0,2119108-2643828-2115676-1853060-1326520-531048-1588868-2119096-2381624-1851368-530304-2115620-1849560-528452-1591008-796404-1853056-2378036-1060500-528648,2119136-2643904-2115516-1853172-1326516-530724-1588900-2119140-2381528-1851440-530296-2115508-1849720-528520-1590708-796420-1853128-2378060-1060464-528648,3336176-4708372-3340072-3823852-3037016-2368372-3301744-3299260-3860744-3132068-2699776-3348352-3337848-2830868-3361012-2255616-3385236-4406484-1973408-1726236,3337232-4708700-3340440-3824264-3037220-2369108-3301896-3300624-3862008-3132060-2700128-3348360-3337852-2830456-3361116-2255624-3385240-4405396-1972476-1725152
1,sorter,rep3,20,67952244425,67954892841,0,0,2913680-2913456-2645888-2647668-3442020-1590676-1592668-4235192-3968436-4231020-2120924-2381668-4761024-4757408-4232680-2647676-3175844-3965036-2911888-2385304,2913572-2913532-2646176-2647564-3442356-1590776-1592592-4235072-3968476-4231204-2121056-2381760-4761136-4757516-4232744-2647488-3175960-3964972-2911792-2385104,6056392-6151060-4819548-5138800-6118976-5190236-5550900-9018072-6727276-6187312-5244800-4938312-9287240-9957976-6101332-6502260-6829700-7394764-4969892-4870288,6057196-6151724-4820296-5140700-6119860-5189684-5550900-9018328-6728148-6186968-5246156-4939152-9286924-9958704-6101156-6501944-6829684-7394468-4969892-4870288
1,sorter,rep3,40,135840411055,135834816139,0,0,7408692-7148396-7138856-6089292-8458292-6089268-6085992-5032700-6085632-5298496-6614068-5298516-6085900-6878400-5036472-7146392-5292276-6617672-6878216-6353484,7409260-7148312-7139368-6089452-8458112-6089388-6086080-5032740-6085828-5298748-6614152-5298664-6086000-6878488-5036284-7146104-5292244-6617928-6878416-6353964,14797096-13325492-12457464-10205288-14790080-11134260-11362964-10192832-14378516-16037340-11906100-12483772-11914504-12461600-13086740-12597288-13667656-13014208-12332436-11961052,14798956-13327176-12458900-10206216-14791152-11137272-11363572-10193296-14378516-16037364-11906100-12483772-11914504-12461600-13086740-12597288-13666216-13013892-12332436-11960560
1,sorter,rep3,80,272025636494,272013157858,0,0,14027860-12965804-14020620-14297328-11910880-10584476-12441104-13503116-15083444-12169456-10864740-14554468-11907068-10584868-10848844-12437268-14020636-12705276-12174304-12969296,14027992-12966240-14021112-14297460-11911116-10584820-12442076-13503440-15083704-12169920-10865956-14555028-11907388-10584608-10848880-12437464-14021088-12705340-12173924-12969500,32627448-33692128-24544464-25498692-22585512-27963900-21877704-25138316-31623468-20758436-20859152-37045436-19542028-23974620-18092680-31013492-22228988-22440540-23228212-23481852,32629940-33692080-24549272-25498376-22586952-27963360-21877704-25137964-31623116-20758120-20858788-37045084-19541980-23974620-18092632-31013492-22228988-22440540-23228212-23481852
1,word-count,ec,10,11884611006,11885551286,0,0,897964-1074592-897276-718488-896788-897572-1076840-538008-897956-1076452-359232-358384-717448-359372-898132-718984-1076820-1075420-897268-718620,898056-1074428-897348-718452-896820-897572-1076840-538096-898076-1076488-359276-358200-717348-359268-898176-718800-1076812-1075424-897272-718472,904164-1082336-903632-725072-904952-905300-1082848-547340-909504-1088184-365764-366764-726872-364448-904572-726692-1088272-1083188-905248-726436,904624-1081956-903944-726452-906548-905108-1083004-547556-910512-1087968-365764-366764-726872-364448-904572-726692-1088272-1082988-905248-726436
1,word-count,ec,20,23635392877,23631198988,0,0,1795620-2151724-1793576-897592-1793416-1615360-359624-1795988-2153896-1972944-1616444-359068-2330752-2332816-1972960-1256416-1793712-1254672-1975776-1077520,1795564-2151852-1793444-897488-1793528-1615292-359512-1796016-2154036-1973100-1616244-359212-2330828-2332852-1973316-1256524-1793892-1254752-1975600-1077520,1797784-2160980-1803848-909196-1803120-1623784-368156-1807060-2170492-1975540-1633152-371000-2340080-2340888-1978588-1260808-1801784-1264360-1987244-1087156,1796880-2160980-1803848-908992-1804304-1623784-367776-1807060-2170492-1975540-1632936-371000-2340080-2340684-1977292-1260620-1801784-1264360-1987228-1087156
1,word-count,ec,40,47234246587,47221590712,0,0,4841164-4127168-539312-3588416-4305912-3228648-2689876-3052660-3407824-2333784-3232708-4489608-3589788-4661944-718236-2693308-2691260-3587732-3588804-3228288,4841288-4127264-539284-3588484-4305788-3228980-2690120-3052704-3407960-2334040-3232424-4489464-3589920-4662128-718204-2693568-2691532-3588404-3588952-3228432,4846720-4139276-550764-3599976-4314040-3240708-2697948-3059972-3416444-2350596-3242160-4501308-3599596-4672656-730512-2704708-2703736-3596660-3597800-3242604,4847492-4141912-551724-3603124-4315700-3241704-2698456-3059972-3416444-2350568-3242160-4500740-3599596-4672656-730512-2704708-2703500-3596660-3596300-3242416
1,word-count,ec,80,94330504167,94306008038,0,0,7536292-7354216-7359736-4846668-6817692-4486800-7350880-5919808-7534172-5920356-6995708-5561336-5741244-5203940-6998552-6460904-6999896-6640024-6459556-7001716,7536480-7353864-7359352-4846956-6817884-4486984-7351880-5920004-7534764-5920360-6995848-5561556-5742616-5204128-6998732-6461372-7000244-6640492-6459884-7002040,7551404-7366504-7375124-4859948-6834532-4501340-7356944-5935820-7553888-5936204-7015484-5578452-5765096-5220576-7011632-6467828-7011728-6648640-6469560-7014848,7552924-7366456-7375124-4859948-6834532-4501060-7356944-5935820-7553888-5935924-7015436-5578452-5765096-5220576-7011632-6467828-7011504-6648640-6469560-7014848
1,word-count,rep3,10,1592483615,1597400423,0,0,1643088-2152580-341468-1114764-1340340-2397300-1868836-1604632-1868732-2397096-1868748-1623796-1076120-1076504-1869524-1888156-1340340-2132900-1868700-811948,1643052-2152412-341468-1114804-1340312-2397128-1868992-1604504-1868704-2397164-1868772-1623964-1076148-1076512-1869168-1888048-1340340-2133032-1868740-811948,1649444-2157972-347560-1122028-1345704-2403964-1877012-1608776-1876276-2402904-1874600-1631704-1081760-1082732-1873352-1894652-1348068-2141224-1875652-817372,1649512-2157988-348292-1121412-1345704-2403964-1877744-1608384-1876264-2402904-1874600-1631704-1081760-1082532-1873352-1894652-1348068-2141224-1875652-817372
1,word-count,rep3,20,2527206834,2532065230,0,0,2416368-3775924-2152408-2661672-2983304-4510836-4568532-2397848-2738416-3492476-2680772-4285016-3569752-4078640-3982304-3209144-2680972-4059364-1869076-2454912,2416432-3775936-2152244-2661856-2983380-4510940-4568560-2397724-2738636-3492652-2680704-4285084-3569756-4078752-3982524-3209028-2680872-4059520-1868772-2455084,2422364-3783112-2157920-2668980-2988040-4521348-4573340-2402488-2745212-3497112-2694236-4292756-3573812-4081548-3993768-3219348-2691976-4068956-1874636-2463188,2423252-3784168-2158524-2669332-2989984-4523228-4574828-2403108-2745024-3498624-2694840-4292756-3574300-4080996-3994204-3219780-2691788-4068956-1874636-2462984
1,word-count,rep3,40,3165417045,3168721884,0,0,7571008-7738884-5644552-6192240-5644588-5851120-6438216-7287540-7758360-6701848-6778468-5116788-7042924-6192216-5116396-8061020-6494944-6720852-5663848-5116360,7571140-7738976-5644796-6192332-5645056-5851120-6438276-7288224-7758244-6701968-6778552-5116664-7043228-6192276-5116416-8060984-6495076-6720940-5664004-5116416,7579248-7752672-5648420-6202056-5659220-5860148-6443648-7300940-7764880-6709464-6785396-5131048-7057236-6205380-5125064-8069524-6511000-6732988-5674396-5130512,7581140-7753168-5648204-6202056-5660092-5860148-6443648-7300704-7764880-6709260-6785192-5130656-7057236-6205380-5125064-8069336-6511000-6732988-5674368-5130512
1,word-count,rep3,80,7134656115,7129182755,0,0,11913800-11707436-14968508-13744128-12158768-13950516-13461268-14517216-12326584-12423532-12610000-13854732-13196224-13157692-11327800-13119180-9593820-13931068-11798804-14498588,11913912-11707804-14968752-13744252-12158980-13951080-13461348-14517812-12326696-12424488-12610252-13856080-13196704-13157800-11328668-13119264-9594188-13931536-11798896-14498784,11932380-11722436-14988740-13757260-12170032-13961856-13477288-14520748-12335424-12434844-12633500-13872668-13215064-13168696-11340832-13134944-9610820-13945736-11814800-14513520,11930524-11725660-14992196-13761136-12173464-13966616-13480956-14522984-12336804-12440120-12638212-13873892-13215876-13170128-11340832-13134944-9610820-13945688-11814800-14513520
2,sorter,ec,10,37369327675,37370219676,0,0,705964-1235420-176844-1234924-1411444-1058892-706008-176712-706092-882652-1411612-529464-353136-1058908-244-882432-1235128-706564-705744-705956,706036-1235420-176660-1234952-1411492-1058688-706036-176564-706000-882872-1411680-529336-353104-1058972-88-882444-1235128-706492-705712-706080,1391444-2122344-569620-2363704-2295676-1746552-1795304-862100-1250656-1769648-2240812-1125100-1276696-1851848-492000-1618464-2120356-1791012-1549368-1589760,1392288-2122164-570136-2363704-2295664-1746552-1795304-862100-1250328-1769648-2240812-1124608-1276064-1851848-492000-1617972-2119220-1791012-1549368-1589760
2,sorter,ec,20,74804351476,74799184483,0,0,1587836-353236-1764340-1764100-2117520-1587864-1235540-1588128-1941044-1411820-1764772-1588376-1059256-353192-1941044-2117548-2117776-1764684-1589092-2117716,1587976-353080-1764416-1764168-2117692-1587864-1235412-1588264-1941116-1411936-1764940-1588488-1059200-353156-1941116-2117648-2118064-1764380-1589016-2117792,3648220-851548-3831268-1963712-4079996-3163468-3290000-3162860-3801932-2979676-3425068-3448792-2139060-1629636-3317788-3787064-4276048-3434364-3559232-3798480,3649224-852628-3831336-1964216-4080416-3163820-3290416-3163120-3802192-2981864-3425060-3448792-2139452-1631388-3317464-3787972-4276048-3434364-3559224-3798464
2,sorter,ec,40,149203326353,149194650070,0,0,3176616-3529368-3175604-4058544-3175900-3529428-2998868-4057992-2823176-3176384-2822836-3529116-4588180-3529580-3176308-3353904-2117552-3352916-530240-2824024,3176708-3529684-3175868-4058636-3176028-3529196-2998988-4058220-2823420-3176760-2823192-3529260-4588152-3529672-3176316-3353972-2117604-3352856-529996-2824592,6511976-5911076-7087944-6218272-6725204-6866316-6344620-8179636-6342180-5724956-5971580-6673616-7317844-7268712-6314820-6516576-4866612-5896904-4052992-6335840,6511904-5913384-7088400-6219224-6726708-6867084-6344868-8182520-6343120-5727360-5972800-6673616-7317328-7268716-6314272-6516260-4866612-5896904-4052968-6334200
2,sorter,ec,80,300204140885,300173089943,0,0,7412404-6881936-7235468-2117700-7057868-8292396-6353972-2470708-8117524-8116208-7763736-5646740-5822824-6881928-2647180-7234056-6528164-7234352-6176504-7058124,7411740-6882276-7235528-2117832-7058132-8292760-6353816-2470844-8117860-8116808-7765084-5647224-5823812-6881860-2647320-7234416-6528508-7234708-6176728-7058724,13928168-13713416-13539220-9461400-13471244-15329960-12900120-8624088-13356476-16108960-13275948-10760776-12068332-13049280-9673804-13754928-13600604-12193784-12690996-12695944,13929936-13715952-13539344-9464172-13473180-15334456-12900120-8625892-13357008-16109612-13275948-10760776-12073016-13048964-9673804-13754928-13600604-12193784-12690996-12695944
2,sorter,rep3,10,33526371268,33530869390,0,0,1588852-1588852-1056872-2383264-1060468-1851448-1323168-2908288-2381456-2119108-1854900-2115448-1059100-1585240-1060496-1323452-1588992-530260-794452-1587136,1588892-1589044-1056876-2383296-1060496-1851360-1322984-2908316-2381524-2119136-1854868-2115516-1058928-1585276-1060688-1323304-1588924-530260-794564-1587140,2978504-2825704-2679124-3675044-2729968-3648536-2679680-4434124-4427704-3831736-3682560-4443064-2487188-2812648-2485756-2809632-3352836-1949952-2276200-3328716,2977980-2825708-2679128-3674224-2729960-3648476-2679916-4433012-4427704-3831736-3682240-4443056-2487192-2812324-2485760-2809632-3352840-1949480-2276204-3328720
2,sorter,rep3,20,67346802378,67347588946,0,0,2910008-3706080-3174072-3442232-2381492-3702468-2915304-3176096-2385072-3445692-3441856-2647456-3704420-2909840-2646396-3440284-3966820-3176204-2909892-3438296,2909952-3706160-3174112-3442176-2381560-3702572-2915344-3176132-2385148-3445556-3442040-2647828-3704384-2909908-2646288-3440428-3966676-3176128-2910176-3438356,6168204-6787516-6258600-6902372-5028300-6739184-5397452-6962208-4167456-6650320-6962716-7376792-6856996-4682236-7917772-6888984-6784764-6840252-5232788-6457944,6168204-6787520-6258592-6902356-5028300-6739184-5397460-6962208-4167456-6650324-6962720-7376460-6856996-4682236-7917784-6888988-6784764-6840284-5232788-6457928
2,sorter,rep3,40,135308643066,135304682544,0,0,6357104-5834168-7144896-6612212-6358884-6348060-4506100-4502664-7671032-4500716-5823260-6878560-7405048-6357104-6881852-6352720-8197876-6082076-6610440-6612208,6357200-5834444-7144672-6612280-6359444-6348220-4506148-4502728-7671288-4500596-5823384-6878360-7405136-6357288-6882404-6352656-8197840-6082340-6610664-6612404,11092604-12688824-11998404-13197128-13839132-17900612-13656292-9502768-13592948-13616556-12830436-12877720-13550684-11981656-12150172-12450160-13696224-8315176-13461096-11704476,11093728-12689756-11998868-13200656-13840756-17902948-13657172-9505088-13592948-13616556-12830436-12877720-13550684-11981656-12149856-12450160-13696224-8315176-13460756-11704476
2,sorter,rep3,80,274343489252,274328118693,0,0,14020056-13501316-10322284-12171236-10322112-13494020-11646828-10060096-11649904-10848652-11917904-12965676-11644664-14295728-13228040-14292028-12966280-14027892-15086428-15609408,14019780-13501648-10322420-12171824-10322340-13494376-11646692-10060064-11650184-10848868-11918260-12966736-11644912-14296172-13229232-14292156-12966480-14028264-15086916-15609672,35126764-20518588-19075508-22450420-25079972-24318256-18362576-27522624-20293820-19670772-28681568-24179004-19743220-29084040-24628320-34796852-27025636-24862840-34026848-28779456,35126780-20518540-19075020-22450104-25079972-24318256-18362576-27522624-20290688-19670772-28681568-24179004-19743220-29084040-24628324-34796864-27025636-24862840-34026848-28779456
2,word-count,ec,10,11917957422,11918148302,0,0,1076708-718384-359380-1075316-897616-538776-1256024-895864-897912-897608-1076728-539008-897616-179800-718388-359196-1075320-1076216-718044-897712,1076780-718344-359236-1075288-897624-538840-1256136-895888-897952-897644-1076640-538804-897608-179808-718192-359200-1075320-1076156-718040-897708,1086896-727404-362732-1081948-904644-550720-1263960-903640-907772-905988-1082752-544156-907620-190112-723696-370936-1078364-1086832-726768-909528,1087052-727404-363008-1082164-904800-550720-1263960-903248-907772-906144-1082124-544156-907620-190112-723696-370936-1078364-1086832-726768-909328
2,word-count,ec,20,24177397270,24174602069,0,0,1614180-1972648-1077532-1973680-1615384-1795136-2333156-2332540-2690728-359232-2153628-179844-1795780-1613976-359392-1613800-1436872-1615020-1973292-1794072,1614212-1972996-1077524-1973744-1615492-1795208-2333228-2332400-2690628-359232-2153464-179696-1795924-1613984-359280-1613836-1436848-1615156-1973384-1794292,1622196-1977508-1085212-1980140-1624312-1806348-2342912-2338104-2699460-369068-2161004-187632-1807008-1624916-367608-1625004-1443980-1625208-1981136-1805848,1624204-1977508-1085744-1981512-1624632-1806988-2343552-2338656-2700556-369480-2162104-187632-1807008-1624916-367608-1625004-1443980-1625208-1981136-1805848
2,word-count,ec,40,46949513620,46936492536,0,0,3587428-3229964-3768700-2514104-3050040-4302236-3768704-2870132-4128384-3229488-3409208-2691808-3229624-4125936-2331452-718604-3589332-3410896-3946744-2693680,3587924-3230184-3768908-2514260-3050296-4302076-3768860-2870204-4128556-3229316-3409324-2691716-3230208-4125892-2331608-718868-3589180-3411036-3946720-2693732,3594352-3241360-3772556-2519904-3064560-4307548-3781040-2880308-4141000-3242944-3423020-2702236-3244216-4137140-2341120-731044-3601624-3422264-3958176-2707296,3593148-3241284-3773276-2519876-3064344-4307548-3781040-2880280-4141000-3242756-3423020-2702236-3244000-4137140-2341120-731044-3601624-3422264-3958176-2707296
2,word-count,ec,80,93962645792,93922514776,0,0,7539068-6996164-7175944-8073456-6636700-6639164-7533220-3052344-6997900-5741584-6998876-7894588-5919032-3232268-2870216-7537996-7896444-6818660-6638444-6997544,7540192-6996528-7176460-8072952-6636924-6639636-7533408-3052616-6998140-5741688-6998948-7895064-5919368-3232760-2870228-7538116-7897608-6818864-6638888-6997132,7557292-7011236-7183548-8088616-6652332-6651616-7549648-3060664-7006104-5755424-7008884-7908212-5930432-3249676-2885052-7549964-7915176-6836392-6640740-7016628,7562432-7013000-7184544-8089888-6652332-6653380-7549412-3060664-7005880-5759780-7013240-7908212-5930432-3249488-2884876-7547100-7914848-6836392-6640740-7016628
2,word-count,rep3,10,1855072921,1860132619,0,0,1868836-1868704-2417048-1868872-1340516-1643080-1868740-2435676-1604536-2925592-2417016-1888100-811920-1056880-2152164-1359584-303008-831228-547716-1076328,1869052-1868784-2416608-1868772-1340512-1643116-1868740-2435720-1604508-2925536-2416896-1888180-811948-1056916-2152284-1359580-302980-831196-547752-1076108,1877384-1874724-2421536-1872132-1349260-1655952-1875592-2441748-1615284-2929112-2422432-1892068-819772-1061292-2156860-1364168-314028-834272-556176-1081672,1878080-1874716-2421336-1872132-1349260-1655952-1875592-2441748-1615096-2928104-2422432-1891872-819772-1060888-2156860-1363552-314028-834272-556176-1081672
2,word-count,rep3,20,1961247057,1965710554,0,0,2474432-2944932-3756832-3473364-3189848-2435852-3002608-4001952-4021000-3228432-3756668-3228264-2699872-2944764-3266960-3511732-2680576-2925516-2964780-4059392,2474464-2944996-3756732-3473508-3189788-2435740-3002720-4001864-4020892-3228304-3756952-3228344-2699864-2944840-3266888-3511908-2680644-2925676-2964664-4059688,2479396-2954852-3763192-3476804-3195676-2442088-3009972-4008088-4036232-3237196-3762092-3237504-2707044-2950680-3276156-3518188-2684968-2932624-2968892-4071260,2480304-2955772-3762892-3476512-3195984-2443548-3010092-4009112-4037828-3237616-3762652-3238904-2707756-2951828-3276156-3518188-2684060-2932616-2968892-4071260
2,word-count,rep3,40,3180155826,3183630042,0,0,7229932-7023384-7307176-4587984-5947272-5664148-6153876-7211540-6985108-7004056-7758156-5135612-6927020-8041576-5966556-5644580-5418924-6739944-5361492-7023540,7230180-7023600-7307340-4588020-5947408-5663944-6153796-7211532-6985724-7004264-7758308-5135744-6927172-8041716-5966620-5644860-5419572-6740020-5361272-7023612,7244212-7036924-7313200-4593904-5954728-5678328-6164008-7220472-6990832-7013208-7770616-5138664-6932084-8050748-5981572-5661160-5427312-6750512-5369332-7029060,7245068-7041056-7314368-4594516-5956712-5680452-6165408-7221104-6993292-7013180-7771384-5139296-6932084-8050748-5981552-5661160-5427312-6750512-5369332-7029060
2,word-count,rep3,80,6719918216,6714670875,0,0,11553488-15026324-13196480-13177000-12970664-13402648-11006188-11650396-12912752-15477620-9194912-13442788-12932668-14536540-12970780-11082672-15271468-14723664-12140288-11591804,11553564-15026704-13196584-13177320-12970980-13402968-11007528-11650072-12913000-15478116-9195212-13442956-12932628-14537100-12971060-11082900-15271508-14723872-12140500-11592752,11575424-15039984-13205736-13191592-12985076-13417420-11017316-11660468-12929420-15484668-9215140-13469860-12949972-14547052-12983592-11099404-15285896-14734552-12157644-11608532,11582644-15043604-13208376-13195908-12987944-13420504-11023648-11661044-12929996-15485432-9215140-13469812-12949972-14547052-12983592-11099216-15285896-14734552-12157644-11608532
3,sorter,ec,10,37328548230,37329611046,0,0,882432-882324-176808-882184-882468-882272-1059120-705744-882476-705964-1235752-1058944-1058600-529496-353208-529100-706152-882476-706152-882492,882468-882216-176768-882212-882472-882248-1059132-705744-882508-706028-1235596-1059016-1058400-529524-353324-529104-705908-882516-706012-882576,1818960-2017764-815616-1614340-1813588-1534132-1744052-1634160-1822808-1585844-1979476-1896428-1694080-1173772-1138852-1163544-1640816-1658864-1399176-1675524,1819620-2018300-815616-1613820-1813272-1534132-1744052-1633844-1822632-1585512-1979476-1896428-1694068-1173764-1138852-1163544-1640816-1658864-1398336-1675524
3,sorter,ec,20,75246554515,75236335920,0,0,882620-529396-882384-1941028-1764252-2646472-1941496-2117864-1235396-1764860-1411876-2294776-2117812-1235144-1411604-2117300-1411316-353172-1764816-1941308,882620-529416-882428-1940820-1764384-2646544-1941336-2117832-1235528-1764924-1412012-2294620-2117808-1235280-1411680-2117408-1411344-353076-1764984-1941636,2754316-2696248-2739072-3023764-3637408-4522632-3509816-3488512-2804828-3046508-3186956-3676440-3498404-2510024-2970124-3683256-2882272-1913328-3734252-3321332,2754316-2696252-2739428-3023764-3637408-4522616-3509596-3488512-2804496-3045372-3186956-3676440-3498044-2509848-2969808-3683256-2882272-1913332-3734252-3321332
3,sorter,ec,40,150350394658,150341867607,0,0,2646892-3530256-3705592-4235760-3000212-3176420-3176440-4410716-3352740-2647244-2117292-2822400-3529292-3528596-2823964-3705300-2117792-2823504-3352372-2823608,2647028-3530180-3705744-4235716-3000476-3176972-3176460-4410812-3353076-2647404-2117356-2822720-3529268-3528692-2823756-3705484-2117912-2823740-3352628-2823620,5784116-6291968-6669292-7567008-5358716-6113356-6097840-7561828-7292340-5784740-5258816-7129020-7272740-7062836-5565708-7457720-5234500-5945452-5530324-6157368,5785368-6291968-6669264-7567580-5362136-6113820-6097352-7561828-7290668-5784424-5258768-7129020-7272740-7062836-5565708-7457404-5234500-5945452-5530324-6157340
3,sorter,ec,80,301466715986,301425172016,0,0,6706764-6704420-4588332-6351216-5823084-7764028-7057336-7058168-6529736-7057888-6352228-7410824-5823320-5470936-7059756-5999528-7763540-4059016-6881632-4588060,6707436-6704860-4588384-6352012-5823964-7764476-7057860-7058264-6529892-7058456-6352592-7411140-5823428-5471432-7060068-5999172-7763772-4059080-6881740-4587800,11988732-13761572-10096344-14383056-12782652-13561320-12285044-12762900-11786956-13726864-14345140-13799112-11577788-12659616-13957828-13058444-15025224-8127952-13933332-10572304,11992020-13762224-10105356-14383060-12782084-13562976-12287000-12768104-11786416-13731132-14344916-13800600-11577788-12659208-13957828-13058444-15025176-8127952-13933332-10572304
3,sorter,rep3,10,34680768057,34684787949,0,0,1326680-2117280-1851856-2115476-3172264-2645644-1851352-2120872-1589292-1591088-1324708-1058992-1585240-796280-1056936-1587248-1058668-1060496-530264-1321164,1326656-2117284-1851700-2115512-3172328-2645672-1851532-2120912-1588940-1590944-1324772-1058996-1585308-796308-1056852-1587084-1058660-1060584-530292-1321072,3143108-3320704-3856272-3498600-5351044-4701204-3031180-2842792-2997504-3317644-2313696-2089340-2775412-2198756-2235528-3704096-3820404-2891652-2346584-3096372,3143676-3320880-3856468-3499836-5351544-4701528-3031584-2842676-2997704-3318472-2313696-2089548-2775032-2198908-2235216-3703772-3820408-2891676-2346592-3096372
3,sorter,rep3,20,67687509747,67689013634,0,0,3443704-3176020-2648216-3174056-3441888-3175852-2645652-3968476-2643844-2647696-2913852-4234456-4761472-2649452-2385288-1855072-5023604-2911708-3176056-2643864,3443820-3175916-2648136-3174164-3441964-3175956-2645788-3968588-2643992-2647560-2913716-4234524-4761336-2649344-2385580-1855044-5023896-2911760-3175920-2643936,5933968-7959612-5675408-5742456-7983408-6560100-5241136-8249340-6994564-5107772-6106496-6575332-5873700-5953868-6590336-6633060-9420480-4026472-5624684-4814140,5933780-7960124-5675096-5742460-7983408-6560104-5240824-8249352-6994036-5107776-6105296-6575332-5873700-5953868-6590324-6632732-9420464-4026280-5623288-4813808
3,sorter,rep3,40,134805135173,134801444794,0,0,7147100-8467056-6089472-5554348-5823248-7936868-6349888-6878476-6355332-3979360-6612208-5294876-5555648-4766960-6348348-7669000-7142436-5827156-6350140-6889124,7147124-8467348-6089880-5554204-5823568-7937144-6350464-6878420-6355548-3979504-6612344-5294932-5555560-4766592-6348544-7669192-7142504-5827344-6350028-6889284,11693768-15769748-14281600-9247228-10806048-13686756-12030480-15422320-13080356-14593152-13140580-9893764-12454680-11857292-11015900-14721356-12685248-9797492-13210008-14711848,11694840-15772168-14282308-9248300-10808964-13690316-12031524-15423492-13081200-14593004-13142860-9893764-12454680-11857292-11015584-14721328-12684756-9797492-13210008-14711848
3,sorter,rep3,80,272594582522,272580471519,0,0,13491008-14022280-10850272-10853884-13488784-11652100-13763832-11642900-13760040-11384716-12173032-12171224-14024204-12173028-13497672-14031496-10333548-14559936-14810152-11386096,13490652-14022400-10850724-10854352-13489260-11652256-13763888-11643084-13760388-11385292-12173516-12171708-14024816-12173268-13498028-14031708-10333072-14560920-14811136-11386340,34937180-22817208-30170280-21434464-29913392-20841208-23375876-22331868-26909172-24351908-21615712-26887928-25809140-24680740-26311688-34454544-20286840-25148380-24134236-21819028,34937184-22817208-30169964-21434464-29913392-20840996-23375308-22331868-26905828-24348992-21615712-26887928-25809140-24680740-26311688-34454544-20286840-25148380-24134236-21818980
3,word-count,ec,10,11720526439,11722314946,0,0,718480-179844-1433584-1256716-538668-537780-538344-897928-1076656-1256828-538116-718376-716372-1255888-897580-179864-897920-1076592-1256412-179624,718380-179696-1433616-1256788-538512-537772-538200-897964-1076812-1256868-537884-718340-716444-1255708-897644-180016-897960-1076568-1256424-179660,726564-191440-1443060-1269732-547148-544144-553728-905728-1080108-1263392-544516-725568-722772-1259592-907188-186664-906504-1083648-1264512-186200,727576-192808-1443464-1270048-547148-544144-553728-905728-1080108-1263392-544516-725568-722772-1259592-907188-186664-906504-1083648-1264512-186200
3,word-count,ec,20,23908755539,23910569643,0,0,1614500-1795140-1614564-1793972-1614848-1794096-1256072-2512360-180216-1795988-2153956-2331740-1974180-359416-1792712-1794404-1615212-1435260-1256072-1615172,1614812-1795204-1614464-1794000-1615012-1794132-1256188-2512428-179732-1796056-2153716-2331604-1974200-359480-1792784-1794584-1615356-1435436-1256148-1615244,1623304-1799440-1628368-1797208-1625840-1802496-1267688-2525436-187400-1804404-2158756-2345252-1982224-368968-1805412-1807300-1624276-1438968-1267932-1624712,1623756-1798320-1629092-1797208-1625840-1802496-1267688-2525248-187196-1804388-2158756-2345252-1982020-368764-1805412-1806936-1624276-1437876-1267932-1624712
3,word-count,ec,40,46743994692,46733303844,0,0,3050408-3764260-3229960-3050052-4306364-3231224-2691928-2154296-3230196-3589448-3947876-3409232-3586728-3052784-3408080-3587712-3946744-3590360-539320-3229284,3050340-3764484-3230144-3050180-4306484-3231240-2691956-2154444-3230416-3589580-3948540-3409380-3586884-3053320-3407960-3587516-3946992-3590400-539092-3229476,3062016-3768824-3244584-3058588-4320536-3245412-2704116-2168808-3237776-3603276-3950588-3414084-3596788-3059664-3420288-3601640-3958916-3603344-551756-3240480,3063328-3768820-3245244-3058908-4320536-3245856-2703724-2168808-3237776-3603276-3950588-3414084-3596788-3059664-3420240-3601640-3958916-3603344-551540-3240480
3,word-count,ec,80,93707304455,93664636873,0,0,5025368-6278288-6997948-7716180-6459184-6102668-4485496-7533924-6999324-6996196-6819424-6992660-7719928-5020248-8791844-5386808-5918764-7718352-3949120-6277916,5025608-6278476-6998804-7716660-6459408-6102896-4485748-7534232-6998988-6996420-6819748-6993784-7720264-5020308-8792284-5386792-5919112-7717940-3949544-6278480,5037368-6291436-7015164-7726428-6469972-6124472-4499160-7548800-7007800-7008584-6832040-7006712-7735124-5030828-8813472-5403424-5939652-7735168-3960676-6287908,5040608-6292660-7017248-7726428-6469972-6124424-4498924-7548596-7007800-7008332-6831676-7006476-7734936-5030828-8813472-5403424-5939652-7735168-3960676-6287768
3,word-count,rep3,10,1369989938,1374912381,0,0,1623912-2152308-812044-1868888-2132892-1057064-1585244-1662528-1887976-1076160-1643088-1907416-2132996-1868908-1926752-2397732-1321244-1585236-1076160-567024,1623948-2152208-812084-1868812-2132936-1056920-1585272-1662360-1888052-1076116-1643160-1907288-2133048-1869128-1926552-2397552-1321280-1585332-1076184-566992,1629348-2158372-817208-1876016-2136456-1061072-1592152-1673180-1893580-1080296-1651844-1913560-2142452-1875948-1937012-2402180-1329512-1587852-1081408-569836,1629936-2159392-817952-1876344-2136268-1060652-1592368-1673364-1893536-1080912-1651844-1913776-2142452-1875948-1937012-2402180-1329512-1587852-1081408-569836
3,word-count,rep3,20,1962169992,1966487172,0,0,4246672-3814468-2757656-4285020-2983512-3982308-4510872-2700084-2661476-3473196-3041360-3190020-3228232-2964240-2964828-2454916-3247500-3189692-2171656-2700044,4246712-3814548-2757764-4285056-2983652-3982344-4510912-2700336-2661440-3473260-3041228-3190012-3228336-2964184-2964700-2455056-3247576-3189832-2171552-2699980,4249664-3824424-2760560-4298592-2987652-3989476-4517504-2708828-2667008-3484356-3051872-3198336-3240808-2973588-2973540-2464556-3249964-3199740-2176856-2707764,4248584-3824424-2761140-4298592-2987728-3989832-4517300-2708828-2667008-3484356-3051668-3198336-3240808-2973384-2973336-2464380-3249072-3199740-2176856-2707764
3,word-count,rep3,40,2926462715,2929747853,0,0,5947328-5644728-7268636-6250056-8041576-8305768-5947464-6946632-5683100-7513428-4568700-5947520-5644848-5721640-7210776-5419964-5908748-6682108-7249440-7229720,5947412-5644608-7268400-6250408-8041904-8306264-5947472-6946708-5683220-7513384-4568736-5947620-5645108-5722316-7210576-5419964-5909060-6682332-7249256-7229924,5958108-5659824-7276028-6258216-8051012-8313896-5959652-6951916-5693760-7528032-4580928-5952044-5659584-5730760-7225472-5427648-5918932-6688096-7258408-7236256,5959248-5662104-7276772-6260300-8052916-8318308-5959288-6951916-5693760-7528164-4583600-5952044-5660820-5730760-7225472-5427648-5918932-6688096-7258408-7236256
3,word-count,rep3,80,6367058036,6361712250,0,0,12422900-14517244-9497520-14272336-11289632-14498196-12062396-12610228-11914600-13969596-11877056-13138452-14459380-13706000-13499024-12159108-14781592-12326616-13460460-11798804,12423388-14517604-9497708-14272560-11290236-14499028-12062736-12610588-11915120-13969692-11877036-13138660-14459500-13705732-13500308-12158840-14781728-12327008-13460664-11799108,12434460-14535196-9511252-14281712-11311972-14516736-12079292-12627404-11921132-13979428-11894252-13148768-14467240-13726600-13519284-12171416-14805520-12346540-13475940-11810652,12439376-14536404-9514300-14287108-11315972-14519184-12079964-12628440-11921904-13982740-11895240-13148768-14467232-13726600-13519284-12171416-14802476-12346540-13475940-11810652
4,sorter,ec,10,37447563594,37448688757,0,0,882388-529356-882520-1235444-1058908-353048-1058944-705716-882440-176960-882392-706600-705992-1234652-705972-705708-706140-705956-882476-882528,882320-529356-882636-1235372-1059020-353076-1058984-705776-882508-176564-882252-706400-705956-1234656-706004-705780-706108-705960-882436-882528,1772044-1117776-2013972-2170840-1943928-1040552-2242016-1696532-1080132-423004-1956772-1346100-1442432-2165728-1646892-1693484-1536424-1399192-1575452-1561848,1772044-1117748-2013972-2170348-1943928-1040224-2242004-1696532-1079804-422400-1956772-1345756-1442228-2165728-1646892-1693280-1535820-1398068-1575452-1561504
4,sorter,ec,20,74793879599,74787113421,0,0,1411360-353224-1588092-882312-1235600-2294484-2117672-1411864-1058700-1587588-1764816-176908-1941468-2117804-1941796-1764340-2117256-1940832-1941248-2117556,1411428-353044-1588196-882172-1235628-2294428-2117848-1412152-1058788-1587716-1765004-176636-1941560-2117852-1941632-1764484-2117376-1940940-1941132-2117680,3089104-2227616-3266452-2360148-2714612-3859092-3977020-2596744-2537116-3147024-3430596-2142180-3426992-3782552-3800360-3233800-3196136-3416036-3700900-3693308,3089028-2228752-3266772-2359944-2714076-3859092-3977004-2595524-2537116-3147008-3430596-2142180-3426992-3782552-3800360-3233800-3196136-3416036-3700900-3693308
4,sorter,ec,40,149657428072,149632801518,0,0,3882072-3175572-2294284-4234420-3529320-3529588-3706392-3882344-2294320-2999384-2647224-3705340-882660-3176680-3352556-4234252-3881860-3707108-3881516-529672,3882096-3175820-2294448-4234756-3529596-3529880-3706636-3882304-2294408-2999512-2647352-3705488-882704-3176324-3352868-4234276-3882016-3707132-3881648-529808,6656972-6693232-5439844-7548776-7040364-6880776-7428068-7399092-5215036-6120120-4627036-7434432-4616340-7131136-6109312-7779936-6443728-6860736-7217916-2491368,6660048-6694988-5440992-7549692-7038720-6881116-7428028-7398328-5214692-6122688-4627036-7434432-4616340-7129464-6109312-7779620-6443336-6860736-7217920-2491372
4,sorter,ec,80,301072011739,301038757877,0,0,7413284-7234556-8117304-8822344-6705668-5999856-5999592-7411336-9175884-6882160-2293976-6705236-5999292-6528764-6880544-2646920-6882248-2293720-6704668-6352816,7413736-7235368-8117644-8822972-6705820-5999352-5999908-7411420-9176492-6882264-2293988-6704868-5999760-6528952-6880784-2646972-6882824-2294808-6704988-6353180,15041272-12066448-14432692-15248868-12312824-12277940-12948200-13512952-15462172-12876544-8401820-14277512-13334568-15160408-12775320-10549992-12882496-7411960-12223960-11024900,15040752-12066448-14432692-15248552-12312824-12277940-12948200-13512460-15461604-12876496-8398936-14277512-13334568-15160408-12775320-10549992-12882496-7411960-12223960-11024900
4,sorter,rep3,10,34937585102,34941789674,0,0,2379872-1326468-2381488-2380060-1587172-2119276-2383260-2645652-264860-2115544-1855064-1585276-799888-1587048-1321276-1056836-792640-1321084-533888-1324656,2379912-1326504-2381484-2379944-1587196-2119096-2383440-2645692-264680-2115620-1854904-1585236-799924-1587084-1321208-1056876-792840-1321124-533920-1324740,3762176-2262800-3869492-4794944-4034860-3574848-4152060-3766084-1484256-4112300-2583548-3493496-2226272-3561392-2573132-1761328-2869348-3276068-2874052-2498124,3763500-2262996-3869908-4795924-4035204-3574764-4152320-3766536-1484392-4112512-2583548-3493500-2227288-3561600-2573136-1760808-2869356-3276096-2874052-2498132
4,sorter,rep3,20,67071921858,67072833683,0,0,4234480-2649308-3172576-3974056-2910048-3175888-3702808-2646240-2649312-2385064-3441856-3175856-3440096-3177704-3172464-3174816-3440244-2645660-3175840-3175844,4234524-2649300-3172344-3973948-2910080-3175920-3702544-2646312-2649308-2385172-3442368-3176068-3440124-3177804-3172504-3174672-3440224-2645788-3175956-3175916,7414228-4884648-6137492-7211864-5639572-6812524-5740140-4196652-6391000-4563532-8512144-7941796-6540536-6843528-6163800-7454124-6665988-6093792-5228652-6627884,7413920-4884412-6137500-7211868-5639576-6812528-5740140-4196652-6391004-4563532-8512152-7941816-6540544-6843528-6163804-7454132-6665992-6093804-5227444-6627884
4,sorter,rep3,40,134247123080,134243905875,0,0,5287836-6878272-5819636-5302124-5825624-8203024-5032956-5821488-6346220-6348060-7408812-5821760-7146304-5555604-7152560-7937084-5027044-6349872-6889128-6883684,5287872-6878768-5819696-5302368-5825716-8203368-5032664-5821520-6346272-6348344-7408896-5821700-7146516-5555688-7152544-7937164-5027304-6350040-6889292-6883808,10963056-12302624-12552824-12120940-12097152-13720212-14071784-12077552-13828288-14534888-12160376-9576376-10999772-12363648-11267100-16475924-11888908-10794212-13783040-16530048,10965004-12302872-12553916-12121728-12099784-13720676-14073136-12077320-13830776-14534892-12160376-9576032-10999772-12363648-11265168-16473916-11888908-10794212-13782992-16530064
4,sorter,rep3,80,273333002977,273319601587,0,0,12963848-14017368-12178676-12697828-13229868-11919712-11909032-11643424-14292044-11913112-12169276-12439064-12448144-12442688-10065120-12699812-13494244-15081112-13230476-13235884,12964296-14018156-12179160-12698040-13229948-11919952-11909448-11643068-14292664-11913324-12169380-12439764-12448460-12443032-10065140-12699856-13494988-15081700-13229956-13236476,23343540-25109500-23707972-30859568-21431940-29497828-20990168-23637812-24179328-25505604-26396444-30529624-20871172-35322244-19363636-22532584-26676756-24825904-22315764-31108896,23346008-25110880-23713992-30865168-21433336-29497828-20991944-23639128-24180276-25505604-26396444-30529624-20871172-35322252-19360756-22532204-26676392-24825592-22315764-31108896
4,word-count,ec,10,11907137973,11909723605,0,0,897580-1254688-1257296-896900-897616-1435504-717404-1077528-717324-180040-897928-538636-358268-897608-1078132-1076112-896272-228-538812-537744,897644-1254844-1257340-897040-897648-1435292-717444-1077596-717348-179696-897956-538568-358200-897696-1077984-1076184-896104-88-538772-537780,900708-1262168-1267120-911500-899488-1447688-725592-1081900-729596-190104-904464-549212-364288-906840-1084516-1083488-904076-4012-547724-544248,901528-1262240-1267068-911760-900920-1449104-726456-1081888-730016-190104-905248-549212-364288-906840-1084516-1083488-904076-3812-547724-544248
4,word-count,ec,20,23626606681,23623469061,0,0,1614660-2152900-1793720-1434600-1434960-1975348-1975044-179988-1433932-2153752-1973884-1615628-2331416-1435260-1795472-1076492-1436676-179860-2333164-1973128,1614696-2153000-1794028-1434672-1435100-1975420-1975156-179700-1434072-2153728-1973752-1615492-2331508-1435372-1795520-1076528-1436780-179704-2333196-1973092,1621268-2163840-1802820-1444732-1446800-1984000-1980412-187624-1442488-2166568-1982988-1618832-2342036-1444300-1802148-1082684-1447896-192664-2341532-1984284,1623188-2164560-1803896-1445160-1446800-1984096-1979844-187968-1442488-2166552-1983896-1617884-2342036-1444300-1801972-1081560-1447852-192664-2341532-1984284
4,word-count,ec,40,47868063518,47855187140,0,0,3227896-2870820-539004-4125660-3946368-896068-3767684-3588464-718384-4304980-3050708-3769360-2869144-3588968-4667244-3589292-3590168-3411468-4665824-3408880,3227996-2871000-538964-4125492-3946300-896304-3767832-3588544-718476-4305108-3050592-3769620-2869480-3589708-4667252-3589164-3590328-3411408-4665892-3409312,3238904-2875644-554488-4137576-3955896-908652-3778748-3598920-729612-4312492-3061064-3775428-2881728-3604060-4680376-3596772-3601520-3424644-4675340-3423140,3239484-2876452-554300-4137388-3954192-908652-3778572-3598920-729612-4312464-3060848-3773752-2881728-3604060-4680376-3596772-3601304-3424644-4675340-3423140
4,word-count,ec,80,94227470373,94186448427,0,0,5918932-6638360-7716032-7717428-7357748-7538012-6459424-1975264-6458124-6998324-7533880-7534204-2331472-4308108-6816004-8434112-6997228-6459084-8074980-5922888,5918980-6638544-7716440-7717176-7358628-7538220-6459504-1975412-6458672-6998520-7534364-7533820-2331900-4308352-6816268-8434236-6997576-6459432-8076020-5923480,5937324-6650872-7727664-7738652-7370184-7558500-6480752-1982600-6477212-7013616-7543768-7547604-2342784-4324444-6827740-8451112-7009160-6461508-8092320-5941292,5937324-6650872-7727524-7738652-7370184-7558500-6480752-1982600-6476820-7013428-7543768-7547604-2342784-4324444-6827740-8451112-7006032-6461508-8092320-5941292
4,word-count,rep3,10,1001291487,1006254171,0,0,1926520-1868740-1868976-2474628-1604500-2435632-2171476-2152176-1076724-1340444-1604712-811920-1604508-1585468-1095604-528480-2133032-812052-1340312-1849468,1926780-1868776-1868736-2474452-1604612-2435672-2171516-2152212-1076580-1340476-1604552-811920-1604576-1585476-1095496-528448-2132996-811996-1340388-1849548,1931880-1870996-1874444-2478488-1612168-2443000-2177200-2155788-1086328-1345904-1609980-817756-1612696-1593016-1101652-535740-2139736-820548-1347924-1856036,1931868-1870800-1874432-2478488-1612168-2443272-2177916-2155788-1086328-1345904-1609980-817756-1612312-1593016-1101652-535376-2139736-820548-1347724-1856036
4,word-count,rep3,20,2592922555,2597417712,0,0,3492460-3190068-3737548-4001584-3228472-2925484-3228440-3209340-3511936-2944796-2945548-3266960-2699836-3209004-2700004-3492596-3511708-3041128-3021884-3208968,3492756-3189960-3737588-4001656-3228540-2925560-3228480-3209068-3511772-2944800-2945536-3266852-2699936-3209072-2699984-3492748-3511812-3041372-3021956-3209024,3497336-3196804-3746036-4009180-3232532-2929940-3236496-3217604-3516408-2955408-2953100-3279584-2712892-3215360-2710244-3500996-3522828-3047100-3033528-3211804,3497220-3197072-3746388-4009448-3232968-2930096-3236496-3217224-3516408-2955408-2953100-3279556-2712704-3215344-2710040-3500996-3522624-3047100-3033164-3211804
4,word-count,rep3,40,4120171373,4123177711,0,0,6212004-5077804-6456460-7964492-6192216-5947628-5380384-7249044-6701864-7229760-6212004-5684348-6417848-6211492-7532496-7777600-6456400-7758124-5721628-4948308,6211992-5077864-6456604-7964816-6192272-5948212-5380476-7249128-6702216-7229912-6211812-5684108-6417980-6211880-7532596-7777580-6456720-7758276-5721756-4948500,6219880-5090580-6463520-7974972-6202296-5961504-5385004-7257008-6712956-7235948-6224580-5695816-6435020-6216016-7542624-7783368-6465296-7771968-5737532-4966244,6221068-5090216-6463520-7974972-6202120-5961504-5385004-7257008-6712956-7235948-6224580-5695816-6435020-6216016-7542624-7783340-6465108-7771576-5737532-4966244
4,word-count,rep3,80,6624390958,6618627934,0,0,11778900-12403676-14195256-13950924-11913792-14839196-14460000-11289064-10895988-13971160-14459396-11553288-11366492-13119404-12970608-13441420-10252324-12668500-15309828-13421904,11779124-12403988-14195336-13950512-11914392-14839444-14459636-11289296-10896240-13971320-14459648-11554456-11366444-13119512-12971060-13441792-10252496-12669620-15310648-13422240,11787568-12413940-14220616-13961112-11928136-14855288-14477704-11302696-10905744-13978920-14468576-11572936-11376676-13135532-12985324-13461544-10269756-12684220-15321344-13445216,11789764-12417248-14223924-13963352-11929892-14858160-14479348-11302536-10908988-13980320-14472112-11574580-11380220-13135532-12985324-13461544-10269708-12684220-15321344-13445216
