run_id,policy,job_name,submittedAt,launchedAt,finishedAt,hdfs_bytes_read,hdfs_bytes_written,file_bytes_read_map,file_bytes_read_reduce,file_bytes_written_map,file_bytes_written_reduce,total_launched_maps,total_launched_reduces,num_failed_maps,num_failed_reduces,num_killed_maps,num_killed_reduces,data_local_maps,rack_local_maps,other_local_maps,map_startTime,map_finishTime,reduce_startTime,reduce_finishTime
0,ec,wordcount,1547994736052,1547994745837,1547994811092,22118062640,42059416,1312050019,1004465250,2272539686,1011864644,80,36,0,0,0,0,80,0,0,1547994748241,1547994807847,1547994794198,1547994811007
0,ec,wordcount,1547994466208,1547994474702,1547994532931,11059031320,36653795,655906795,502060657,1135923651,509460051,40,36,0,0,0,0,39,1,0,1547994477029,1547994529530,1547994521985,1547994532839
0,ec,wordcount,1547995038286,1547995047230,1547995154527,44236125280,54636947,2625247700,2010502616,4547969184,2017902046,160,36,0,0,0,0,159,1,0,1547995049578,1547995148833,1547995104603,1547995154441
0,ec,wordcount,1547995410597,1547995420890,1547995597088,88472250560,76868938,5250298928,4020541647,9095211390,4027941077,320,36,0,0,0,0,315,5,0,1547995423262,1547995586819,1547995483340,1547995596988
0,rep3,wordcount,1547996471947,1547996480591,1547996554653,43737670752,54709585,2625224205,2010575354,4548117988,2017974784,160,36,0,0,0,0,155,5,0,1547996482893,1547996549812,1547996535977,1547996554594
0,rep3,wordcount,1547996119136,1547996127293,1547996185617,21869029936,42843535,1312528359,1005095394,2273736123,1012494788,80,36,0,0,0,0,79,1,0,1547996129582,1547996182297,1547996176570,1547996185560
0,rep3,wordcount,1547995811836,1547995820557,1547995874083,10934476056,37628788,656633102,503003555,1137750096,510402949,40,36,0,0,0,0,36,4,0,1547995822881,1547995872221,1547995865825,1547995874021
0,rep3,wordcount,1547996894916,1547996903802,1547997040356,87475497152,78939455,5251448038,4022464118,9098998532,4029863548,320,36,0,0,0,0,311,9,0,1547996906082,1547997031867,1547996965303,1547997040294
1,ec,wordcount,1548001797144,1548001805222,1548001971585,88472250560,79126053,5251419616,4022651620,9099370807,4030051050,320,36,0,0,0,0,317,3,0,1548001807571,1548001962379,1548001867654,1548001971495
1,ec,wordcount,1548000760097,1548000771393,1548000851720,11059031320,37037546,656221791,502409494,1136559054,509808888,40,36,0,0,0,0,39,1,0,1548000773690,1548000848739,1548000818674,1548000851626
1,ec,wordcount,1548001057506,1548001067258,1548001134889,22118062640,43528146,1312961029,1005746383,2274978434,1013145777,80,36,0,0,0,0,78,2,0,1548001069649,1548001131673,1548001117611,1548001134797
1,ec,wordcount,1548001379849,1548001388765,1548001509207,44236125280,55196981,2625683628,2011065071,4549100296,2018464501,160,36,0,0,0,0,157,3,0,1548001391092,1548001504174,1548001445204,1548001509112
1,rep3,wordcount,1548002496490,1548002505516,1548002562832,21868952112,43341330,1312889759,1005558829,2274601911,1012958223,80,36,0,0,0,0,76,4,0,1548002507864,1548002559572,1548002555843,1548002562773
1,rep3,wordcount,1548002185817,1548002194665,1548002248529,10934476056,37639134,656475594,503013910,1137770210,510413304,40,36,0,0,0,0,37,3,0,1548002196980,1548002246195,1548002240933,1548002248472
1,rep3,wordcount,1548003275971,1548003284997,1548003416795,87476119744,79178106,5251639148,4022704267,9099478789,4030103697,320,36,0,0,0,0,313,7,0,1548003287327,1548003408581,1548003345518,1548003416733
1,rep3,wordcount,1548002851469,1548002860917,1548002930017,43737826400,54634859,2625455785,2010852533,4548868816,2018251963,160,36,0,0,0,0,158,2,0,1548002863300,1548002925365,1548002917285,1548002929960
4,ec,wordcount,1548020216047,1548020224549,1548020340194,44236125280,53630489,2624648307,2009491457,4545943737,2016890887,160,36,0,0,0,0,155,5,0,1548020226844,1548020334977,1548020281988,1548020340099
4,ec,wordcount,1548019880187,1548019890032,1548019973009,22118062640,43362197,1312844676,1005579773,2274646289,1012979167,80,36,0,0,0,0,77,3,0,1548019892450,1548019969596,1548019940371,1548019972923
4,ec,wordcount,1548019599677,1548019609981,1548019670533,11059031320,37162032,656192745,502534625,1136808968,509934019,40,36,0,0,0,0,39,1,0,1548019612300,1548019668033,1548019656259,1548019670440
4,ec,wordcount,1548020612868,1548020622429,1548020794865,88472250560,77534779,5250625929,4020895512,9095785071,4028294942,320,36,0,0,0,0,316,4,0,1548020624780,1548020786218,1548020684894,1548020794785
4,rep3,wordcount,1548022034092,1548022043033,1548022175009,87475574976,77221730,5250379453,4020896133,9095917410,4028295563,320,36,0,0,0,0,315,5,0,1548022045343,1548022165983,1548022103586,1548022174947
4,rep3,wordcount,1548021651381,1548021659961,1548021729781,43737826400,54688760,2625349591,2010591163,4548211428,2017990593,160,36,0,0,0,0,155,5,0,1548021662254,1548021725034,1548021716387,1548021729723
4,rep3,wordcount,1548021001762,1548021011456,1548021064294,10934476056,37047943,656195135,502456769,1136718636,509856163,40,36,0,0,0,0,39,1,0,1548021013788,1548021061803,1548021057732,1548021064208
4,rep3,wordcount,1548021302572,1548021311403,1548021370545,21869029936,44077784,1313286268,1006298550,2276083294,1013697944,80,36,0,0,0,0,76,4,0,1548021313710,1548021367528,1548021360696,1548021370487
3,ec,wordcount,1548013595656,1548013604539,1548013671405,22118062640,44057046,1313250187,1006277664,2276041310,1013677058,80,36,0,0,0,0,79,1,0,1548013606827,1548013667965,1548013654842,1548013671279
3,ec,wordcount,1548014305704,1548014314393,1548014484769,88472250560,78119941,5250889892,4021641347,9097349401,4029040777,320,36,0,0,0,0,315,5,0,1548014316710,1548014476212,1548014374837,1548014484676
3,ec,wordcount,1548013916723,1548013925365,1548014023133,44236125280,55891983,2626037134,2011799996,4550637023,2019199426,160,36,0,0,0,0,158,2,0,1548013927691,1548014018063,1548013982918,1548014023043
3,ec,wordcount,1548013318224,1548013328254,1548013387004,11059031320,37348750,656314513,502722179,1137186349,510121573,40,36,0,0,0,0,37,3,0,1548013330571,1548013384771,1548013375515,1548013386913
3,rep3,wordcount,1548014700116,1548014710502,1548014763055,10934476056,37452442,656514951,502826360,1137393728,510225754,40,36,0,0,0,0,38,2,0,1548014712819,1548014760678,1548014754761,1548014762994
3,rep3,wordcount,1548015735095,1548015744462,1548015874129,87475263680,79381372,5251458636,4022750260,9099510149,4030149690,320,36,0,0,0,0,316,4,0,1548015746779,1548015865796,1548015806004,1548015874067
3,rep3,wordcount,1548015002048,1548015011519,1548015071365,21869029936,43372569,1312904089,1005626971,2274805649,1013026365,80,36,0,0,0,0,78,2,0,1548015013859,1548015068253,1548015060840,1548015071307
3,rep3,wordcount,1548015343110,1548015352617,1548015423344,43737904224,55611924,2625614171,2011481917,4549931456,2018881347,160,36,0,0,0,0,159,1,0,1548015354968,1548015418693,1548015409053,1548015423283
2,ec,wordcount,1548007047135,1548007057638,1548007140108,11059031320,37431644,656472224,502805406,1137351210,510204800,40,36,0,0,0,0,37,3,0,1548007059973,1548007137595,1548007103935,1548007140014
2,ec,wordcount,1548007354135,1548007363765,1548007441169,22118062640,43932604,1313041275,1006152778,2275793487,1013552172,80,36,0,0,0,0,76,4,0,1548007366130,1548007437964,1548007413124,1548007441051
2,ec,wordcount,1548007686378,1548007694905,1548007805328,44236125280,54408835,2625190459,2010310100,4547652466,2017709530,160,36,0,0,0,0,160,0,0,1548007697192,1548007800309,1548007753215,1548007805233
2,ec,wordcount,1548008099266,1548008108001,1548008277265,88472250560,75279994,5249603771,4019260854,9092770477,4026660284,320,36,0,0,0,0,317,3,0,1548008110298,1548008266307,1548008170428,1548008277174
2,rep3,wordcount,1548009546720,1548009555270,1548009686858,87475886272,79582583,5251608378,4023110416,9100295659,4030509846,320,36,0,0,0,0,315,5,0,1548009557552,1548009678466,1548009615808,1548009686796
2,rep3,wordcount,1548009133707,1548009143219,1548009211830,43737826400,53236803,2624223316,2009132750,4545291613,2016532180,160,36,0,0,0,0,158,2,0,1548009145575,1548009207191,1548009199624,1548009211772
2,rep3,wordcount,1548008789613,1548008798575,1548008858020,21868952112,42988622,1312635023,1005241178,2274030582,1012640572,80,36,0,0,0,0,78,2,0,1548008800885,1548008854836,1548008847917,1548008857961
2,rep3,wordcount,1548008490863,1548008499802,1548008553209,10934553880,37805102,656728881,503180731,1138105228,510580125,40,36,0,0,0,0,36,4,0,1548008502226,1548008550718,1548008547082,1548008553148
0,ec,sorter,1547992122236,1547992130808,1547992425176,88562882240,86046210336,86157948640,86011097984,172088715090,86018510446,320,36,0,0,0,0,316,4,0,1547992133146,1547992287990,1547992163510,1547992425084
0,ec,sorter,1547991661748,1547991670746,1547991826835,44281441120,43023106976,43078974320,43005548992,86044357490,43012961454,160,36,0,0,0,0,159,1,0,1547991673092,1547991752486,1547991698205,1547991826744
0,ec,sorter,1547991324443,1547991333754,1547991412091,22140720560,21511554976,21539487160,21502774496,43022178630,21510186922,80,36,0,0,0,0,78,2,0,1547991336136,1547991388309,1547991354351,1547991412005
0,ec,sorter,1547991057664,1547991067735,1547991110148,11070360280,10755779236,10769743580,10751387356,21511089310,10758799782,40,36,0,0,0,0,38,2,0,1547991070078,1547991098916,1547991082078,1547991110058
0,rep3,sorter,1547992637546,1547992646043,1547992687851,10758237380,10755779236,10769743580,10751387356,21511089310,10758799782,40,36,0,0,0,0,38,2,0,1547992648379,1547992666120,1547992661267,1547992687790
0,rep3,sorter,1547992943647,1547992953554,1547993026786,21516474760,21511554976,21539487160,21502774496,43022178630,21510186922,80,36,0,0,0,0,75,5,0,1547992955885,1547992984576,1547992973799,1547993026723
0,rep3,sorter,1547993329999,1547993338894,1547993524288,43032949520,43023106976,43078974320,43005548992,86044357490,43012961454,160,36,0,0,0,0,157,3,0,1547993341242,1547993406981,1547993373515,1547993524231
0,rep3,sorter,1547993881260,1547993890218,1547994236158,86065899040,86046210336,86157948640,86011097984,172088715090,86018510446,320,36,0,0,0,0,307,13,0,1547993892579,1547993989228,1547993927936,1547994236099
1,ec,sorter,1547998307744,1547998316486,1547998609567,88562882240,86046210336,86157948640,86011097984,172088715090,86018510446,320,36,0,0,0,0,317,3,0,1547998318782,1547998462156,1547998346064,1547998609475
1,ec,sorter,1547997521222,1547997529896,1547997616302,22140720560,21511554976,21539487160,21502774496,43022178630,21510186922,80,36,0,0,0,0,76,4,0,1547997532288,1547997583932,1547997554634,1547997616206
1,ec,sorter,1547997236196,1547997244629,1547997293394,11070360280,10755779236,10769743580,10751387356,21511089310,10758799782,40,36,0,0,0,0,37,3,0,1547997246964,1547997276724,1547997260082,1547997293301
1,ec,sorter,1547997860906,1547997870727,1547998013290,44281441120,43023106976,43078974320,43005548992,86044357490,43012961454,160,36,0,0,0,0,156,4,0,1547997873090,1547997950214,1547997900359,1547998013207
1,rep3,sorter,1547999166638,1547999176826,1547999274891,21516474760,21511554976,21539487160,21502774496,43022178630,21510186922,80,36,0,0,0,0,77,3,0,1547999179158,1547999213867,1547999197074,1547999274829
1,rep3,sorter,1547999575711,1547999584044,1547999779101,43032949520,43023106976,43078974320,43005548992,86044357490,43012961454,160,36,0,0,0,0,154,6,0,1547999586362,1547999652957,1547999615365,1547999779044
1,rep3,sorter,1547998838041,1547998848452,1547998894180,10758237380,10755779236,10769743580,10751387356,21511089310,10758799782,40,36,0,0,0,0,40,0,0,1547998850745,1547998868559,1547998865987,1547998894121
1,rep3,sorter,1548000148024,1548000157703,1548000534847,86065899040,86046210336,86157948640,86011097984,172088715090,86018510446,320,36,0,0,0,0,310,10,0,1548000160055,1548000268905,1548000194096,1548000534789
4,ec,sorter,1548016073568,1548016083902,1548016128874,11070360280,10755779236,10769743580,10751387356,21511089310,10758799782,40,36,0,0,0,0,39,1,0,1548016086189,1548016115755,1548016100148,1548016128778
4,ec,sorter,1548016354686,1548016363574,1548016447876,22140720560,21511554976,21539487160,21502774496,43022178630,21510186922,80,36,0,0,0,0,76,4,0,1548016365932,1548016420068,1548016387261,1548016447781
4,ec,sorter,1548017138281,1548017146807,1548017562154,88562882240,86046210336,86157948640,86011097984,172088715090,86018510446,320,36,0,0,0,0,317,3,0,1548017149087,1548017300895,1548017178307,1548017562063
4,ec,sorter,1548016699180,1548016707911,1548016866703,44281441120,43023106976,43078974320,43005548992,86044357490,43012961454,160,36,0,0,0,0,158,2,0,1548016710373,1548016800985,1548016739058,1548016866612
4,rep3,sorter,1548018078114,1548018087853,1548018175080,21516474760,21511554976,21539487160,21502774496,43022178630,21510186922,80,36,0,0,0,0,80,0,0,1548018090227,1548018131613,1548018109584,1548018175018
4,rep3,sorter,1548017771447,1548017780731,1548017824386,10758237380,10755779236,10769743580,10751387356,21511089310,10758799782,40,36,0,0,0,0,35,5,0,1548017783086,1548017801816,1548017794957,1548017824326
4,rep3,sorter,1548018977559,1548018986679,1548019374960,86065899040,86046210336,86157948640,86011097984,172088715090,86018510446,320,36,0,0,0,0,306,14,0,1548018988996,1548019090762,1548019025251,1548019374896
4,rep3,sorter,1548018452209,1548018461765,1548018637357,43032949520,43023106976,43078974320,43005548992,86044357490,43012961454,160,36,0,0,0,0,160,0,0,1548018464179,1548018518866,1548018495192,1548018637299
3,ec,sorter,1548009887323,1548009898306,1548009939870,11070360280,10755779236,10769743580,10751387356,21511089310,10758799782,40,36,0,0,0,0,40,0,0,1548009900593,1548009926755,1548009913611,1548009939777
3,ec,sorter,1548010156940,1548010166155,1548010235888,22140720560,21511554976,21539487160,21502774496,43022178630,21510186922,80,36,0,0,0,0,78,2,0,1548010168557,1548010209170,1548010186626,1548010235800
3,ec,sorter,1548010928634,1548010937039,1548011269667,88562882240,86046210336,86157948640,86011097984,172088715090,86018510446,320,36,0,0,0,0,319,1,0,1548010939352,1548011087247,1548010969599,1548011269575
3,ec,sorter,1548010482915,1548010491947,1548010671107,44281441120,43023106976,43078974320,43005548992,86044357490,43012961454,160,36,0,0,0,0,158,2,0,1548010494330,1548010586808,1548010519833,1548010671016
3,rep3,sorter,1548011796084,1548011805313,1548011889209,21516474760,21511554976,21539487160,21502774496,43022178630,21510186922,80,36,0,0,0,0,78,2,0,1548011807699,1548011835692,1548011827601,1548011889147
3,rep3,sorter,1548012165994,1548012174225,1548012367711,43032949520,43023106976,43078974320,43005548992,86044357490,43012961454,160,36,0,0,0,0,158,2,0,1548012176527,1548012252675,1548012207863,1548012367654
3,rep3,sorter,1548012705398,1548012714319,1548013089477,86065899040,86046210336,86157948640,86011097984,172088715090,86018510446,320,36,0,0,0,0,309,11,0,1548012716698,1548012827682,1548012752701,1548013089419
3,rep3,sorter,1548011482526,1548011491737,1548011538606,10758237380,10755779236,10769743580,10751387356,21511089310,10758799782,40,36,0,0,0,0,36,4,0,1548011494108,1548011518775,1548011505942,1548011538546
2,ec,sorter,1548003897374,1548003906209,1548003988884,22140720560,21511554976,21539487160,21502774496,43022178630,21510186922,80,36,0,0,0,0,79,1,0,1548003908599,1548003962651,1548003927636,1548003988789
2,ec,sorter,1548004713523,1548004722222,1548005014573,88562882240,86046210336,86157948640,86011097984,172088715090,86018510446,320,36,0,0,0,0,316,4,0,1548004724529,1548004871980,1548004753153,1548005014481
2,ec,sorter,1548004247438,1548004256625,1548004419228,44281441120,43023106976,43078974320,43005548992,86044357490,43012961454,160,36,0,0,0,0,160,0,0,1548004258980,1548004348833,1548004288652,1548004419145
2,ec,sorter,1548003614811,1548003625544,1548003671390,11070360280,10755779236,10769743580,10751387356,21511089310,10758799782,40,36,0,0,0,0,36,4,0,1548003627885,1548003657773,1548003643924,1548003671296
2,rep3,sorter,1548005921182,1548005930424,1548006111040,43032949520,43023106976,43078974320,43005548992,86044357490,43012961454,160,36,0,0,0,0,156,4,0,1548005932807,1548006010343,1548005963719,1548006110983
2,rep3,sorter,1548005532363,1548005541144,1548005630405,21516474760,21511554976,21539487160,21502774496,43022178630,21510186922,80,36,0,0,0,0,79,1,0,1548005543445,1548005584198,1548005560441,1548005630342
2,rep3,sorter,1548006468943,1548006477375,1548006820446,86065899040,86046210336,86157948640,86011097984,172088715090,86018510446,320,36,0,0,0,0,302,18,0,1548006479688,1548006579199,1548006515907,1548006820389
2,rep3,sorter,1548005223996,1548005232822,1548005274836,10758237380,10755779236,10769743580,10751387356,21511089310,10758799782,40,36,0,0,0,0,40,0,0,1548005235125,1548005254130,1548005249070,1548005274776
